^C:\USERS\WOLFCL0CK\DOCUMENTS\GITHUB\SP\SOURCE-SDK-2013\SP\SRC\PUBLIC\TIER0\POINTEROVERRIDE.ASM
C:\USERS\WOLFCL0CK\DOCUMENTS\GITHUB\SP\SOURCE-SDK-2013\SP\SRC\UTILS\VVIS\RELEASE\POINTEROVERRIDE.OBJ
^C:\USERS\WOLFCL0CK\DOCUMENTS\GITHUB\SP\SOURCE-SDK-2013\SP\SRC\UTILS\VVIS\VVIS_DLL.VPC
C:\USERS\WOLFCL0CK\DOCUMENTS\GITHUB\SP\SOURCE-SDK-2013\SP\SRC\UTILS\VVIS\VVIS_DLL.VPC.SENTINEL
