^C:\Users\Wolfcl0ck\Documents\GitHub\sp\source-sdk-2013\sp\src\utils\vvis\vvis_dll.vcxproj
C:\Users\Wolfcl0ck\Documents\GitHub\sp\source-sdk-2013\sp\src\utils\vvis\Release\vvis_dll.lib
C:\Users\Wolfcl0ck\Documents\GitHub\sp\source-sdk-2013\sp\src\utils\vvis\Release\vvis_dll.exp
^C:\Users\Wolfcl0ck\Documents\GitHub\sp\source-sdk-2013\sp\src\utils\vvis\vvis_dll.vcxproj
C:\Users\Wolfcl0ck\Documents\GitHub\sp\source-sdk-2013\sp\src\utils\vvis\Release\vvis_dll.lib
C:\Users\Wolfcl0ck\Documents\GitHub\sp\source-sdk-2013\sp\src\utils\vvis\Release\vvis_dll.exp
