^C:\Users\Wolfcl0ck\Documents\GitHub\sp\source-sdk-2013\sp\src\utils\vrad\vrad_dll.vcxproj
C:\Users\Wolfcl0ck\Documents\GitHub\sp\source-sdk-2013\sp\src\utils\vrad\Release\vrad_dll.lib
C:\Users\Wolfcl0ck\Documents\GitHub\sp\source-sdk-2013\sp\src\utils\vrad\Release\vrad_dll.exp
^C:\Users\Wolfcl0ck\Documents\GitHub\sp\source-sdk-2013\sp\src\utils\vrad\vrad_dll.vcxproj
C:\Users\Wolfcl0ck\Documents\GitHub\sp\source-sdk-2013\sp\src\utils\vrad\Release\vrad_dll.lib
C:\Users\Wolfcl0ck\Documents\GitHub\sp\source-sdk-2013\sp\src\utils\vrad\Release\vrad_dll.exp
