^C:\USERS\WOLFCL0CK\DOCUMENTS\GITHUB\SP\SOURCE-SDK-2013\SP\SRC\PUBLIC\TIER0\POINTEROVERRIDE.ASM
"C:\Program Files (x86)\Microsoft Visual Studio 12.0\VC\bin\ml.exe" /safeseh /c /Cp /Zi /Fo".\Release_mod_episodic\\pointeroverride.obj" "C:\Users\Wolfcl0ck\Documents\GitHub\sp\source-sdk-2013\sp\src\public\tier0\pointeroverride.asm"
^C:\USERS\WOLFCL0CK\DOCUMENTS\GITHUB\SP\SOURCE-SDK-2013\SP\SRC\GAME\SERVER\SERVER_EPISODIC.VPC
if exist "..\..\devtools\bin\vpc.exe" "..\..\devtools\bin\vpc.exe" -crc2 "server_episodic.vcxproj"if ERRORLEVEL 1 exit /b 1echo crc_complete > C:\Users\Wolfcl0ck\Documents\GitHub\sp\source-sdk-2013\sp\src\game\server\server_episodic.vpc.sentinel
