^C:\USERS\WOLFCL0CK\DOCUMENTS\GITHUB\SP\SOURCE-SDK-2013\SP\SRC\LIB\PUBLIC\MATHLIB.LIB|C:\USERS\WOLFCL0CK\DOCUMENTS\GITHUB\SP\SOURCE-SDK-2013\SP\SRC\LIB\PUBLIC\TIER0.LIB|C:\USERS\WOLFCL0CK\DOCUMENTS\GITHUB\SP\SOURCE-SDK-2013\SP\SRC\LIB\PUBLIC\TIER1.LIB|C:\USERS\WOLFCL0CK\DOCUMENTS\GITHUB\SP\SOURCE-SDK-2013\SP\SRC\LIB\PUBLIC\VSTDLIB.LIB|C:\USERS\WOLFCL0CK\DOCUMENTS\GITHUB\SP\SOURCE-SDK-2013\SP\SRC\UTILS\PHONEMEEXTRACTOR\RELEASE\EXTRACTOR_UTILS.OBJ|C:\USERS\WOLFCL0CK\DOCUMENTS\GITHUB\SP\SOURCE-SDK-2013\SP\SRC\UTILS\PHONEMEEXTRACTOR\RELEASE\MEMOVERRIDE.OBJ|C:\USERS\WOLFCL0CK\DOCUMENTS\GITHUB\SP\SOURCE-SDK-2013\SP\SRC\UTILS\PHONEMEEXTRACTOR\RELEASE\PHONEMECONVERTER.OBJ|C:\USERS\WOLFCL0CK\DOCUMENTS\GITHUB\SP\SOURCE-SDK-2013\SP\SRC\UTILS\PHONEMEEXTRACTOR\RELEASE\PHONEMEEXTRACTOR.OBJ|C:\USERS\WOLFCL0CK\DOCUMENTS\GITHUB\SP\SOURCE-SDK-2013\SP\SRC\UTILS\PHONEMEEXTRACTOR\RELEASE\POINTEROVERRIDE.OBJ|C:\USERS\WOLFCL0CK\DOCUMENTS\GITHUB\SP\SOURCE-SDK-2013\SP\SRC\UTILS\PHONEMEEXTRACTOR\RELEASE\SENTENCE.OBJ|C:\USERS\WOLFCL0CK\DOCUMENTS\GITHUB\SP\SOURCE-SDK-2013\SP\SRC\UTILS\SAPI51\LIB\I386\SAPI.LIB
C:\PROGRAM FILES (X86)\MICROSOFT SDKS\WINDOWS\V7.1A\LIB\SHELL32.LIB
C:\PROGRAM FILES (X86)\MICROSOFT SDKS\WINDOWS\V7.1A\LIB\USER32.LIB
C:\PROGRAM FILES (X86)\MICROSOFT SDKS\WINDOWS\V7.1A\LIB\ADVAPI32.LIB
C:\PROGRAM FILES (X86)\MICROSOFT SDKS\WINDOWS\V7.1A\LIB\GDI32.LIB
C:\PROGRAM FILES (X86)\MICROSOFT SDKS\WINDOWS\V7.1A\LIB\COMDLG32.LIB
C:\PROGRAM FILES (X86)\MICROSOFT SDKS\WINDOWS\V7.1A\LIB\OLE32.LIB
C:\PROGRAM FILES (X86)\MICROSOFT SDKS\WINDOWS\V7.1A\LIB\ODBC32.LIB
C:\PROGRAM FILES (X86)\MICROSOFT SDKS\WINDOWS\V7.1A\LIB\ODBCCP32.LIB
C:\USERS\WOLFCL0CK\DOCUMENTS\GITHUB\SP\SOURCE-SDK-2013\SP\SRC\UTILS\PHONEMEEXTRACTOR\RELEASE\POINTEROVERRIDE.OBJ
C:\USERS\WOLFCL0CK\DOCUMENTS\GITHUB\SP\SOURCE-SDK-2013\SP\SRC\UTILS\PHONEMEEXTRACTOR\RELEASE\EXTRACTOR_UTILS.OBJ
C:\USERS\WOLFCL0CK\DOCUMENTS\GITHUB\SP\SOURCE-SDK-2013\SP\SRC\UTILS\PHONEMEEXTRACTOR\RELEASE\MEMOVERRIDE.OBJ
C:\USERS\WOLFCL0CK\DOCUMENTS\GITHUB\SP\SOURCE-SDK-2013\SP\SRC\UTILS\PHONEMEEXTRACTOR\RELEASE\PHONEMECONVERTER.OBJ
C:\USERS\WOLFCL0CK\DOCUMENTS\GITHUB\SP\SOURCE-SDK-2013\SP\SRC\UTILS\PHONEMEEXTRACTOR\RELEASE\PHONEMEEXTRACTOR.OBJ
C:\USERS\WOLFCL0CK\DOCUMENTS\GITHUB\SP\SOURCE-SDK-2013\SP\SRC\UTILS\PHONEMEEXTRACTOR\RELEASE\SENTENCE.OBJ
C:\USERS\WOLFCL0CK\DOCUMENTS\GITHUB\SP\SOURCE-SDK-2013\SP\SRC\LIB\PUBLIC\MATHLIB.LIB
C:\USERS\WOLFCL0CK\DOCUMENTS\GITHUB\SP\SOURCE-SDK-2013\SP\SRC\UTILS\SAPI51\LIB\I386\SAPI.LIB
C:\USERS\WOLFCL0CK\DOCUMENTS\GITHUB\SP\SOURCE-SDK-2013\SP\SRC\LIB\PUBLIC\TIER0.LIB
C:\USERS\WOLFCL0CK\DOCUMENTS\GITHUB\SP\SOURCE-SDK-2013\SP\SRC\LIB\PUBLIC\TIER1.LIB
C:\USERS\WOLFCL0CK\DOCUMENTS\GITHUB\SP\SOURCE-SDK-2013\SP\SRC\LIB\PUBLIC\VSTDLIB.LIB
C:\WINDOWS\GLOBALIZATION\SORTING\SORTDEFAULT.NLS
C:\PROGRAM FILES (X86)\MICROSOFT SDKS\WINDOWS\V7.1A\LIB\UUID.LIB
C:\PROGRAM FILES (X86)\MICROSOFT VISUAL STUDIO 12.0\VC\LIB\LIBCMT.LIB
C:\PROGRAM FILES (X86)\MICROSOFT VISUAL STUDIO 12.0\VC\LIB\OLDNAMES.LIB
C:\PROGRAM FILES (X86)\MICROSOFT VISUAL STUDIO 12.0\VC\LIB\LIBCPMT.LIB
C:\PROGRAM FILES (X86)\MICROSOFT VISUAL STUDIO 12.0\VC\ATLMFC\LIB\ATLS.LIB
C:\PROGRAM FILES (X86)\MICROSOFT SDKS\WINDOWS\V7.1A\LIB\KERNEL32.LIB
C:\PROGRAM FILES (X86)\MICROSOFT SDKS\WINDOWS\V7.1A\LIB\OLEAUT32.LIB
C:\PROGRAM FILES (X86)\MICROSOFT SDKS\WINDOWS\V7.1A\LIB\SHLWAPI.LIB
C:\WINDOWS\SYSTEM32\TZRES.DLL
C:\PROGRAM FILES (X86)\MICROSOFT VISUAL STUDIO 12.0\VC\BIN\1033\LINKUI.DLL
