^C:\USERS\WOLFCL0CK\DOCUMENTS\GITHUB\SP\SOURCE-SDK-2013\SP\SRC\LIB\PUBLIC\MATHLIB.LIB|C:\USERS\WOLFCL0CK\DOCUMENTS\GITHUB\SP\SOURCE-SDK-2013\SP\SRC\LIB\PUBLIC\TIER0.LIB|C:\USERS\WOLFCL0CK\DOCUMENTS\GITHUB\SP\SOURCE-SDK-2013\SP\SRC\LIB\PUBLIC\TIER1.LIB|C:\USERS\WOLFCL0CK\DOCUMENTS\GITHUB\SP\SOURCE-SDK-2013\SP\SRC\LIB\PUBLIC\TIER2.LIB|C:\USERS\WOLFCL0CK\DOCUMENTS\GITHUB\SP\SOURCE-SDK-2013\SP\SRC\LIB\PUBLIC\VSTDLIB.LIB|C:\USERS\WOLFCL0CK\DOCUMENTS\GITHUB\SP\SOURCE-SDK-2013\SP\SRC\UTILS\GLVIEW\RELEASE\CMDLIB.OBJ|C:\USERS\WOLFCL0CK\DOCUMENTS\GITHUB\SP\SOURCE-SDK-2013\SP\SRC\UTILS\GLVIEW\RELEASE\FILESYSTEM_HELPERS.OBJ|C:\USERS\WOLFCL0CK\DOCUMENTS\GITHUB\SP\SOURCE-SDK-2013\SP\SRC\UTILS\GLVIEW\RELEASE\FILESYSTEM_INIT.OBJ|C:\USERS\WOLFCL0CK\DOCUMENTS\GITHUB\SP\SOURCE-SDK-2013\SP\SRC\UTILS\GLVIEW\RELEASE\FILESYSTEM_TOOLS.OBJ|C:\USERS\WOLFCL0CK\DOCUMENTS\GITHUB\SP\SOURCE-SDK-2013\SP\SRC\UTILS\GLVIEW\RELEASE\GLVIEW.OBJ|C:\USERS\WOLFCL0CK\DOCUMENTS\GITHUB\SP\SOURCE-SDK-2013\SP\SRC\UTILS\GLVIEW\RELEASE\MEMOVERRIDE.OBJ|C:\USERS\WOLFCL0CK\DOCUMENTS\GITHUB\SP\SOURCE-SDK-2013\SP\SRC\UTILS\GLVIEW\RELEASE\PHYSDLL.OBJ|C:\USERS\WOLFCL0CK\DOCUMENTS\GITHUB\SP\SOURCE-SDK-2013\SP\SRC\UTILS\GLVIEW\RELEASE\POINTEROVERRIDE.OBJ
C:\USERS\WOLFCL0CK\DOCUMENTS\GITHUB\SP\SOURCE-SDK-2013\SP\SRC\UTILS\GLVIEW\RELEASE\GLVIEW.EXE
C:\USERS\WOLFCL0CK\DOCUMENTS\GITHUB\SP\SOURCE-SDK-2013\SP\SRC\UTILS\GLVIEW\RELEASE\GLVIEW.PDB
