^C:\USERS\WOLFCL0CK\DOCUMENTS\GITHUB\SP\SOURCE-SDK-2013\SP\SRC\PUBLIC\TIER0\MEMOVERRIDE.CPP
C:\USERS\WOLFCL0CK\DOCUMENTS\GITHUB\SP\SOURCE-SDK-2013\SP\SRC\UTILS\TGADIFF\RELEASE\VC120.PDB
^C:\USERS\WOLFCL0CK\DOCUMENTS\GITHUB\SP\SOURCE-SDK-2013\SP\SRC\UTILS\TGADIFF\TGADIFF.CPP
C:\USERS\WOLFCL0CK\DOCUMENTS\GITHUB\SP\SOURCE-SDK-2013\SP\SRC\UTILS\TGADIFF\RELEASE\VC120.PDB
