^C:\USERS\WOLFCL0CK\DOCUMENTS\GITHUB\SP\SOURCE-SDK-2013\SP\SRC\VGUI2\VGUI_CONTROLS\ANALOGBAR.CPP
/c /I..\..\common /I..\..\public /I..\..\public\tier0 /I..\..\public\tier1 /Igenerated_proto /I"..\..\thirdparty\protobuf-2.3.0\src" /I..\..\thirdparty /I..\..\thirdparty\cef /Igenerated_proto /Z7 /nologo /W4 /WX /O2 /Ob2 /Oi /Ot /Oy- /D VPC /D RAD_TELEMETRY_DISABLED /D WIN32 /D _WIN32 /D NDEBUG /D _LIB /D _CRT_SECURE_NO_DEPRECATE /D _CRT_NONSTDC_NO_DEPRECATE /D _ALLOW_RUNTIME_LIBRARY_MISMATCH /D _ALLOW_ITERATOR_DEBUG_LEVEL_MISMATCH /D _ALLOW_MSC_VER_MISMATCH /D _USING_V110_SDK71_ /D _MBCS /D COMPILER_MSVC32 /D COMPILER_MSVC32 /D COMPILER_MSVC /D _DLL_EXT=.dll /D LIBNAME=vgui_controls /D BINK_VIDEO /D AVI_VIDEO /D WMV_VIDEO /D DEV_BUILD /D FRAME_POINTER_OMISSION_DISABLED /D _EXTERNAL_DLL_EXT=.dll /D VPCGAMECAPS=VALVE /D "PROJECTDIR=C:\Users\Wolfcl0ck\Documents\GitHub\sp\source-sdk-2013\sp\src\vgui2\vgui_controls" /D _DLL_EXT=.dll /D SOURCE1=1 /D VPCGAME=valve /GF /Gm- /MT /GS /Gy /arch:SSE /fp:fast /Zc:wchar_t /Zc:forScope /GR /openmp- /Fo".\RELEASE\.\/" /Fd".\RELEASE\.\/VC120.PDB" /Gd /TP /wd4316 /analyze- /FC /d2Zi+ /Gw C:\USERS\WOLFCL0CK\DOCUMENTS\GITHUB\SP\SOURCE-SDK-2013\SP\SRC\VGUI2\VGUI_CONTROLS\ANALOGBAR.CPP
^C:\USERS\WOLFCL0CK\DOCUMENTS\GITHUB\SP\SOURCE-SDK-2013\SP\SRC\VGUI2\VGUI_CONTROLS\ANIMATINGIMAGEPANEL.CPP
/c /I..\..\common /I..\..\public /I..\..\public\tier0 /I..\..\public\tier1 /Igenerated_proto /I"..\..\thirdparty\protobuf-2.3.0\src" /I..\..\thirdparty /I..\..\thirdparty\cef /Igenerated_proto /Z7 /nologo /W4 /WX /O2 /Ob2 /Oi /Ot /Oy- /D VPC /D RAD_TELEMETRY_DISABLED /D WIN32 /D _WIN32 /D NDEBUG /D _LIB /D _CRT_SECURE_NO_DEPRECATE /D _CRT_NONSTDC_NO_DEPRECATE /D _ALLOW_RUNTIME_LIBRARY_MISMATCH /D _ALLOW_ITERATOR_DEBUG_LEVEL_MISMATCH /D _ALLOW_MSC_VER_MISMATCH /D _USING_V110_SDK71_ /D _MBCS /D COMPILER_MSVC32 /D COMPILER_MSVC32 /D COMPILER_MSVC /D _DLL_EXT=.dll /D LIBNAME=vgui_controls /D BINK_VIDEO /D AVI_VIDEO /D WMV_VIDEO /D DEV_BUILD /D FRAME_POINTER_OMISSION_DISABLED /D _EXTERNAL_DLL_EXT=.dll /D VPCGAMECAPS=VALVE /D "PROJECTDIR=C:\Users\Wolfcl0ck\Documents\GitHub\sp\source-sdk-2013\sp\src\vgui2\vgui_controls" /D _DLL_EXT=.dll /D SOURCE1=1 /D VPCGAME=valve /GF /Gm- /MT /GS /Gy /arch:SSE /fp:fast /Zc:wchar_t /Zc:forScope /GR /openmp- /Fo".\RELEASE\.\/" /Fd".\RELEASE\.\/VC120.PDB" /Gd /TP /wd4316 /analyze- /FC /d2Zi+ /Gw C:\USERS\WOLFCL0CK\DOCUMENTS\GITHUB\SP\SOURCE-SDK-2013\SP\SRC\VGUI2\VGUI_CONTROLS\ANIMATINGIMAGEPANEL.CPP
^C:\USERS\WOLFCL0CK\DOCUMENTS\GITHUB\SP\SOURCE-SDK-2013\SP\SRC\VGUI2\VGUI_CONTROLS\ANIMATIONCONTROLLER.CPP
/c /I..\..\common /I..\..\public /I..\..\public\tier0 /I..\..\public\tier1 /Igenerated_proto /I"..\..\thirdparty\protobuf-2.3.0\src" /I..\..\thirdparty /I..\..\thirdparty\cef /Igenerated_proto /Z7 /nologo /W4 /WX /O2 /Ob2 /Oi /Ot /Oy- /D VPC /D RAD_TELEMETRY_DISABLED /D WIN32 /D _WIN32 /D NDEBUG /D _LIB /D _CRT_SECURE_NO_DEPRECATE /D _CRT_NONSTDC_NO_DEPRECATE /D _ALLOW_RUNTIME_LIBRARY_MISMATCH /D _ALLOW_ITERATOR_DEBUG_LEVEL_MISMATCH /D _ALLOW_MSC_VER_MISMATCH /D _USING_V110_SDK71_ /D _MBCS /D COMPILER_MSVC32 /D COMPILER_MSVC32 /D COMPILER_MSVC /D _DLL_EXT=.dll /D LIBNAME=vgui_controls /D BINK_VIDEO /D AVI_VIDEO /D WMV_VIDEO /D DEV_BUILD /D FRAME_POINTER_OMISSION_DISABLED /D _EXTERNAL_DLL_EXT=.dll /D VPCGAMECAPS=VALVE /D "PROJECTDIR=C:\Users\Wolfcl0ck\Documents\GitHub\sp\source-sdk-2013\sp\src\vgui2\vgui_controls" /D _DLL_EXT=.dll /D SOURCE1=1 /D VPCGAME=valve /GF /Gm- /MT /GS /Gy /arch:SSE /fp:fast /Zc:wchar_t /Zc:forScope /GR /openmp- /Fo".\RELEASE\.\/" /Fd".\RELEASE\.\/VC120.PDB" /Gd /TP /wd4316 /analyze- /FC /d2Zi+ /Gw C:\USERS\WOLFCL0CK\DOCUMENTS\GITHUB\SP\SOURCE-SDK-2013\SP\SRC\VGUI2\VGUI_CONTROLS\ANIMATIONCONTROLLER.CPP
^C:\USERS\WOLFCL0CK\DOCUMENTS\GITHUB\SP\SOURCE-SDK-2013\SP\SRC\VGUI2\VGUI_CONTROLS\BITMAPIMAGEPANEL.CPP
/c /I..\..\common /I..\..\public /I..\..\public\tier0 /I..\..\public\tier1 /Igenerated_proto /I"..\..\thirdparty\protobuf-2.3.0\src" /I..\..\thirdparty /I..\..\thirdparty\cef /Igenerated_proto /Z7 /nologo /W4 /WX /O2 /Ob2 /Oi /Ot /Oy- /D VPC /D RAD_TELEMETRY_DISABLED /D WIN32 /D _WIN32 /D NDEBUG /D _LIB /D _CRT_SECURE_NO_DEPRECATE /D _CRT_NONSTDC_NO_DEPRECATE /D _ALLOW_RUNTIME_LIBRARY_MISMATCH /D _ALLOW_ITERATOR_DEBUG_LEVEL_MISMATCH /D _ALLOW_MSC_VER_MISMATCH /D _USING_V110_SDK71_ /D _MBCS /D COMPILER_MSVC32 /D COMPILER_MSVC32 /D COMPILER_MSVC /D _DLL_EXT=.dll /D LIBNAME=vgui_controls /D BINK_VIDEO /D AVI_VIDEO /D WMV_VIDEO /D DEV_BUILD /D FRAME_POINTER_OMISSION_DISABLED /D _EXTERNAL_DLL_EXT=.dll /D VPCGAMECAPS=VALVE /D "PROJECTDIR=C:\Users\Wolfcl0ck\Documents\GitHub\sp\source-sdk-2013\sp\src\vgui2\vgui_controls" /D _DLL_EXT=.dll /D SOURCE1=1 /D VPCGAME=valve /GF /Gm- /MT /GS /Gy /arch:SSE /fp:fast /Zc:wchar_t /Zc:forScope /GR /openmp- /Fo".\RELEASE\.\/" /Fd".\RELEASE\.\/VC120.PDB" /Gd /TP /wd4316 /analyze- /FC /d2Zi+ /Gw C:\USERS\WOLFCL0CK\DOCUMENTS\GITHUB\SP\SOURCE-SDK-2013\SP\SRC\VGUI2\VGUI_CONTROLS\BITMAPIMAGEPANEL.CPP
^C:\USERS\WOLFCL0CK\DOCUMENTS\GITHUB\SP\SOURCE-SDK-2013\SP\SRC\VGUI2\VGUI_CONTROLS\BUILDFACTORYHELPER.CPP
/c /I..\..\common /I..\..\public /I..\..\public\tier0 /I..\..\public\tier1 /Igenerated_proto /I"..\..\thirdparty\protobuf-2.3.0\src" /I..\..\thirdparty /I..\..\thirdparty\cef /Igenerated_proto /Z7 /nologo /W4 /WX /O2 /Ob2 /Oi /Ot /Oy- /D VPC /D RAD_TELEMETRY_DISABLED /D WIN32 /D _WIN32 /D NDEBUG /D _LIB /D _CRT_SECURE_NO_DEPRECATE /D _CRT_NONSTDC_NO_DEPRECATE /D _ALLOW_RUNTIME_LIBRARY_MISMATCH /D _ALLOW_ITERATOR_DEBUG_LEVEL_MISMATCH /D _ALLOW_MSC_VER_MISMATCH /D _USING_V110_SDK71_ /D _MBCS /D COMPILER_MSVC32 /D COMPILER_MSVC32 /D COMPILER_MSVC /D _DLL_EXT=.dll /D LIBNAME=vgui_controls /D BINK_VIDEO /D AVI_VIDEO /D WMV_VIDEO /D DEV_BUILD /D FRAME_POINTER_OMISSION_DISABLED /D _EXTERNAL_DLL_EXT=.dll /D VPCGAMECAPS=VALVE /D "PROJECTDIR=C:\Users\Wolfcl0ck\Documents\GitHub\sp\source-sdk-2013\sp\src\vgui2\vgui_controls" /D _DLL_EXT=.dll /D SOURCE1=1 /D VPCGAME=valve /GF /Gm- /MT /GS /Gy /arch:SSE /fp:fast /Zc:wchar_t /Zc:forScope /GR /openmp- /Fo".\RELEASE\.\/" /Fd".\RELEASE\.\/VC120.PDB" /Gd /TP /wd4316 /analyze- /FC /d2Zi+ /Gw C:\USERS\WOLFCL0CK\DOCUMENTS\GITHUB\SP\SOURCE-SDK-2013\SP\SRC\VGUI2\VGUI_CONTROLS\BUILDFACTORYHELPER.CPP
^C:\USERS\WOLFCL0CK\DOCUMENTS\GITHUB\SP\SOURCE-SDK-2013\SP\SRC\VGUI2\VGUI_CONTROLS\BUILDGROUP.CPP
/c /I..\..\common /I..\..\public /I..\..\public\tier0 /I..\..\public\tier1 /Igenerated_proto /I"..\..\thirdparty\protobuf-2.3.0\src" /I..\..\thirdparty /I..\..\thirdparty\cef /Igenerated_proto /Z7 /nologo /W4 /WX /O2 /Ob2 /Oi /Ot /Oy- /D VPC /D RAD_TELEMETRY_DISABLED /D WIN32 /D _WIN32 /D NDEBUG /D _LIB /D _CRT_SECURE_NO_DEPRECATE /D _CRT_NONSTDC_NO_DEPRECATE /D _ALLOW_RUNTIME_LIBRARY_MISMATCH /D _ALLOW_ITERATOR_DEBUG_LEVEL_MISMATCH /D _ALLOW_MSC_VER_MISMATCH /D _USING_V110_SDK71_ /D _MBCS /D COMPILER_MSVC32 /D COMPILER_MSVC32 /D COMPILER_MSVC /D _DLL_EXT=.dll /D LIBNAME=vgui_controls /D BINK_VIDEO /D AVI_VIDEO /D WMV_VIDEO /D DEV_BUILD /D FRAME_POINTER_OMISSION_DISABLED /D _EXTERNAL_DLL_EXT=.dll /D VPCGAMECAPS=VALVE /D "PROJECTDIR=C:\Users\Wolfcl0ck\Documents\GitHub\sp\source-sdk-2013\sp\src\vgui2\vgui_controls" /D _DLL_EXT=.dll /D SOURCE1=1 /D VPCGAME=valve /GF /Gm- /MT /GS /Gy /arch:SSE /fp:fast /Zc:wchar_t /Zc:forScope /GR /openmp- /Fo".\RELEASE\.\/" /Fd".\RELEASE\.\/VC120.PDB" /Gd /TP /wd4316 /analyze- /FC /d2Zi+ /Gw C:\USERS\WOLFCL0CK\DOCUMENTS\GITHUB\SP\SOURCE-SDK-2013\SP\SRC\VGUI2\VGUI_CONTROLS\BUILDGROUP.CPP
^C:\USERS\WOLFCL0CK\DOCUMENTS\GITHUB\SP\SOURCE-SDK-2013\SP\SRC\VGUI2\VGUI_CONTROLS\BUILDMODEDIALOG.CPP
/c /I..\..\common /I..\..\public /I..\..\public\tier0 /I..\..\public\tier1 /Igenerated_proto /I"..\..\thirdparty\protobuf-2.3.0\src" /I..\..\thirdparty /I..\..\thirdparty\cef /Igenerated_proto /Z7 /nologo /W4 /WX /O2 /Ob2 /Oi /Ot /Oy- /D VPC /D RAD_TELEMETRY_DISABLED /D WIN32 /D _WIN32 /D NDEBUG /D _LIB /D _CRT_SECURE_NO_DEPRECATE /D _CRT_NONSTDC_NO_DEPRECATE /D _ALLOW_RUNTIME_LIBRARY_MISMATCH /D _ALLOW_ITERATOR_DEBUG_LEVEL_MISMATCH /D _ALLOW_MSC_VER_MISMATCH /D _USING_V110_SDK71_ /D _MBCS /D COMPILER_MSVC32 /D COMPILER_MSVC32 /D COMPILER_MSVC /D _DLL_EXT=.dll /D LIBNAME=vgui_controls /D BINK_VIDEO /D AVI_VIDEO /D WMV_VIDEO /D DEV_BUILD /D FRAME_POINTER_OMISSION_DISABLED /D _EXTERNAL_DLL_EXT=.dll /D VPCGAMECAPS=VALVE /D "PROJECTDIR=C:\Users\Wolfcl0ck\Documents\GitHub\sp\source-sdk-2013\sp\src\vgui2\vgui_controls" /D _DLL_EXT=.dll /D SOURCE1=1 /D VPCGAME=valve /GF /Gm- /MT /GS /Gy /arch:SSE /fp:fast /Zc:wchar_t /Zc:forScope /GR /openmp- /Fo".\RELEASE\.\/" /Fd".\RELEASE\.\/VC120.PDB" /Gd /TP /wd4316 /analyze- /FC /d2Zi+ /Gw C:\USERS\WOLFCL0CK\DOCUMENTS\GITHUB\SP\SOURCE-SDK-2013\SP\SRC\VGUI2\VGUI_CONTROLS\BUILDMODEDIALOG.CPP
^C:\USERS\WOLFCL0CK\DOCUMENTS\GITHUB\SP\SOURCE-SDK-2013\SP\SRC\VGUI2\VGUI_CONTROLS\BUTTON.CPP
/c /I..\..\common /I..\..\public /I..\..\public\tier0 /I..\..\public\tier1 /Igenerated_proto /I"..\..\thirdparty\protobuf-2.3.0\src" /I..\..\thirdparty /I..\..\thirdparty\cef /Igenerated_proto /Z7 /nologo /W4 /WX /O2 /Ob2 /Oi /Ot /Oy- /D VPC /D RAD_TELEMETRY_DISABLED /D WIN32 /D _WIN32 /D NDEBUG /D _LIB /D _CRT_SECURE_NO_DEPRECATE /D _CRT_NONSTDC_NO_DEPRECATE /D _ALLOW_RUNTIME_LIBRARY_MISMATCH /D _ALLOW_ITERATOR_DEBUG_LEVEL_MISMATCH /D _ALLOW_MSC_VER_MISMATCH /D _USING_V110_SDK71_ /D _MBCS /D COMPILER_MSVC32 /D COMPILER_MSVC32 /D COMPILER_MSVC /D _DLL_EXT=.dll /D LIBNAME=vgui_controls /D BINK_VIDEO /D AVI_VIDEO /D WMV_VIDEO /D DEV_BUILD /D FRAME_POINTER_OMISSION_DISABLED /D _EXTERNAL_DLL_EXT=.dll /D VPCGAMECAPS=VALVE /D "PROJECTDIR=C:\Users\Wolfcl0ck\Documents\GitHub\sp\source-sdk-2013\sp\src\vgui2\vgui_controls" /D _DLL_EXT=.dll /D SOURCE1=1 /D VPCGAME=valve /GF /Gm- /MT /GS /Gy /arch:SSE /fp:fast /Zc:wchar_t /Zc:forScope /GR /openmp- /Fo".\RELEASE\.\/" /Fd".\RELEASE\.\/VC120.PDB" /Gd /TP /wd4316 /analyze- /FC /d2Zi+ /Gw C:\USERS\WOLFCL0CK\DOCUMENTS\GITHUB\SP\SOURCE-SDK-2013\SP\SRC\VGUI2\VGUI_CONTROLS\BUTTON.CPP
^C:\USERS\WOLFCL0CK\DOCUMENTS\GITHUB\SP\SOURCE-SDK-2013\SP\SRC\VGUI2\VGUI_CONTROLS\CHECKBUTTON.CPP
/c /I..\..\common /I..\..\public /I..\..\public\tier0 /I..\..\public\tier1 /Igenerated_proto /I"..\..\thirdparty\protobuf-2.3.0\src" /I..\..\thirdparty /I..\..\thirdparty\cef /Igenerated_proto /Z7 /nologo /W4 /WX /O2 /Ob2 /Oi /Ot /Oy- /D VPC /D RAD_TELEMETRY_DISABLED /D WIN32 /D _WIN32 /D NDEBUG /D _LIB /D _CRT_SECURE_NO_DEPRECATE /D _CRT_NONSTDC_NO_DEPRECATE /D _ALLOW_RUNTIME_LIBRARY_MISMATCH /D _ALLOW_ITERATOR_DEBUG_LEVEL_MISMATCH /D _ALLOW_MSC_VER_MISMATCH /D _USING_V110_SDK71_ /D _MBCS /D COMPILER_MSVC32 /D COMPILER_MSVC32 /D COMPILER_MSVC /D _DLL_EXT=.dll /D LIBNAME=vgui_controls /D BINK_VIDEO /D AVI_VIDEO /D WMV_VIDEO /D DEV_BUILD /D FRAME_POINTER_OMISSION_DISABLED /D _EXTERNAL_DLL_EXT=.dll /D VPCGAMECAPS=VALVE /D "PROJECTDIR=C:\Users\Wolfcl0ck\Documents\GitHub\sp\source-sdk-2013\sp\src\vgui2\vgui_controls" /D _DLL_EXT=.dll /D SOURCE1=1 /D VPCGAME=valve /GF /Gm- /MT /GS /Gy /arch:SSE /fp:fast /Zc:wchar_t /Zc:forScope /GR /openmp- /Fo".\RELEASE\.\/" /Fd".\RELEASE\.\/VC120.PDB" /Gd /TP /wd4316 /analyze- /FC /d2Zi+ /Gw C:\USERS\WOLFCL0CK\DOCUMENTS\GITHUB\SP\SOURCE-SDK-2013\SP\SRC\VGUI2\VGUI_CONTROLS\CHECKBUTTON.CPP
^C:\USERS\WOLFCL0CK\DOCUMENTS\GITHUB\SP\SOURCE-SDK-2013\SP\SRC\VGUI2\VGUI_CONTROLS\CHECKBUTTONLIST.CPP
/c /I..\..\common /I..\..\public /I..\..\public\tier0 /I..\..\public\tier1 /Igenerated_proto /I"..\..\thirdparty\protobuf-2.3.0\src" /I..\..\thirdparty /I..\..\thirdparty\cef /Igenerated_proto /Z7 /nologo /W4 /WX /O2 /Ob2 /Oi /Ot /Oy- /D VPC /D RAD_TELEMETRY_DISABLED /D WIN32 /D _WIN32 /D NDEBUG /D _LIB /D _CRT_SECURE_NO_DEPRECATE /D _CRT_NONSTDC_NO_DEPRECATE /D _ALLOW_RUNTIME_LIBRARY_MISMATCH /D _ALLOW_ITERATOR_DEBUG_LEVEL_MISMATCH /D _ALLOW_MSC_VER_MISMATCH /D _USING_V110_SDK71_ /D _MBCS /D COMPILER_MSVC32 /D COMPILER_MSVC32 /D COMPILER_MSVC /D _DLL_EXT=.dll /D LIBNAME=vgui_controls /D BINK_VIDEO /D AVI_VIDEO /D WMV_VIDEO /D DEV_BUILD /D FRAME_POINTER_OMISSION_DISABLED /D _EXTERNAL_DLL_EXT=.dll /D VPCGAMECAPS=VALVE /D "PROJECTDIR=C:\Users\Wolfcl0ck\Documents\GitHub\sp\source-sdk-2013\sp\src\vgui2\vgui_controls" /D _DLL_EXT=.dll /D SOURCE1=1 /D VPCGAME=valve /GF /Gm- /MT /GS /Gy /arch:SSE /fp:fast /Zc:wchar_t /Zc:forScope /GR /openmp- /Fo".\RELEASE\.\/" /Fd".\RELEASE\.\/VC120.PDB" /Gd /TP /wd4316 /analyze- /FC /d2Zi+ /Gw C:\USERS\WOLFCL0CK\DOCUMENTS\GITHUB\SP\SOURCE-SDK-2013\SP\SRC\VGUI2\VGUI_CONTROLS\CHECKBUTTONLIST.CPP
^C:\USERS\WOLFCL0CK\DOCUMENTS\GITHUB\SP\SOURCE-SDK-2013\SP\SRC\VGUI2\VGUI_CONTROLS\CIRCULARPROGRESSBAR.CPP
/c /I..\..\common /I..\..\public /I..\..\public\tier0 /I..\..\public\tier1 /Igenerated_proto /I"..\..\thirdparty\protobuf-2.3.0\src" /I..\..\thirdparty /I..\..\thirdparty\cef /Igenerated_proto /Z7 /nologo /W4 /WX /O2 /Ob2 /Oi /Ot /Oy- /D VPC /D RAD_TELEMETRY_DISABLED /D WIN32 /D _WIN32 /D NDEBUG /D _LIB /D _CRT_SECURE_NO_DEPRECATE /D _CRT_NONSTDC_NO_DEPRECATE /D _ALLOW_RUNTIME_LIBRARY_MISMATCH /D _ALLOW_ITERATOR_DEBUG_LEVEL_MISMATCH /D _ALLOW_MSC_VER_MISMATCH /D _USING_V110_SDK71_ /D _MBCS /D COMPILER_MSVC32 /D COMPILER_MSVC32 /D COMPILER_MSVC /D _DLL_EXT=.dll /D LIBNAME=vgui_controls /D BINK_VIDEO /D AVI_VIDEO /D WMV_VIDEO /D DEV_BUILD /D FRAME_POINTER_OMISSION_DISABLED /D _EXTERNAL_DLL_EXT=.dll /D VPCGAMECAPS=VALVE /D "PROJECTDIR=C:\Users\Wolfcl0ck\Documents\GitHub\sp\source-sdk-2013\sp\src\vgui2\vgui_controls" /D _DLL_EXT=.dll /D SOURCE1=1 /D VPCGAME=valve /GF /Gm- /MT /GS /Gy /arch:SSE /fp:fast /Zc:wchar_t /Zc:forScope /GR /openmp- /Fo".\RELEASE\.\/" /Fd".\RELEASE\.\/VC120.PDB" /Gd /TP /wd4316 /analyze- /FC /d2Zi+ /Gw C:\USERS\WOLFCL0CK\DOCUMENTS\GITHUB\SP\SOURCE-SDK-2013\SP\SRC\VGUI2\VGUI_CONTROLS\CIRCULARPROGRESSBAR.CPP
^C:\USERS\WOLFCL0CK\DOCUMENTS\GITHUB\SP\SOURCE-SDK-2013\SP\SRC\VGUI2\VGUI_CONTROLS\COMBOBOX.CPP
/c /I..\..\common /I..\..\public /I..\..\public\tier0 /I..\..\public\tier1 /Igenerated_proto /I"..\..\thirdparty\protobuf-2.3.0\src" /I..\..\thirdparty /I..\..\thirdparty\cef /Igenerated_proto /Z7 /nologo /W4 /WX /O2 /Ob2 /Oi /Ot /Oy- /D VPC /D RAD_TELEMETRY_DISABLED /D WIN32 /D _WIN32 /D NDEBUG /D _LIB /D _CRT_SECURE_NO_DEPRECATE /D _CRT_NONSTDC_NO_DEPRECATE /D _ALLOW_RUNTIME_LIBRARY_MISMATCH /D _ALLOW_ITERATOR_DEBUG_LEVEL_MISMATCH /D _ALLOW_MSC_VER_MISMATCH /D _USING_V110_SDK71_ /D _MBCS /D COMPILER_MSVC32 /D COMPILER_MSVC32 /D COMPILER_MSVC /D _DLL_EXT=.dll /D LIBNAME=vgui_controls /D BINK_VIDEO /D AVI_VIDEO /D WMV_VIDEO /D DEV_BUILD /D FRAME_POINTER_OMISSION_DISABLED /D _EXTERNAL_DLL_EXT=.dll /D VPCGAMECAPS=VALVE /D "PROJECTDIR=C:\Users\Wolfcl0ck\Documents\GitHub\sp\source-sdk-2013\sp\src\vgui2\vgui_controls" /D _DLL_EXT=.dll /D SOURCE1=1 /D VPCGAME=valve /GF /Gm- /MT /GS /Gy /arch:SSE /fp:fast /Zc:wchar_t /Zc:forScope /GR /openmp- /Fo".\RELEASE\.\/" /Fd".\RELEASE\.\/VC120.PDB" /Gd /TP /wd4316 /analyze- /FC /d2Zi+ /Gw C:\USERS\WOLFCL0CK\DOCUMENTS\GITHUB\SP\SOURCE-SDK-2013\SP\SRC\VGUI2\VGUI_CONTROLS\COMBOBOX.CPP
^C:\USERS\WOLFCL0CK\DOCUMENTS\GITHUB\SP\SOURCE-SDK-2013\SP\SRC\VGUI2\VGUI_CONTROLS\CONSOLEDIALOG.CPP
/c /I..\..\common /I..\..\public /I..\..\public\tier0 /I..\..\public\tier1 /Igenerated_proto /I"..\..\thirdparty\protobuf-2.3.0\src" /I..\..\thirdparty /I..\..\thirdparty\cef /Igenerated_proto /Z7 /nologo /W4 /WX /O2 /Ob2 /Oi /Ot /Oy- /D VPC /D RAD_TELEMETRY_DISABLED /D WIN32 /D _WIN32 /D NDEBUG /D _LIB /D _CRT_SECURE_NO_DEPRECATE /D _CRT_NONSTDC_NO_DEPRECATE /D _ALLOW_RUNTIME_LIBRARY_MISMATCH /D _ALLOW_ITERATOR_DEBUG_LEVEL_MISMATCH /D _ALLOW_MSC_VER_MISMATCH /D _USING_V110_SDK71_ /D _MBCS /D COMPILER_MSVC32 /D COMPILER_MSVC32 /D COMPILER_MSVC /D _DLL_EXT=.dll /D LIBNAME=vgui_controls /D BINK_VIDEO /D AVI_VIDEO /D WMV_VIDEO /D DEV_BUILD /D FRAME_POINTER_OMISSION_DISABLED /D _EXTERNAL_DLL_EXT=.dll /D VPCGAMECAPS=VALVE /D "PROJECTDIR=C:\Users\Wolfcl0ck\Documents\GitHub\sp\source-sdk-2013\sp\src\vgui2\vgui_controls" /D _DLL_EXT=.dll /D SOURCE1=1 /D VPCGAME=valve /GF /Gm- /MT /GS /Gy /arch:SSE /fp:fast /Zc:wchar_t /Zc:forScope /GR /openmp- /Fo".\RELEASE\.\/" /Fd".\RELEASE\.\/VC120.PDB" /Gd /TP /wd4316 /analyze- /FC /d2Zi+ /Gw C:\USERS\WOLFCL0CK\DOCUMENTS\GITHUB\SP\SOURCE-SDK-2013\SP\SRC\VGUI2\VGUI_CONTROLS\CONSOLEDIALOG.CPP
^C:\USERS\WOLFCL0CK\DOCUMENTS\GITHUB\SP\SOURCE-SDK-2013\SP\SRC\VGUI2\VGUI_CONTROLS\CONTROLLERMAP.CPP
/c /I..\..\common /I..\..\public /I..\..\public\tier0 /I..\..\public\tier1 /Igenerated_proto /I"..\..\thirdparty\protobuf-2.3.0\src" /I..\..\thirdparty /I..\..\thirdparty\cef /Igenerated_proto /Z7 /nologo /W4 /WX /O2 /Ob2 /Oi /Ot /Oy- /D VPC /D RAD_TELEMETRY_DISABLED /D WIN32 /D _WIN32 /D NDEBUG /D _LIB /D _CRT_SECURE_NO_DEPRECATE /D _CRT_NONSTDC_NO_DEPRECATE /D _ALLOW_RUNTIME_LIBRARY_MISMATCH /D _ALLOW_ITERATOR_DEBUG_LEVEL_MISMATCH /D _ALLOW_MSC_VER_MISMATCH /D _USING_V110_SDK71_ /D _MBCS /D COMPILER_MSVC32 /D COMPILER_MSVC32 /D COMPILER_MSVC /D _DLL_EXT=.dll /D LIBNAME=vgui_controls /D BINK_VIDEO /D AVI_VIDEO /D WMV_VIDEO /D DEV_BUILD /D FRAME_POINTER_OMISSION_DISABLED /D _EXTERNAL_DLL_EXT=.dll /D VPCGAMECAPS=VALVE /D "PROJECTDIR=C:\Users\Wolfcl0ck\Documents\GitHub\sp\source-sdk-2013\sp\src\vgui2\vgui_controls" /D _DLL_EXT=.dll /D SOURCE1=1 /D VPCGAME=valve /GF /Gm- /MT /GS /Gy /arch:SSE /fp:fast /Zc:wchar_t /Zc:forScope /GR /openmp- /Fo".\RELEASE\.\/" /Fd".\RELEASE\.\/VC120.PDB" /Gd /TP /wd4316 /analyze- /FC /d2Zi+ /Gw C:\USERS\WOLFCL0CK\DOCUMENTS\GITHUB\SP\SOURCE-SDK-2013\SP\SRC\VGUI2\VGUI_CONTROLS\CONTROLLERMAP.CPP
^C:\USERS\WOLFCL0CK\DOCUMENTS\GITHUB\SP\SOURCE-SDK-2013\SP\SRC\VGUI2\VGUI_CONTROLS\CONTROLS.CPP
/c /I..\..\common /I..\..\public /I..\..\public\tier0 /I..\..\public\tier1 /Igenerated_proto /I"..\..\thirdparty\protobuf-2.3.0\src" /I..\..\thirdparty /I..\..\thirdparty\cef /Igenerated_proto /Z7 /nologo /W4 /WX /O2 /Ob2 /Oi /Ot /Oy- /D VPC /D RAD_TELEMETRY_DISABLED /D WIN32 /D _WIN32 /D NDEBUG /D _LIB /D _CRT_SECURE_NO_DEPRECATE /D _CRT_NONSTDC_NO_DEPRECATE /D _ALLOW_RUNTIME_LIBRARY_MISMATCH /D _ALLOW_ITERATOR_DEBUG_LEVEL_MISMATCH /D _ALLOW_MSC_VER_MISMATCH /D _USING_V110_SDK71_ /D _MBCS /D COMPILER_MSVC32 /D COMPILER_MSVC32 /D COMPILER_MSVC /D _DLL_EXT=.dll /D LIBNAME=vgui_controls /D BINK_VIDEO /D AVI_VIDEO /D WMV_VIDEO /D DEV_BUILD /D FRAME_POINTER_OMISSION_DISABLED /D _EXTERNAL_DLL_EXT=.dll /D VPCGAMECAPS=VALVE /D "PROJECTDIR=C:\Users\Wolfcl0ck\Documents\GitHub\sp\source-sdk-2013\sp\src\vgui2\vgui_controls" /D _DLL_EXT=.dll /D SOURCE1=1 /D VPCGAME=valve /GF /Gm- /MT /GS /Gy /arch:SSE /fp:fast /Zc:wchar_t /Zc:forScope /GR /openmp- /Fo".\RELEASE\.\/" /Fd".\RELEASE\.\/VC120.PDB" /Gd /TP /wd4316 /analyze- /FC /d2Zi+ /Gw C:\USERS\WOLFCL0CK\DOCUMENTS\GITHUB\SP\SOURCE-SDK-2013\SP\SRC\VGUI2\VGUI_CONTROLS\CONTROLS.CPP
^C:\USERS\WOLFCL0CK\DOCUMENTS\GITHUB\SP\SOURCE-SDK-2013\SP\SRC\VGUI2\VGUI_CONTROLS\CVARTOGGLECHECKBUTTON.CPP
/c /I..\..\common /I..\..\public /I..\..\public\tier0 /I..\..\public\tier1 /Igenerated_proto /I"..\..\thirdparty\protobuf-2.3.0\src" /I..\..\thirdparty /I..\..\thirdparty\cef /Igenerated_proto /Z7 /nologo /W4 /WX /O2 /Ob2 /Oi /Ot /Oy- /D VPC /D RAD_TELEMETRY_DISABLED /D WIN32 /D _WIN32 /D NDEBUG /D _LIB /D _CRT_SECURE_NO_DEPRECATE /D _CRT_NONSTDC_NO_DEPRECATE /D _ALLOW_RUNTIME_LIBRARY_MISMATCH /D _ALLOW_ITERATOR_DEBUG_LEVEL_MISMATCH /D _ALLOW_MSC_VER_MISMATCH /D _USING_V110_SDK71_ /D _MBCS /D COMPILER_MSVC32 /D COMPILER_MSVC32 /D COMPILER_MSVC /D _DLL_EXT=.dll /D LIBNAME=vgui_controls /D BINK_VIDEO /D AVI_VIDEO /D WMV_VIDEO /D DEV_BUILD /D FRAME_POINTER_OMISSION_DISABLED /D _EXTERNAL_DLL_EXT=.dll /D VPCGAMECAPS=VALVE /D "PROJECTDIR=C:\Users\Wolfcl0ck\Documents\GitHub\sp\source-sdk-2013\sp\src\vgui2\vgui_controls" /D _DLL_EXT=.dll /D SOURCE1=1 /D VPCGAME=valve /GF /Gm- /MT /GS /Gy /arch:SSE /fp:fast /Zc:wchar_t /Zc:forScope /GR /openmp- /Fo".\RELEASE\.\/" /Fd".\RELEASE\.\/VC120.PDB" /Gd /TP /wd4316 /analyze- /FC /d2Zi+ /Gw C:\USERS\WOLFCL0CK\DOCUMENTS\GITHUB\SP\SOURCE-SDK-2013\SP\SRC\VGUI2\VGUI_CONTROLS\CVARTOGGLECHECKBUTTON.CPP
^C:\USERS\WOLFCL0CK\DOCUMENTS\GITHUB\SP\SOURCE-SDK-2013\SP\SRC\VGUI2\VGUI_CONTROLS\DIRECTORYSELECTDIALOG.CPP
/c /I..\..\common /I..\..\public /I..\..\public\tier0 /I..\..\public\tier1 /Igenerated_proto /I"..\..\thirdparty\protobuf-2.3.0\src" /I..\..\thirdparty /I..\..\thirdparty\cef /Igenerated_proto /Z7 /nologo /W4 /WX /O2 /Ob2 /Oi /Ot /Oy- /D VPC /D RAD_TELEMETRY_DISABLED /D WIN32 /D _WIN32 /D NDEBUG /D _LIB /D _CRT_SECURE_NO_DEPRECATE /D _CRT_NONSTDC_NO_DEPRECATE /D _ALLOW_RUNTIME_LIBRARY_MISMATCH /D _ALLOW_ITERATOR_DEBUG_LEVEL_MISMATCH /D _ALLOW_MSC_VER_MISMATCH /D _USING_V110_SDK71_ /D _MBCS /D COMPILER_MSVC32 /D COMPILER_MSVC32 /D COMPILER_MSVC /D _DLL_EXT=.dll /D LIBNAME=vgui_controls /D BINK_VIDEO /D AVI_VIDEO /D WMV_VIDEO /D DEV_BUILD /D FRAME_POINTER_OMISSION_DISABLED /D _EXTERNAL_DLL_EXT=.dll /D VPCGAMECAPS=VALVE /D "PROJECTDIR=C:\Users\Wolfcl0ck\Documents\GitHub\sp\source-sdk-2013\sp\src\vgui2\vgui_controls" /D _DLL_EXT=.dll /D SOURCE1=1 /D VPCGAME=valve /GF /Gm- /MT /GS /Gy /arch:SSE /fp:fast /Zc:wchar_t /Zc:forScope /GR /openmp- /Fo".\RELEASE\.\/" /Fd".\RELEASE\.\/VC120.PDB" /Gd /TP /wd4316 /analyze- /FC /d2Zi+ /Gw C:\USERS\WOLFCL0CK\DOCUMENTS\GITHUB\SP\SOURCE-SDK-2013\SP\SRC\VGUI2\VGUI_CONTROLS\DIRECTORYSELECTDIALOG.CPP
^C:\USERS\WOLFCL0CK\DOCUMENTS\GITHUB\SP\SOURCE-SDK-2013\SP\SRC\VGUI2\VGUI_CONTROLS\DIVIDER.CPP
/c /I..\..\common /I..\..\public /I..\..\public\tier0 /I..\..\public\tier1 /Igenerated_proto /I"..\..\thirdparty\protobuf-2.3.0\src" /I..\..\thirdparty /I..\..\thirdparty\cef /Igenerated_proto /Z7 /nologo /W4 /WX /O2 /Ob2 /Oi /Ot /Oy- /D VPC /D RAD_TELEMETRY_DISABLED /D WIN32 /D _WIN32 /D NDEBUG /D _LIB /D _CRT_SECURE_NO_DEPRECATE /D _CRT_NONSTDC_NO_DEPRECATE /D _ALLOW_RUNTIME_LIBRARY_MISMATCH /D _ALLOW_ITERATOR_DEBUG_LEVEL_MISMATCH /D _ALLOW_MSC_VER_MISMATCH /D _USING_V110_SDK71_ /D _MBCS /D COMPILER_MSVC32 /D COMPILER_MSVC32 /D COMPILER_MSVC /D _DLL_EXT=.dll /D LIBNAME=vgui_controls /D BINK_VIDEO /D AVI_VIDEO /D WMV_VIDEO /D DEV_BUILD /D FRAME_POINTER_OMISSION_DISABLED /D _EXTERNAL_DLL_EXT=.dll /D VPCGAMECAPS=VALVE /D "PROJECTDIR=C:\Users\Wolfcl0ck\Documents\GitHub\sp\source-sdk-2013\sp\src\vgui2\vgui_controls" /D _DLL_EXT=.dll /D SOURCE1=1 /D VPCGAME=valve /GF /Gm- /MT /GS /Gy /arch:SSE /fp:fast /Zc:wchar_t /Zc:forScope /GR /openmp- /Fo".\RELEASE\.\/" /Fd".\RELEASE\.\/VC120.PDB" /Gd /TP /wd4316 /analyze- /FC /d2Zi+ /Gw C:\USERS\WOLFCL0CK\DOCUMENTS\GITHUB\SP\SOURCE-SDK-2013\SP\SRC\VGUI2\VGUI_CONTROLS\DIVIDER.CPP
^C:\USERS\WOLFCL0CK\DOCUMENTS\GITHUB\SP\SOURCE-SDK-2013\SP\SRC\VGUI2\VGUI_CONTROLS\EDITABLEPANEL.CPP
/c /I..\..\common /I..\..\public /I..\..\public\tier0 /I..\..\public\tier1 /Igenerated_proto /I"..\..\thirdparty\protobuf-2.3.0\src" /I..\..\thirdparty /I..\..\thirdparty\cef /Igenerated_proto /Z7 /nologo /W4 /WX /O2 /Ob2 /Oi /Ot /Oy- /D VPC /D RAD_TELEMETRY_DISABLED /D WIN32 /D _WIN32 /D NDEBUG /D _LIB /D _CRT_SECURE_NO_DEPRECATE /D _CRT_NONSTDC_NO_DEPRECATE /D _ALLOW_RUNTIME_LIBRARY_MISMATCH /D _ALLOW_ITERATOR_DEBUG_LEVEL_MISMATCH /D _ALLOW_MSC_VER_MISMATCH /D _USING_V110_SDK71_ /D _MBCS /D COMPILER_MSVC32 /D COMPILER_MSVC32 /D COMPILER_MSVC /D _DLL_EXT=.dll /D LIBNAME=vgui_controls /D BINK_VIDEO /D AVI_VIDEO /D WMV_VIDEO /D DEV_BUILD /D FRAME_POINTER_OMISSION_DISABLED /D _EXTERNAL_DLL_EXT=.dll /D VPCGAMECAPS=VALVE /D "PROJECTDIR=C:\Users\Wolfcl0ck\Documents\GitHub\sp\source-sdk-2013\sp\src\vgui2\vgui_controls" /D _DLL_EXT=.dll /D SOURCE1=1 /D VPCGAME=valve /GF /Gm- /MT /GS /Gy /arch:SSE /fp:fast /Zc:wchar_t /Zc:forScope /GR /openmp- /Fo".\RELEASE\.\/" /Fd".\RELEASE\.\/VC120.PDB" /Gd /TP /wd4316 /analyze- /FC /d2Zi+ /Gw C:\USERS\WOLFCL0CK\DOCUMENTS\GITHUB\SP\SOURCE-SDK-2013\SP\SRC\VGUI2\VGUI_CONTROLS\EDITABLEPANEL.CPP
^C:\USERS\WOLFCL0CK\DOCUMENTS\GITHUB\SP\SOURCE-SDK-2013\SP\SRC\VGUI2\VGUI_CONTROLS\EXPANDBUTTON.CPP
/c /I..\..\common /I..\..\public /I..\..\public\tier0 /I..\..\public\tier1 /Igenerated_proto /I"..\..\thirdparty\protobuf-2.3.0\src" /I..\..\thirdparty /I..\..\thirdparty\cef /Igenerated_proto /Z7 /nologo /W4 /WX /O2 /Ob2 /Oi /Ot /Oy- /D VPC /D RAD_TELEMETRY_DISABLED /D WIN32 /D _WIN32 /D NDEBUG /D _LIB /D _CRT_SECURE_NO_DEPRECATE /D _CRT_NONSTDC_NO_DEPRECATE /D _ALLOW_RUNTIME_LIBRARY_MISMATCH /D _ALLOW_ITERATOR_DEBUG_LEVEL_MISMATCH /D _ALLOW_MSC_VER_MISMATCH /D _USING_V110_SDK71_ /D _MBCS /D COMPILER_MSVC32 /D COMPILER_MSVC32 /D COMPILER_MSVC /D _DLL_EXT=.dll /D LIBNAME=vgui_controls /D BINK_VIDEO /D AVI_VIDEO /D WMV_VIDEO /D DEV_BUILD /D FRAME_POINTER_OMISSION_DISABLED /D _EXTERNAL_DLL_EXT=.dll /D VPCGAMECAPS=VALVE /D "PROJECTDIR=C:\Users\Wolfcl0ck\Documents\GitHub\sp\source-sdk-2013\sp\src\vgui2\vgui_controls" /D _DLL_EXT=.dll /D SOURCE1=1 /D VPCGAME=valve /GF /Gm- /MT /GS /Gy /arch:SSE /fp:fast /Zc:wchar_t /Zc:forScope /GR /openmp- /Fo".\RELEASE\.\/" /Fd".\RELEASE\.\/VC120.PDB" /Gd /TP /wd4316 /analyze- /FC /d2Zi+ /Gw C:\USERS\WOLFCL0CK\DOCUMENTS\GITHUB\SP\SOURCE-SDK-2013\SP\SRC\VGUI2\VGUI_CONTROLS\EXPANDBUTTON.CPP
^C:\USERS\WOLFCL0CK\DOCUMENTS\GITHUB\SP\SOURCE-SDK-2013\SP\SRC\VGUI2\VGUI_CONTROLS\FILEOPENDIALOG.CPP
/c /I..\..\common /I..\..\public /I..\..\public\tier0 /I..\..\public\tier1 /Igenerated_proto /I"..\..\thirdparty\protobuf-2.3.0\src" /I..\..\thirdparty /I..\..\thirdparty\cef /Igenerated_proto /Z7 /nologo /W4 /WX /O2 /Ob2 /Oi /Ot /Oy- /D VPC /D RAD_TELEMETRY_DISABLED /D WIN32 /D _WIN32 /D NDEBUG /D _LIB /D _CRT_SECURE_NO_DEPRECATE /D _CRT_NONSTDC_NO_DEPRECATE /D _ALLOW_RUNTIME_LIBRARY_MISMATCH /D _ALLOW_ITERATOR_DEBUG_LEVEL_MISMATCH /D _ALLOW_MSC_VER_MISMATCH /D _USING_V110_SDK71_ /D _MBCS /D COMPILER_MSVC32 /D COMPILER_MSVC32 /D COMPILER_MSVC /D _DLL_EXT=.dll /D LIBNAME=vgui_controls /D BINK_VIDEO /D AVI_VIDEO /D WMV_VIDEO /D DEV_BUILD /D FRAME_POINTER_OMISSION_DISABLED /D _EXTERNAL_DLL_EXT=.dll /D VPCGAMECAPS=VALVE /D "PROJECTDIR=C:\Users\Wolfcl0ck\Documents\GitHub\sp\source-sdk-2013\sp\src\vgui2\vgui_controls" /D _DLL_EXT=.dll /D SOURCE1=1 /D VPCGAME=valve /GF /Gm- /MT /GS /Gy /arch:SSE /fp:fast /Zc:wchar_t /Zc:forScope /GR /openmp- /Fo".\RELEASE\.\/" /Fd".\RELEASE\.\/VC120.PDB" /Gd /TP /wd4316 /analyze- /FC /d2Zi+ /Gw C:\USERS\WOLFCL0CK\DOCUMENTS\GITHUB\SP\SOURCE-SDK-2013\SP\SRC\VGUI2\VGUI_CONTROLS\FILEOPENDIALOG.CPP
^C:\USERS\WOLFCL0CK\DOCUMENTS\GITHUB\SP\SOURCE-SDK-2013\SP\SRC\VGUI2\VGUI_CONTROLS\FILEOPENSTATEMACHINE.CPP
/c /I..\..\common /I..\..\public /I..\..\public\tier0 /I..\..\public\tier1 /Igenerated_proto /I"..\..\thirdparty\protobuf-2.3.0\src" /I..\..\thirdparty /I..\..\thirdparty\cef /Igenerated_proto /Z7 /nologo /W4 /WX /O2 /Ob2 /Oi /Ot /Oy- /D VPC /D RAD_TELEMETRY_DISABLED /D WIN32 /D _WIN32 /D NDEBUG /D _LIB /D _CRT_SECURE_NO_DEPRECATE /D _CRT_NONSTDC_NO_DEPRECATE /D _ALLOW_RUNTIME_LIBRARY_MISMATCH /D _ALLOW_ITERATOR_DEBUG_LEVEL_MISMATCH /D _ALLOW_MSC_VER_MISMATCH /D _USING_V110_SDK71_ /D _MBCS /D COMPILER_MSVC32 /D COMPILER_MSVC32 /D COMPILER_MSVC /D _DLL_EXT=.dll /D LIBNAME=vgui_controls /D BINK_VIDEO /D AVI_VIDEO /D WMV_VIDEO /D DEV_BUILD /D FRAME_POINTER_OMISSION_DISABLED /D _EXTERNAL_DLL_EXT=.dll /D VPCGAMECAPS=VALVE /D "PROJECTDIR=C:\Users\Wolfcl0ck\Documents\GitHub\sp\source-sdk-2013\sp\src\vgui2\vgui_controls" /D _DLL_EXT=.dll /D SOURCE1=1 /D VPCGAME=valve /GF /Gm- /MT /GS /Gy /arch:SSE /fp:fast /Zc:wchar_t /Zc:forScope /GR /openmp- /Fo".\RELEASE\.\/" /Fd".\RELEASE\.\/VC120.PDB" /Gd /TP /wd4316 /analyze- /FC /d2Zi+ /Gw C:\USERS\WOLFCL0CK\DOCUMENTS\GITHUB\SP\SOURCE-SDK-2013\SP\SRC\VGUI2\VGUI_CONTROLS\FILEOPENSTATEMACHINE.CPP
^C:\USERS\WOLFCL0CK\DOCUMENTS\GITHUB\SP\SOURCE-SDK-2013\SP\SRC\PUBLIC\FILESYSTEM_HELPERS.CPP
/c /I..\..\common /I..\..\public /I..\..\public\tier0 /I..\..\public\tier1 /Igenerated_proto /I"..\..\thirdparty\protobuf-2.3.0\src" /I..\..\thirdparty /I..\..\thirdparty\cef /Igenerated_proto /Z7 /nologo /W4 /WX /O2 /Ob2 /Oi /Ot /Oy- /D VPC /D RAD_TELEMETRY_DISABLED /D WIN32 /D _WIN32 /D NDEBUG /D _LIB /D _CRT_SECURE_NO_DEPRECATE /D _CRT_NONSTDC_NO_DEPRECATE /D _ALLOW_RUNTIME_LIBRARY_MISMATCH /D _ALLOW_ITERATOR_DEBUG_LEVEL_MISMATCH /D _ALLOW_MSC_VER_MISMATCH /D _USING_V110_SDK71_ /D _MBCS /D COMPILER_MSVC32 /D COMPILER_MSVC32 /D COMPILER_MSVC /D _DLL_EXT=.dll /D LIBNAME=vgui_controls /D BINK_VIDEO /D AVI_VIDEO /D WMV_VIDEO /D DEV_BUILD /D FRAME_POINTER_OMISSION_DISABLED /D _EXTERNAL_DLL_EXT=.dll /D VPCGAMECAPS=VALVE /D "PROJECTDIR=C:\Users\Wolfcl0ck\Documents\GitHub\sp\source-sdk-2013\sp\src\vgui2\vgui_controls" /D _DLL_EXT=.dll /D SOURCE1=1 /D VPCGAME=valve /GF /Gm- /MT /GS /Gy /arch:SSE /fp:fast /Zc:wchar_t /Zc:forScope /GR /openmp- /Fo".\RELEASE\.\/" /Fd".\RELEASE\.\/VC120.PDB" /Gd /TP /wd4316 /analyze- /FC /d2Zi+ /Gw C:\USERS\WOLFCL0CK\DOCUMENTS\GITHUB\SP\SOURCE-SDK-2013\SP\SRC\PUBLIC\FILESYSTEM_HELPERS.CPP
^C:\USERS\WOLFCL0CK\DOCUMENTS\GITHUB\SP\SOURCE-SDK-2013\SP\SRC\VGUI2\VGUI_CONTROLS\FOCUSNAVGROUP.CPP
/c /I..\..\common /I..\..\public /I..\..\public\tier0 /I..\..\public\tier1 /Igenerated_proto /I"..\..\thirdparty\protobuf-2.3.0\src" /I..\..\thirdparty /I..\..\thirdparty\cef /Igenerated_proto /Z7 /nologo /W4 /WX /O2 /Ob2 /Oi /Ot /Oy- /D VPC /D RAD_TELEMETRY_DISABLED /D WIN32 /D _WIN32 /D NDEBUG /D _LIB /D _CRT_SECURE_NO_DEPRECATE /D _CRT_NONSTDC_NO_DEPRECATE /D _ALLOW_RUNTIME_LIBRARY_MISMATCH /D _ALLOW_ITERATOR_DEBUG_LEVEL_MISMATCH /D _ALLOW_MSC_VER_MISMATCH /D _USING_V110_SDK71_ /D _MBCS /D COMPILER_MSVC32 /D COMPILER_MSVC32 /D COMPILER_MSVC /D _DLL_EXT=.dll /D LIBNAME=vgui_controls /D BINK_VIDEO /D AVI_VIDEO /D WMV_VIDEO /D DEV_BUILD /D FRAME_POINTER_OMISSION_DISABLED /D _EXTERNAL_DLL_EXT=.dll /D VPCGAMECAPS=VALVE /D "PROJECTDIR=C:\Users\Wolfcl0ck\Documents\GitHub\sp\source-sdk-2013\sp\src\vgui2\vgui_controls" /D _DLL_EXT=.dll /D SOURCE1=1 /D VPCGAME=valve /GF /Gm- /MT /GS /Gy /arch:SSE /fp:fast /Zc:wchar_t /Zc:forScope /GR /openmp- /Fo".\RELEASE\.\/" /Fd".\RELEASE\.\/VC120.PDB" /Gd /TP /wd4316 /analyze- /FC /d2Zi+ /Gw C:\USERS\WOLFCL0CK\DOCUMENTS\GITHUB\SP\SOURCE-SDK-2013\SP\SRC\VGUI2\VGUI_CONTROLS\FOCUSNAVGROUP.CPP
^C:\USERS\WOLFCL0CK\DOCUMENTS\GITHUB\SP\SOURCE-SDK-2013\SP\SRC\VGUI2\VGUI_CONTROLS\FRAME.CPP
/c /I..\..\common /I..\..\public /I..\..\public\tier0 /I..\..\public\tier1 /Igenerated_proto /I"..\..\thirdparty\protobuf-2.3.0\src" /I..\..\thirdparty /I..\..\thirdparty\cef /Igenerated_proto /Z7 /nologo /W4 /WX /O2 /Ob2 /Oi /Ot /Oy- /D VPC /D RAD_TELEMETRY_DISABLED /D WIN32 /D _WIN32 /D NDEBUG /D _LIB /D _CRT_SECURE_NO_DEPRECATE /D _CRT_NONSTDC_NO_DEPRECATE /D _ALLOW_RUNTIME_LIBRARY_MISMATCH /D _ALLOW_ITERATOR_DEBUG_LEVEL_MISMATCH /D _ALLOW_MSC_VER_MISMATCH /D _USING_V110_SDK71_ /D _MBCS /D COMPILER_MSVC32 /D COMPILER_MSVC32 /D COMPILER_MSVC /D _DLL_EXT=.dll /D LIBNAME=vgui_controls /D BINK_VIDEO /D AVI_VIDEO /D WMV_VIDEO /D DEV_BUILD /D FRAME_POINTER_OMISSION_DISABLED /D _EXTERNAL_DLL_EXT=.dll /D VPCGAMECAPS=VALVE /D "PROJECTDIR=C:\Users\Wolfcl0ck\Documents\GitHub\sp\source-sdk-2013\sp\src\vgui2\vgui_controls" /D _DLL_EXT=.dll /D SOURCE1=1 /D VPCGAME=valve /GF /Gm- /MT /GS /Gy /arch:SSE /fp:fast /Zc:wchar_t /Zc:forScope /GR /openmp- /Fo".\RELEASE\.\/" /Fd".\RELEASE\.\/VC120.PDB" /Gd /TP /wd4316 /analyze- /FC /d2Zi+ /Gw C:\USERS\WOLFCL0CK\DOCUMENTS\GITHUB\SP\SOURCE-SDK-2013\SP\SRC\VGUI2\VGUI_CONTROLS\FRAME.CPP
^C:\USERS\WOLFCL0CK\DOCUMENTS\GITHUB\SP\SOURCE-SDK-2013\SP\SRC\VGUI2\VGUI_CONTROLS\GRAPHPANEL.CPP
/c /I..\..\common /I..\..\public /I..\..\public\tier0 /I..\..\public\tier1 /Igenerated_proto /I"..\..\thirdparty\protobuf-2.3.0\src" /I..\..\thirdparty /I..\..\thirdparty\cef /Igenerated_proto /Z7 /nologo /W4 /WX /O2 /Ob2 /Oi /Ot /Oy- /D VPC /D RAD_TELEMETRY_DISABLED /D WIN32 /D _WIN32 /D NDEBUG /D _LIB /D _CRT_SECURE_NO_DEPRECATE /D _CRT_NONSTDC_NO_DEPRECATE /D _ALLOW_RUNTIME_LIBRARY_MISMATCH /D _ALLOW_ITERATOR_DEBUG_LEVEL_MISMATCH /D _ALLOW_MSC_VER_MISMATCH /D _USING_V110_SDK71_ /D _MBCS /D COMPILER_MSVC32 /D COMPILER_MSVC32 /D COMPILER_MSVC /D _DLL_EXT=.dll /D LIBNAME=vgui_controls /D BINK_VIDEO /D AVI_VIDEO /D WMV_VIDEO /D DEV_BUILD /D FRAME_POINTER_OMISSION_DISABLED /D _EXTERNAL_DLL_EXT=.dll /D VPCGAMECAPS=VALVE /D "PROJECTDIR=C:\Users\Wolfcl0ck\Documents\GitHub\sp\source-sdk-2013\sp\src\vgui2\vgui_controls" /D _DLL_EXT=.dll /D SOURCE1=1 /D VPCGAME=valve /GF /Gm- /MT /GS /Gy /arch:SSE /fp:fast /Zc:wchar_t /Zc:forScope /GR /openmp- /Fo".\RELEASE\.\/" /Fd".\RELEASE\.\/VC120.PDB" /Gd /TP /wd4316 /analyze- /FC /d2Zi+ /Gw C:\USERS\WOLFCL0CK\DOCUMENTS\GITHUB\SP\SOURCE-SDK-2013\SP\SRC\VGUI2\VGUI_CONTROLS\GRAPHPANEL.CPP
^C:\USERS\WOLFCL0CK\DOCUMENTS\GITHUB\SP\SOURCE-SDK-2013\SP\SRC\VGUI2\VGUI_CONTROLS\HTML.CPP
/c /I..\..\common /I..\..\public /I..\..\public\tier0 /I..\..\public\tier1 /Igenerated_proto /I"..\..\thirdparty\protobuf-2.3.0\src" /I..\..\thirdparty /I..\..\thirdparty\cef /Igenerated_proto /Z7 /nologo /W4 /WX /O2 /Ob2 /Oi /Ot /Oy- /D VPC /D RAD_TELEMETRY_DISABLED /D WIN32 /D _WIN32 /D NDEBUG /D _LIB /D _CRT_SECURE_NO_DEPRECATE /D _CRT_NONSTDC_NO_DEPRECATE /D _ALLOW_RUNTIME_LIBRARY_MISMATCH /D _ALLOW_ITERATOR_DEBUG_LEVEL_MISMATCH /D _ALLOW_MSC_VER_MISMATCH /D _USING_V110_SDK71_ /D _MBCS /D COMPILER_MSVC32 /D COMPILER_MSVC32 /D COMPILER_MSVC /D _DLL_EXT=.dll /D LIBNAME=vgui_controls /D BINK_VIDEO /D AVI_VIDEO /D WMV_VIDEO /D DEV_BUILD /D FRAME_POINTER_OMISSION_DISABLED /D _EXTERNAL_DLL_EXT=.dll /D VPCGAMECAPS=VALVE /D "PROJECTDIR=C:\Users\Wolfcl0ck\Documents\GitHub\sp\source-sdk-2013\sp\src\vgui2\vgui_controls" /D _DLL_EXT=.dll /D SOURCE1=1 /D VPCGAME=valve /GF /Gm- /MT /GS /Gy /arch:SSE /fp:fast /Zc:wchar_t /Zc:forScope /GR /openmp- /Fo".\RELEASE\.\/" /Fd".\RELEASE\.\/VC120.PDB" /Gd /TP /wd4316 /analyze- /FC /d2Zi+ /Gw C:\USERS\WOLFCL0CK\DOCUMENTS\GITHUB\SP\SOURCE-SDK-2013\SP\SRC\VGUI2\VGUI_CONTROLS\HTML.CPP
^C:\USERS\WOLFCL0CK\DOCUMENTS\GITHUB\SP\SOURCE-SDK-2013\SP\SRC\VGUI2\VGUI_CONTROLS\IMAGE.CPP
/c /I..\..\common /I..\..\public /I..\..\public\tier0 /I..\..\public\tier1 /Igenerated_proto /I"..\..\thirdparty\protobuf-2.3.0\src" /I..\..\thirdparty /I..\..\thirdparty\cef /Igenerated_proto /Z7 /nologo /W4 /WX /O2 /Ob2 /Oi /Ot /Oy- /D VPC /D RAD_TELEMETRY_DISABLED /D WIN32 /D _WIN32 /D NDEBUG /D _LIB /D _CRT_SECURE_NO_DEPRECATE /D _CRT_NONSTDC_NO_DEPRECATE /D _ALLOW_RUNTIME_LIBRARY_MISMATCH /D _ALLOW_ITERATOR_DEBUG_LEVEL_MISMATCH /D _ALLOW_MSC_VER_MISMATCH /D _USING_V110_SDK71_ /D _MBCS /D COMPILER_MSVC32 /D COMPILER_MSVC32 /D COMPILER_MSVC /D _DLL_EXT=.dll /D LIBNAME=vgui_controls /D BINK_VIDEO /D AVI_VIDEO /D WMV_VIDEO /D DEV_BUILD /D FRAME_POINTER_OMISSION_DISABLED /D _EXTERNAL_DLL_EXT=.dll /D VPCGAMECAPS=VALVE /D "PROJECTDIR=C:\Users\Wolfcl0ck\Documents\GitHub\sp\source-sdk-2013\sp\src\vgui2\vgui_controls" /D _DLL_EXT=.dll /D SOURCE1=1 /D VPCGAME=valve /GF /Gm- /MT /GS /Gy /arch:SSE /fp:fast /Zc:wchar_t /Zc:forScope /GR /openmp- /Fo".\RELEASE\.\/" /Fd".\RELEASE\.\/VC120.PDB" /Gd /TP /wd4316 /analyze- /FC /d2Zi+ /Gw C:\USERS\WOLFCL0CK\DOCUMENTS\GITHUB\SP\SOURCE-SDK-2013\SP\SRC\VGUI2\VGUI_CONTROLS\IMAGE.CPP
^C:\USERS\WOLFCL0CK\DOCUMENTS\GITHUB\SP\SOURCE-SDK-2013\SP\SRC\VGUI2\VGUI_CONTROLS\IMAGELIST.CPP
/c /I..\..\common /I..\..\public /I..\..\public\tier0 /I..\..\public\tier1 /Igenerated_proto /I"..\..\thirdparty\protobuf-2.3.0\src" /I..\..\thirdparty /I..\..\thirdparty\cef /Igenerated_proto /Z7 /nologo /W4 /WX /O2 /Ob2 /Oi /Ot /Oy- /D VPC /D RAD_TELEMETRY_DISABLED /D WIN32 /D _WIN32 /D NDEBUG /D _LIB /D _CRT_SECURE_NO_DEPRECATE /D _CRT_NONSTDC_NO_DEPRECATE /D _ALLOW_RUNTIME_LIBRARY_MISMATCH /D _ALLOW_ITERATOR_DEBUG_LEVEL_MISMATCH /D _ALLOW_MSC_VER_MISMATCH /D _USING_V110_SDK71_ /D _MBCS /D COMPILER_MSVC32 /D COMPILER_MSVC32 /D COMPILER_MSVC /D _DLL_EXT=.dll /D LIBNAME=vgui_controls /D BINK_VIDEO /D AVI_VIDEO /D WMV_VIDEO /D DEV_BUILD /D FRAME_POINTER_OMISSION_DISABLED /D _EXTERNAL_DLL_EXT=.dll /D VPCGAMECAPS=VALVE /D "PROJECTDIR=C:\Users\Wolfcl0ck\Documents\GitHub\sp\source-sdk-2013\sp\src\vgui2\vgui_controls" /D _DLL_EXT=.dll /D SOURCE1=1 /D VPCGAME=valve /GF /Gm- /MT /GS /Gy /arch:SSE /fp:fast /Zc:wchar_t /Zc:forScope /GR /openmp- /Fo".\RELEASE\.\/" /Fd".\RELEASE\.\/VC120.PDB" /Gd /TP /wd4316 /analyze- /FC /d2Zi+ /Gw C:\USERS\WOLFCL0CK\DOCUMENTS\GITHUB\SP\SOURCE-SDK-2013\SP\SRC\VGUI2\VGUI_CONTROLS\IMAGELIST.CPP
^C:\USERS\WOLFCL0CK\DOCUMENTS\GITHUB\SP\SOURCE-SDK-2013\SP\SRC\VGUI2\VGUI_CONTROLS\IMAGEPANEL.CPP
/c /I..\..\common /I..\..\public /I..\..\public\tier0 /I..\..\public\tier1 /Igenerated_proto /I"..\..\thirdparty\protobuf-2.3.0\src" /I..\..\thirdparty /I..\..\thirdparty\cef /Igenerated_proto /Z7 /nologo /W4 /WX /O2 /Ob2 /Oi /Ot /Oy- /D VPC /D RAD_TELEMETRY_DISABLED /D WIN32 /D _WIN32 /D NDEBUG /D _LIB /D _CRT_SECURE_NO_DEPRECATE /D _CRT_NONSTDC_NO_DEPRECATE /D _ALLOW_RUNTIME_LIBRARY_MISMATCH /D _ALLOW_ITERATOR_DEBUG_LEVEL_MISMATCH /D _ALLOW_MSC_VER_MISMATCH /D _USING_V110_SDK71_ /D _MBCS /D COMPILER_MSVC32 /D COMPILER_MSVC32 /D COMPILER_MSVC /D _DLL_EXT=.dll /D LIBNAME=vgui_controls /D BINK_VIDEO /D AVI_VIDEO /D WMV_VIDEO /D DEV_BUILD /D FRAME_POINTER_OMISSION_DISABLED /D _EXTERNAL_DLL_EXT=.dll /D VPCGAMECAPS=VALVE /D "PROJECTDIR=C:\Users\Wolfcl0ck\Documents\GitHub\sp\source-sdk-2013\sp\src\vgui2\vgui_controls" /D _DLL_EXT=.dll /D SOURCE1=1 /D VPCGAME=valve /GF /Gm- /MT /GS /Gy /arch:SSE /fp:fast /Zc:wchar_t /Zc:forScope /GR /openmp- /Fo".\RELEASE\.\/" /Fd".\RELEASE\.\/VC120.PDB" /Gd /TP /wd4316 /analyze- /FC /d2Zi+ /Gw C:\USERS\WOLFCL0CK\DOCUMENTS\GITHUB\SP\SOURCE-SDK-2013\SP\SRC\VGUI2\VGUI_CONTROLS\IMAGEPANEL.CPP
^C:\USERS\WOLFCL0CK\DOCUMENTS\GITHUB\SP\SOURCE-SDK-2013\SP\SRC\VGUI2\VGUI_CONTROLS\INPUTDIALOG.CPP
/c /I..\..\common /I..\..\public /I..\..\public\tier0 /I..\..\public\tier1 /Igenerated_proto /I"..\..\thirdparty\protobuf-2.3.0\src" /I..\..\thirdparty /I..\..\thirdparty\cef /Igenerated_proto /Z7 /nologo /W4 /WX /O2 /Ob2 /Oi /Ot /Oy- /D VPC /D RAD_TELEMETRY_DISABLED /D WIN32 /D _WIN32 /D NDEBUG /D _LIB /D _CRT_SECURE_NO_DEPRECATE /D _CRT_NONSTDC_NO_DEPRECATE /D _ALLOW_RUNTIME_LIBRARY_MISMATCH /D _ALLOW_ITERATOR_DEBUG_LEVEL_MISMATCH /D _ALLOW_MSC_VER_MISMATCH /D _USING_V110_SDK71_ /D _MBCS /D COMPILER_MSVC32 /D COMPILER_MSVC32 /D COMPILER_MSVC /D _DLL_EXT=.dll /D LIBNAME=vgui_controls /D BINK_VIDEO /D AVI_VIDEO /D WMV_VIDEO /D DEV_BUILD /D FRAME_POINTER_OMISSION_DISABLED /D _EXTERNAL_DLL_EXT=.dll /D VPCGAMECAPS=VALVE /D "PROJECTDIR=C:\Users\Wolfcl0ck\Documents\GitHub\sp\source-sdk-2013\sp\src\vgui2\vgui_controls" /D _DLL_EXT=.dll /D SOURCE1=1 /D VPCGAME=valve /GF /Gm- /MT /GS /Gy /arch:SSE /fp:fast /Zc:wchar_t /Zc:forScope /GR /openmp- /Fo".\RELEASE\.\/" /Fd".\RELEASE\.\/VC120.PDB" /Gd /TP /wd4316 /analyze- /FC /d2Zi+ /Gw C:\USERS\WOLFCL0CK\DOCUMENTS\GITHUB\SP\SOURCE-SDK-2013\SP\SRC\VGUI2\VGUI_CONTROLS\INPUTDIALOG.CPP
^C:\USERS\WOLFCL0CK\DOCUMENTS\GITHUB\SP\SOURCE-SDK-2013\SP\SRC\VGUI2\VGUI_CONTROLS\KEYBINDINGHELPDIALOG.CPP
/c /I..\..\common /I..\..\public /I..\..\public\tier0 /I..\..\public\tier1 /Igenerated_proto /I"..\..\thirdparty\protobuf-2.3.0\src" /I..\..\thirdparty /I..\..\thirdparty\cef /Igenerated_proto /Z7 /nologo /W4 /WX /O2 /Ob2 /Oi /Ot /Oy- /D VPC /D RAD_TELEMETRY_DISABLED /D WIN32 /D _WIN32 /D NDEBUG /D _LIB /D _CRT_SECURE_NO_DEPRECATE /D _CRT_NONSTDC_NO_DEPRECATE /D _ALLOW_RUNTIME_LIBRARY_MISMATCH /D _ALLOW_ITERATOR_DEBUG_LEVEL_MISMATCH /D _ALLOW_MSC_VER_MISMATCH /D _USING_V110_SDK71_ /D _MBCS /D COMPILER_MSVC32 /D COMPILER_MSVC32 /D COMPILER_MSVC /D _DLL_EXT=.dll /D LIBNAME=vgui_controls /D BINK_VIDEO /D AVI_VIDEO /D WMV_VIDEO /D DEV_BUILD /D FRAME_POINTER_OMISSION_DISABLED /D _EXTERNAL_DLL_EXT=.dll /D VPCGAMECAPS=VALVE /D "PROJECTDIR=C:\Users\Wolfcl0ck\Documents\GitHub\sp\source-sdk-2013\sp\src\vgui2\vgui_controls" /D _DLL_EXT=.dll /D SOURCE1=1 /D VPCGAME=valve /GF /Gm- /MT /GS /Gy /arch:SSE /fp:fast /Zc:wchar_t /Zc:forScope /GR /openmp- /Fo".\RELEASE\.\/" /Fd".\RELEASE\.\/VC120.PDB" /Gd /TP /wd4316 /analyze- /FC /d2Zi+ /Gw C:\USERS\WOLFCL0CK\DOCUMENTS\GITHUB\SP\SOURCE-SDK-2013\SP\SRC\VGUI2\VGUI_CONTROLS\KEYBINDINGHELPDIALOG.CPP
^C:\USERS\WOLFCL0CK\DOCUMENTS\GITHUB\SP\SOURCE-SDK-2013\SP\SRC\VGUI2\VGUI_CONTROLS\KEYBOARDEDITORDIALOG.CPP
/c /I..\..\common /I..\..\public /I..\..\public\tier0 /I..\..\public\tier1 /Igenerated_proto /I"..\..\thirdparty\protobuf-2.3.0\src" /I..\..\thirdparty /I..\..\thirdparty\cef /Igenerated_proto /Z7 /nologo /W4 /WX /O2 /Ob2 /Oi /Ot /Oy- /D VPC /D RAD_TELEMETRY_DISABLED /D WIN32 /D _WIN32 /D NDEBUG /D _LIB /D _CRT_SECURE_NO_DEPRECATE /D _CRT_NONSTDC_NO_DEPRECATE /D _ALLOW_RUNTIME_LIBRARY_MISMATCH /D _ALLOW_ITERATOR_DEBUG_LEVEL_MISMATCH /D _ALLOW_MSC_VER_MISMATCH /D _USING_V110_SDK71_ /D _MBCS /D COMPILER_MSVC32 /D COMPILER_MSVC32 /D COMPILER_MSVC /D _DLL_EXT=.dll /D LIBNAME=vgui_controls /D BINK_VIDEO /D AVI_VIDEO /D WMV_VIDEO /D DEV_BUILD /D FRAME_POINTER_OMISSION_DISABLED /D _EXTERNAL_DLL_EXT=.dll /D VPCGAMECAPS=VALVE /D "PROJECTDIR=C:\Users\Wolfcl0ck\Documents\GitHub\sp\source-sdk-2013\sp\src\vgui2\vgui_controls" /D _DLL_EXT=.dll /D SOURCE1=1 /D VPCGAME=valve /GF /Gm- /MT /GS /Gy /arch:SSE /fp:fast /Zc:wchar_t /Zc:forScope /GR /openmp- /Fo".\RELEASE\.\/" /Fd".\RELEASE\.\/VC120.PDB" /Gd /TP /wd4316 /analyze- /FC /d2Zi+ /Gw C:\USERS\WOLFCL0CK\DOCUMENTS\GITHUB\SP\SOURCE-SDK-2013\SP\SRC\VGUI2\VGUI_CONTROLS\KEYBOARDEDITORDIALOG.CPP
^C:\USERS\WOLFCL0CK\DOCUMENTS\GITHUB\SP\SOURCE-SDK-2013\SP\SRC\VGUI2\VGUI_CONTROLS\KEYREPEAT.CPP
/c /I..\..\common /I..\..\public /I..\..\public\tier0 /I..\..\public\tier1 /Igenerated_proto /I"..\..\thirdparty\protobuf-2.3.0\src" /I..\..\thirdparty /I..\..\thirdparty\cef /Igenerated_proto /Z7 /nologo /W4 /WX /O2 /Ob2 /Oi /Ot /Oy- /D VPC /D RAD_TELEMETRY_DISABLED /D WIN32 /D _WIN32 /D NDEBUG /D _LIB /D _CRT_SECURE_NO_DEPRECATE /D _CRT_NONSTDC_NO_DEPRECATE /D _ALLOW_RUNTIME_LIBRARY_MISMATCH /D _ALLOW_ITERATOR_DEBUG_LEVEL_MISMATCH /D _ALLOW_MSC_VER_MISMATCH /D _USING_V110_SDK71_ /D _MBCS /D COMPILER_MSVC32 /D COMPILER_MSVC32 /D COMPILER_MSVC /D _DLL_EXT=.dll /D LIBNAME=vgui_controls /D BINK_VIDEO /D AVI_VIDEO /D WMV_VIDEO /D DEV_BUILD /D FRAME_POINTER_OMISSION_DISABLED /D _EXTERNAL_DLL_EXT=.dll /D VPCGAMECAPS=VALVE /D "PROJECTDIR=C:\Users\Wolfcl0ck\Documents\GitHub\sp\source-sdk-2013\sp\src\vgui2\vgui_controls" /D _DLL_EXT=.dll /D SOURCE1=1 /D VPCGAME=valve /GF /Gm- /MT /GS /Gy /arch:SSE /fp:fast /Zc:wchar_t /Zc:forScope /GR /openmp- /Fo".\RELEASE\.\/" /Fd".\RELEASE\.\/VC120.PDB" /Gd /TP /wd4316 /analyze- /FC /d2Zi+ /Gw C:\USERS\WOLFCL0CK\DOCUMENTS\GITHUB\SP\SOURCE-SDK-2013\SP\SRC\VGUI2\VGUI_CONTROLS\KEYREPEAT.CPP
^C:\USERS\WOLFCL0CK\DOCUMENTS\GITHUB\SP\SOURCE-SDK-2013\SP\SRC\VGUI2\VGUI_CONTROLS\LABEL.CPP
/c /I..\..\common /I..\..\public /I..\..\public\tier0 /I..\..\public\tier1 /Igenerated_proto /I"..\..\thirdparty\protobuf-2.3.0\src" /I..\..\thirdparty /I..\..\thirdparty\cef /Igenerated_proto /Z7 /nologo /W4 /WX /O2 /Ob2 /Oi /Ot /Oy- /D VPC /D RAD_TELEMETRY_DISABLED /D WIN32 /D _WIN32 /D NDEBUG /D _LIB /D _CRT_SECURE_NO_DEPRECATE /D _CRT_NONSTDC_NO_DEPRECATE /D _ALLOW_RUNTIME_LIBRARY_MISMATCH /D _ALLOW_ITERATOR_DEBUG_LEVEL_MISMATCH /D _ALLOW_MSC_VER_MISMATCH /D _USING_V110_SDK71_ /D _MBCS /D COMPILER_MSVC32 /D COMPILER_MSVC32 /D COMPILER_MSVC /D _DLL_EXT=.dll /D LIBNAME=vgui_controls /D BINK_VIDEO /D AVI_VIDEO /D WMV_VIDEO /D DEV_BUILD /D FRAME_POINTER_OMISSION_DISABLED /D _EXTERNAL_DLL_EXT=.dll /D VPCGAMECAPS=VALVE /D "PROJECTDIR=C:\Users\Wolfcl0ck\Documents\GitHub\sp\source-sdk-2013\sp\src\vgui2\vgui_controls" /D _DLL_EXT=.dll /D SOURCE1=1 /D VPCGAME=valve /GF /Gm- /MT /GS /Gy /arch:SSE /fp:fast /Zc:wchar_t /Zc:forScope /GR /openmp- /Fo".\RELEASE\.\/" /Fd".\RELEASE\.\/VC120.PDB" /Gd /TP /wd4316 /analyze- /FC /d2Zi+ /Gw C:\USERS\WOLFCL0CK\DOCUMENTS\GITHUB\SP\SOURCE-SDK-2013\SP\SRC\VGUI2\VGUI_CONTROLS\LABEL.CPP
^C:\USERS\WOLFCL0CK\DOCUMENTS\GITHUB\SP\SOURCE-SDK-2013\SP\SRC\VGUI2\VGUI_CONTROLS\LISTPANEL.CPP
/c /I..\..\common /I..\..\public /I..\..\public\tier0 /I..\..\public\tier1 /Igenerated_proto /I"..\..\thirdparty\protobuf-2.3.0\src" /I..\..\thirdparty /I..\..\thirdparty\cef /Igenerated_proto /Z7 /nologo /W4 /WX /O2 /Ob2 /Oi /Ot /Oy- /D VPC /D RAD_TELEMETRY_DISABLED /D WIN32 /D _WIN32 /D NDEBUG /D _LIB /D _CRT_SECURE_NO_DEPRECATE /D _CRT_NONSTDC_NO_DEPRECATE /D _ALLOW_RUNTIME_LIBRARY_MISMATCH /D _ALLOW_ITERATOR_DEBUG_LEVEL_MISMATCH /D _ALLOW_MSC_VER_MISMATCH /D _USING_V110_SDK71_ /D _MBCS /D COMPILER_MSVC32 /D COMPILER_MSVC32 /D COMPILER_MSVC /D _DLL_EXT=.dll /D LIBNAME=vgui_controls /D BINK_VIDEO /D AVI_VIDEO /D WMV_VIDEO /D DEV_BUILD /D FRAME_POINTER_OMISSION_DISABLED /D _EXTERNAL_DLL_EXT=.dll /D VPCGAMECAPS=VALVE /D "PROJECTDIR=C:\Users\Wolfcl0ck\Documents\GitHub\sp\source-sdk-2013\sp\src\vgui2\vgui_controls" /D _DLL_EXT=.dll /D SOURCE1=1 /D VPCGAME=valve /GF /Gm- /MT /GS /Gy /arch:SSE /fp:fast /Zc:wchar_t /Zc:forScope /GR /openmp- /Fo".\RELEASE\.\/" /Fd".\RELEASE\.\/VC120.PDB" /Gd /TP /wd4316 /analyze- /FC /d2Zi+ /Gw C:\USERS\WOLFCL0CK\DOCUMENTS\GITHUB\SP\SOURCE-SDK-2013\SP\SRC\VGUI2\VGUI_CONTROLS\LISTPANEL.CPP
^C:\USERS\WOLFCL0CK\DOCUMENTS\GITHUB\SP\SOURCE-SDK-2013\SP\SRC\VGUI2\VGUI_CONTROLS\LISTVIEWPANEL.CPP
/c /I..\..\common /I..\..\public /I..\..\public\tier0 /I..\..\public\tier1 /Igenerated_proto /I"..\..\thirdparty\protobuf-2.3.0\src" /I..\..\thirdparty /I..\..\thirdparty\cef /Igenerated_proto /Z7 /nologo /W4 /WX /O2 /Ob2 /Oi /Ot /Oy- /D VPC /D RAD_TELEMETRY_DISABLED /D WIN32 /D _WIN32 /D NDEBUG /D _LIB /D _CRT_SECURE_NO_DEPRECATE /D _CRT_NONSTDC_NO_DEPRECATE /D _ALLOW_RUNTIME_LIBRARY_MISMATCH /D _ALLOW_ITERATOR_DEBUG_LEVEL_MISMATCH /D _ALLOW_MSC_VER_MISMATCH /D _USING_V110_SDK71_ /D _MBCS /D COMPILER_MSVC32 /D COMPILER_MSVC32 /D COMPILER_MSVC /D _DLL_EXT=.dll /D LIBNAME=vgui_controls /D BINK_VIDEO /D AVI_VIDEO /D WMV_VIDEO /D DEV_BUILD /D FRAME_POINTER_OMISSION_DISABLED /D _EXTERNAL_DLL_EXT=.dll /D VPCGAMECAPS=VALVE /D "PROJECTDIR=C:\Users\Wolfcl0ck\Documents\GitHub\sp\source-sdk-2013\sp\src\vgui2\vgui_controls" /D _DLL_EXT=.dll /D SOURCE1=1 /D VPCGAME=valve /GF /Gm- /MT /GS /Gy /arch:SSE /fp:fast /Zc:wchar_t /Zc:forScope /GR /openmp- /Fo".\RELEASE\.\/" /Fd".\RELEASE\.\/VC120.PDB" /Gd /TP /wd4316 /analyze- /FC /d2Zi+ /Gw C:\USERS\WOLFCL0CK\DOCUMENTS\GITHUB\SP\SOURCE-SDK-2013\SP\SRC\VGUI2\VGUI_CONTROLS\LISTVIEWPANEL.CPP
^C:\USERS\WOLFCL0CK\DOCUMENTS\GITHUB\SP\SOURCE-SDK-2013\SP\SRC\VGUI2\VGUI_CONTROLS\MENU.CPP
/c /I..\..\common /I..\..\public /I..\..\public\tier0 /I..\..\public\tier1 /Igenerated_proto /I"..\..\thirdparty\protobuf-2.3.0\src" /I..\..\thirdparty /I..\..\thirdparty\cef /Igenerated_proto /Z7 /nologo /W4 /WX /O2 /Ob2 /Oi /Ot /Oy- /D VPC /D RAD_TELEMETRY_DISABLED /D WIN32 /D _WIN32 /D NDEBUG /D _LIB /D _CRT_SECURE_NO_DEPRECATE /D _CRT_NONSTDC_NO_DEPRECATE /D _ALLOW_RUNTIME_LIBRARY_MISMATCH /D _ALLOW_ITERATOR_DEBUG_LEVEL_MISMATCH /D _ALLOW_MSC_VER_MISMATCH /D _USING_V110_SDK71_ /D _MBCS /D COMPILER_MSVC32 /D COMPILER_MSVC32 /D COMPILER_MSVC /D _DLL_EXT=.dll /D LIBNAME=vgui_controls /D BINK_VIDEO /D AVI_VIDEO /D WMV_VIDEO /D DEV_BUILD /D FRAME_POINTER_OMISSION_DISABLED /D _EXTERNAL_DLL_EXT=.dll /D VPCGAMECAPS=VALVE /D "PROJECTDIR=C:\Users\Wolfcl0ck\Documents\GitHub\sp\source-sdk-2013\sp\src\vgui2\vgui_controls" /D _DLL_EXT=.dll /D SOURCE1=1 /D VPCGAME=valve /GF /Gm- /MT /GS /Gy /arch:SSE /fp:fast /Zc:wchar_t /Zc:forScope /GR /openmp- /Fo".\RELEASE\.\/" /Fd".\RELEASE\.\/VC120.PDB" /Gd /TP /wd4316 /analyze- /FC /d2Zi+ /Gw C:\USERS\WOLFCL0CK\DOCUMENTS\GITHUB\SP\SOURCE-SDK-2013\SP\SRC\VGUI2\VGUI_CONTROLS\MENU.CPP
^C:\USERS\WOLFCL0CK\DOCUMENTS\GITHUB\SP\SOURCE-SDK-2013\SP\SRC\VGUI2\VGUI_CONTROLS\MENUBAR.CPP
/c /I..\..\common /I..\..\public /I..\..\public\tier0 /I..\..\public\tier1 /Igenerated_proto /I"..\..\thirdparty\protobuf-2.3.0\src" /I..\..\thirdparty /I..\..\thirdparty\cef /Igenerated_proto /Z7 /nologo /W4 /WX /O2 /Ob2 /Oi /Ot /Oy- /D VPC /D RAD_TELEMETRY_DISABLED /D WIN32 /D _WIN32 /D NDEBUG /D _LIB /D _CRT_SECURE_NO_DEPRECATE /D _CRT_NONSTDC_NO_DEPRECATE /D _ALLOW_RUNTIME_LIBRARY_MISMATCH /D _ALLOW_ITERATOR_DEBUG_LEVEL_MISMATCH /D _ALLOW_MSC_VER_MISMATCH /D _USING_V110_SDK71_ /D _MBCS /D COMPILER_MSVC32 /D COMPILER_MSVC32 /D COMPILER_MSVC /D _DLL_EXT=.dll /D LIBNAME=vgui_controls /D BINK_VIDEO /D AVI_VIDEO /D WMV_VIDEO /D DEV_BUILD /D FRAME_POINTER_OMISSION_DISABLED /D _EXTERNAL_DLL_EXT=.dll /D VPCGAMECAPS=VALVE /D "PROJECTDIR=C:\Users\Wolfcl0ck\Documents\GitHub\sp\source-sdk-2013\sp\src\vgui2\vgui_controls" /D _DLL_EXT=.dll /D SOURCE1=1 /D VPCGAME=valve /GF /Gm- /MT /GS /Gy /arch:SSE /fp:fast /Zc:wchar_t /Zc:forScope /GR /openmp- /Fo".\RELEASE\.\/" /Fd".\RELEASE\.\/VC120.PDB" /Gd /TP /wd4316 /analyze- /FC /d2Zi+ /Gw C:\USERS\WOLFCL0CK\DOCUMENTS\GITHUB\SP\SOURCE-SDK-2013\SP\SRC\VGUI2\VGUI_CONTROLS\MENUBAR.CPP
^C:\USERS\WOLFCL0CK\DOCUMENTS\GITHUB\SP\SOURCE-SDK-2013\SP\SRC\VGUI2\VGUI_CONTROLS\MENUBUTTON.CPP
/c /I..\..\common /I..\..\public /I..\..\public\tier0 /I..\..\public\tier1 /Igenerated_proto /I"..\..\thirdparty\protobuf-2.3.0\src" /I..\..\thirdparty /I..\..\thirdparty\cef /Igenerated_proto /Z7 /nologo /W4 /WX /O2 /Ob2 /Oi /Ot /Oy- /D VPC /D RAD_TELEMETRY_DISABLED /D WIN32 /D _WIN32 /D NDEBUG /D _LIB /D _CRT_SECURE_NO_DEPRECATE /D _CRT_NONSTDC_NO_DEPRECATE /D _ALLOW_RUNTIME_LIBRARY_MISMATCH /D _ALLOW_ITERATOR_DEBUG_LEVEL_MISMATCH /D _ALLOW_MSC_VER_MISMATCH /D _USING_V110_SDK71_ /D _MBCS /D COMPILER_MSVC32 /D COMPILER_MSVC32 /D COMPILER_MSVC /D _DLL_EXT=.dll /D LIBNAME=vgui_controls /D BINK_VIDEO /D AVI_VIDEO /D WMV_VIDEO /D DEV_BUILD /D FRAME_POINTER_OMISSION_DISABLED /D _EXTERNAL_DLL_EXT=.dll /D VPCGAMECAPS=VALVE /D "PROJECTDIR=C:\Users\Wolfcl0ck\Documents\GitHub\sp\source-sdk-2013\sp\src\vgui2\vgui_controls" /D _DLL_EXT=.dll /D SOURCE1=1 /D VPCGAME=valve /GF /Gm- /MT /GS /Gy /arch:SSE /fp:fast /Zc:wchar_t /Zc:forScope /GR /openmp- /Fo".\RELEASE\.\/" /Fd".\RELEASE\.\/VC120.PDB" /Gd /TP /wd4316 /analyze- /FC /d2Zi+ /Gw C:\USERS\WOLFCL0CK\DOCUMENTS\GITHUB\SP\SOURCE-SDK-2013\SP\SRC\VGUI2\VGUI_CONTROLS\MENUBUTTON.CPP
^C:\USERS\WOLFCL0CK\DOCUMENTS\GITHUB\SP\SOURCE-SDK-2013\SP\SRC\VGUI2\VGUI_CONTROLS\MENUITEM.CPP
/c /I..\..\common /I..\..\public /I..\..\public\tier0 /I..\..\public\tier1 /Igenerated_proto /I"..\..\thirdparty\protobuf-2.3.0\src" /I..\..\thirdparty /I..\..\thirdparty\cef /Igenerated_proto /Z7 /nologo /W4 /WX /O2 /Ob2 /Oi /Ot /Oy- /D VPC /D RAD_TELEMETRY_DISABLED /D WIN32 /D _WIN32 /D NDEBUG /D _LIB /D _CRT_SECURE_NO_DEPRECATE /D _CRT_NONSTDC_NO_DEPRECATE /D _ALLOW_RUNTIME_LIBRARY_MISMATCH /D _ALLOW_ITERATOR_DEBUG_LEVEL_MISMATCH /D _ALLOW_MSC_VER_MISMATCH /D _USING_V110_SDK71_ /D _MBCS /D COMPILER_MSVC32 /D COMPILER_MSVC32 /D COMPILER_MSVC /D _DLL_EXT=.dll /D LIBNAME=vgui_controls /D BINK_VIDEO /D AVI_VIDEO /D WMV_VIDEO /D DEV_BUILD /D FRAME_POINTER_OMISSION_DISABLED /D _EXTERNAL_DLL_EXT=.dll /D VPCGAMECAPS=VALVE /D "PROJECTDIR=C:\Users\Wolfcl0ck\Documents\GitHub\sp\source-sdk-2013\sp\src\vgui2\vgui_controls" /D _DLL_EXT=.dll /D SOURCE1=1 /D VPCGAME=valve /GF /Gm- /MT /GS /Gy /arch:SSE /fp:fast /Zc:wchar_t /Zc:forScope /GR /openmp- /Fo".\RELEASE\.\/" /Fd".\RELEASE\.\/VC120.PDB" /Gd /TP /wd4316 /analyze- /FC /d2Zi+ /Gw C:\USERS\WOLFCL0CK\DOCUMENTS\GITHUB\SP\SOURCE-SDK-2013\SP\SRC\VGUI2\VGUI_CONTROLS\MENUITEM.CPP
^C:\USERS\WOLFCL0CK\DOCUMENTS\GITHUB\SP\SOURCE-SDK-2013\SP\SRC\VGUI2\VGUI_CONTROLS\MESSAGEBOX.CPP
/c /I..\..\common /I..\..\public /I..\..\public\tier0 /I..\..\public\tier1 /Igenerated_proto /I"..\..\thirdparty\protobuf-2.3.0\src" /I..\..\thirdparty /I..\..\thirdparty\cef /Igenerated_proto /Z7 /nologo /W4 /WX /O2 /Ob2 /Oi /Ot /Oy- /D VPC /D RAD_TELEMETRY_DISABLED /D WIN32 /D _WIN32 /D NDEBUG /D _LIB /D _CRT_SECURE_NO_DEPRECATE /D _CRT_NONSTDC_NO_DEPRECATE /D _ALLOW_RUNTIME_LIBRARY_MISMATCH /D _ALLOW_ITERATOR_DEBUG_LEVEL_MISMATCH /D _ALLOW_MSC_VER_MISMATCH /D _USING_V110_SDK71_ /D _MBCS /D COMPILER_MSVC32 /D COMPILER_MSVC32 /D COMPILER_MSVC /D _DLL_EXT=.dll /D LIBNAME=vgui_controls /D BINK_VIDEO /D AVI_VIDEO /D WMV_VIDEO /D DEV_BUILD /D FRAME_POINTER_OMISSION_DISABLED /D _EXTERNAL_DLL_EXT=.dll /D VPCGAMECAPS=VALVE /D "PROJECTDIR=C:\Users\Wolfcl0ck\Documents\GitHub\sp\source-sdk-2013\sp\src\vgui2\vgui_controls" /D _DLL_EXT=.dll /D SOURCE1=1 /D VPCGAME=valve /GF /Gm- /MT /GS /Gy /arch:SSE /fp:fast /Zc:wchar_t /Zc:forScope /GR /openmp- /Fo".\RELEASE\.\/" /Fd".\RELEASE\.\/VC120.PDB" /Gd /TP /wd4316 /analyze- /FC /d2Zi+ /Gw C:\USERS\WOLFCL0CK\DOCUMENTS\GITHUB\SP\SOURCE-SDK-2013\SP\SRC\VGUI2\VGUI_CONTROLS\MESSAGEBOX.CPP
^C:\USERS\WOLFCL0CK\DOCUMENTS\GITHUB\SP\SOURCE-SDK-2013\SP\SRC\VGUI2\VGUI_CONTROLS\MESSAGEDIALOG.CPP
/c /I..\..\common /I..\..\public /I..\..\public\tier0 /I..\..\public\tier1 /Igenerated_proto /I"..\..\thirdparty\protobuf-2.3.0\src" /I..\..\thirdparty /I..\..\thirdparty\cef /Igenerated_proto /Z7 /nologo /W4 /WX /O2 /Ob2 /Oi /Ot /Oy- /D VPC /D RAD_TELEMETRY_DISABLED /D WIN32 /D _WIN32 /D NDEBUG /D _LIB /D _CRT_SECURE_NO_DEPRECATE /D _CRT_NONSTDC_NO_DEPRECATE /D _ALLOW_RUNTIME_LIBRARY_MISMATCH /D _ALLOW_ITERATOR_DEBUG_LEVEL_MISMATCH /D _ALLOW_MSC_VER_MISMATCH /D _USING_V110_SDK71_ /D _MBCS /D COMPILER_MSVC32 /D COMPILER_MSVC32 /D COMPILER_MSVC /D _DLL_EXT=.dll /D LIBNAME=vgui_controls /D BINK_VIDEO /D AVI_VIDEO /D WMV_VIDEO /D DEV_BUILD /D FRAME_POINTER_OMISSION_DISABLED /D _EXTERNAL_DLL_EXT=.dll /D VPCGAMECAPS=VALVE /D "PROJECTDIR=C:\Users\Wolfcl0ck\Documents\GitHub\sp\source-sdk-2013\sp\src\vgui2\vgui_controls" /D _DLL_EXT=.dll /D SOURCE1=1 /D VPCGAME=valve /GF /Gm- /MT /GS /Gy /arch:SSE /fp:fast /Zc:wchar_t /Zc:forScope /GR /openmp- /Fo".\RELEASE\.\/" /Fd".\RELEASE\.\/VC120.PDB" /Gd /TP /wd4316 /analyze- /FC /d2Zi+ /Gw C:\USERS\WOLFCL0CK\DOCUMENTS\GITHUB\SP\SOURCE-SDK-2013\SP\SRC\VGUI2\VGUI_CONTROLS\MESSAGEDIALOG.CPP
^C:\USERS\WOLFCL0CK\DOCUMENTS\GITHUB\SP\SOURCE-SDK-2013\SP\SRC\VGUI2\VGUI_CONTROLS\PANEL.CPP
/c /I..\..\common /I..\..\public /I..\..\public\tier0 /I..\..\public\tier1 /Igenerated_proto /I"..\..\thirdparty\protobuf-2.3.0\src" /I..\..\thirdparty /I..\..\thirdparty\cef /Igenerated_proto /Z7 /nologo /W4 /WX /O2 /Ob2 /Oi /Ot /Oy- /D VPC /D RAD_TELEMETRY_DISABLED /D WIN32 /D _WIN32 /D NDEBUG /D _LIB /D _CRT_SECURE_NO_DEPRECATE /D _CRT_NONSTDC_NO_DEPRECATE /D _ALLOW_RUNTIME_LIBRARY_MISMATCH /D _ALLOW_ITERATOR_DEBUG_LEVEL_MISMATCH /D _ALLOW_MSC_VER_MISMATCH /D _USING_V110_SDK71_ /D _MBCS /D COMPILER_MSVC32 /D COMPILER_MSVC32 /D COMPILER_MSVC /D _DLL_EXT=.dll /D LIBNAME=vgui_controls /D BINK_VIDEO /D AVI_VIDEO /D WMV_VIDEO /D DEV_BUILD /D FRAME_POINTER_OMISSION_DISABLED /D _EXTERNAL_DLL_EXT=.dll /D VPCGAMECAPS=VALVE /D "PROJECTDIR=C:\Users\Wolfcl0ck\Documents\GitHub\sp\source-sdk-2013\sp\src\vgui2\vgui_controls" /D _DLL_EXT=.dll /D SOURCE1=1 /D VPCGAME=valve /GF /Gm- /MT /GS /Gy /arch:SSE /fp:fast /Zc:wchar_t /Zc:forScope /GR /openmp- /Fo".\RELEASE\.\/" /Fd".\RELEASE\.\/VC120.PDB" /Gd /TP /wd4316 /analyze- /FC /d2Zi+ /Gw C:\USERS\WOLFCL0CK\DOCUMENTS\GITHUB\SP\SOURCE-SDK-2013\SP\SRC\VGUI2\VGUI_CONTROLS\PANEL.CPP
^C:\USERS\WOLFCL0CK\DOCUMENTS\GITHUB\SP\SOURCE-SDK-2013\SP\SRC\VGUI2\VGUI_CONTROLS\PANELLISTPANEL.CPP
/c /I..\..\common /I..\..\public /I..\..\public\tier0 /I..\..\public\tier1 /Igenerated_proto /I"..\..\thirdparty\protobuf-2.3.0\src" /I..\..\thirdparty /I..\..\thirdparty\cef /Igenerated_proto /Z7 /nologo /W4 /WX /O2 /Ob2 /Oi /Ot /Oy- /D VPC /D RAD_TELEMETRY_DISABLED /D WIN32 /D _WIN32 /D NDEBUG /D _LIB /D _CRT_SECURE_NO_DEPRECATE /D _CRT_NONSTDC_NO_DEPRECATE /D _ALLOW_RUNTIME_LIBRARY_MISMATCH /D _ALLOW_ITERATOR_DEBUG_LEVEL_MISMATCH /D _ALLOW_MSC_VER_MISMATCH /D _USING_V110_SDK71_ /D _MBCS /D COMPILER_MSVC32 /D COMPILER_MSVC32 /D COMPILER_MSVC /D _DLL_EXT=.dll /D LIBNAME=vgui_controls /D BINK_VIDEO /D AVI_VIDEO /D WMV_VIDEO /D DEV_BUILD /D FRAME_POINTER_OMISSION_DISABLED /D _EXTERNAL_DLL_EXT=.dll /D VPCGAMECAPS=VALVE /D "PROJECTDIR=C:\Users\Wolfcl0ck\Documents\GitHub\sp\source-sdk-2013\sp\src\vgui2\vgui_controls" /D _DLL_EXT=.dll /D SOURCE1=1 /D VPCGAME=valve /GF /Gm- /MT /GS /Gy /arch:SSE /fp:fast /Zc:wchar_t /Zc:forScope /GR /openmp- /Fo".\RELEASE\.\/" /Fd".\RELEASE\.\/VC120.PDB" /Gd /TP /wd4316 /analyze- /FC /d2Zi+ /Gw C:\USERS\WOLFCL0CK\DOCUMENTS\GITHUB\SP\SOURCE-SDK-2013\SP\SRC\VGUI2\VGUI_CONTROLS\PANELLISTPANEL.CPP
^C:\USERS\WOLFCL0CK\DOCUMENTS\GITHUB\SP\SOURCE-SDK-2013\SP\SRC\VGUI2\VGUI_CONTROLS\PERFORCEFILEEXPLORER.CPP
/c /I..\..\common /I..\..\public /I..\..\public\tier0 /I..\..\public\tier1 /Igenerated_proto /I"..\..\thirdparty\protobuf-2.3.0\src" /I..\..\thirdparty /I..\..\thirdparty\cef /Igenerated_proto /Z7 /nologo /W4 /WX /O2 /Ob2 /Oi /Ot /Oy- /D VPC /D RAD_TELEMETRY_DISABLED /D WIN32 /D _WIN32 /D NDEBUG /D _LIB /D _CRT_SECURE_NO_DEPRECATE /D _CRT_NONSTDC_NO_DEPRECATE /D _ALLOW_RUNTIME_LIBRARY_MISMATCH /D _ALLOW_ITERATOR_DEBUG_LEVEL_MISMATCH /D _ALLOW_MSC_VER_MISMATCH /D _USING_V110_SDK71_ /D _MBCS /D COMPILER_MSVC32 /D COMPILER_MSVC32 /D COMPILER_MSVC /D _DLL_EXT=.dll /D LIBNAME=vgui_controls /D BINK_VIDEO /D AVI_VIDEO /D WMV_VIDEO /D DEV_BUILD /D FRAME_POINTER_OMISSION_DISABLED /D _EXTERNAL_DLL_EXT=.dll /D VPCGAMECAPS=VALVE /D "PROJECTDIR=C:\Users\Wolfcl0ck\Documents\GitHub\sp\source-sdk-2013\sp\src\vgui2\vgui_controls" /D _DLL_EXT=.dll /D SOURCE1=1 /D VPCGAME=valve /GF /Gm- /MT /GS /Gy /arch:SSE /fp:fast /Zc:wchar_t /Zc:forScope /GR /openmp- /Fo".\RELEASE\.\/" /Fd".\RELEASE\.\/VC120.PDB" /Gd /TP /wd4316 /analyze- /FC /d2Zi+ /Gw C:\USERS\WOLFCL0CK\DOCUMENTS\GITHUB\SP\SOURCE-SDK-2013\SP\SRC\VGUI2\VGUI_CONTROLS\PERFORCEFILEEXPLORER.CPP
^C:\USERS\WOLFCL0CK\DOCUMENTS\GITHUB\SP\SOURCE-SDK-2013\SP\SRC\VGUI2\VGUI_CONTROLS\PERFORCEFILELIST.CPP
/c /I..\..\common /I..\..\public /I..\..\public\tier0 /I..\..\public\tier1 /Igenerated_proto /I"..\..\thirdparty\protobuf-2.3.0\src" /I..\..\thirdparty /I..\..\thirdparty\cef /Igenerated_proto /Z7 /nologo /W4 /WX /O2 /Ob2 /Oi /Ot /Oy- /D VPC /D RAD_TELEMETRY_DISABLED /D WIN32 /D _WIN32 /D NDEBUG /D _LIB /D _CRT_SECURE_NO_DEPRECATE /D _CRT_NONSTDC_NO_DEPRECATE /D _ALLOW_RUNTIME_LIBRARY_MISMATCH /D _ALLOW_ITERATOR_DEBUG_LEVEL_MISMATCH /D _ALLOW_MSC_VER_MISMATCH /D _USING_V110_SDK71_ /D _MBCS /D COMPILER_MSVC32 /D COMPILER_MSVC32 /D COMPILER_MSVC /D _DLL_EXT=.dll /D LIBNAME=vgui_controls /D BINK_VIDEO /D AVI_VIDEO /D WMV_VIDEO /D DEV_BUILD /D FRAME_POINTER_OMISSION_DISABLED /D _EXTERNAL_DLL_EXT=.dll /D VPCGAMECAPS=VALVE /D "PROJECTDIR=C:\Users\Wolfcl0ck\Documents\GitHub\sp\source-sdk-2013\sp\src\vgui2\vgui_controls" /D _DLL_EXT=.dll /D SOURCE1=1 /D VPCGAME=valve /GF /Gm- /MT /GS /Gy /arch:SSE /fp:fast /Zc:wchar_t /Zc:forScope /GR /openmp- /Fo".\RELEASE\.\/" /Fd".\RELEASE\.\/VC120.PDB" /Gd /TP /wd4316 /analyze- /FC /d2Zi+ /Gw C:\USERS\WOLFCL0CK\DOCUMENTS\GITHUB\SP\SOURCE-SDK-2013\SP\SRC\VGUI2\VGUI_CONTROLS\PERFORCEFILELIST.CPP
^C:\USERS\WOLFCL0CK\DOCUMENTS\GITHUB\SP\SOURCE-SDK-2013\SP\SRC\VGUI2\VGUI_CONTROLS\PERFORCEFILELISTFRAME.CPP
/c /I..\..\common /I..\..\public /I..\..\public\tier0 /I..\..\public\tier1 /Igenerated_proto /I"..\..\thirdparty\protobuf-2.3.0\src" /I..\..\thirdparty /I..\..\thirdparty\cef /Igenerated_proto /Z7 /nologo /W4 /WX /O2 /Ob2 /Oi /Ot /Oy- /D VPC /D RAD_TELEMETRY_DISABLED /D WIN32 /D _WIN32 /D NDEBUG /D _LIB /D _CRT_SECURE_NO_DEPRECATE /D _CRT_NONSTDC_NO_DEPRECATE /D _ALLOW_RUNTIME_LIBRARY_MISMATCH /D _ALLOW_ITERATOR_DEBUG_LEVEL_MISMATCH /D _ALLOW_MSC_VER_MISMATCH /D _USING_V110_SDK71_ /D _MBCS /D COMPILER_MSVC32 /D COMPILER_MSVC32 /D COMPILER_MSVC /D _DLL_EXT=.dll /D LIBNAME=vgui_controls /D BINK_VIDEO /D AVI_VIDEO /D WMV_VIDEO /D DEV_BUILD /D FRAME_POINTER_OMISSION_DISABLED /D _EXTERNAL_DLL_EXT=.dll /D VPCGAMECAPS=VALVE /D "PROJECTDIR=C:\Users\Wolfcl0ck\Documents\GitHub\sp\source-sdk-2013\sp\src\vgui2\vgui_controls" /D _DLL_EXT=.dll /D SOURCE1=1 /D VPCGAME=valve /GF /Gm- /MT /GS /Gy /arch:SSE /fp:fast /Zc:wchar_t /Zc:forScope /GR /openmp- /Fo".\RELEASE\.\/" /Fd".\RELEASE\.\/VC120.PDB" /Gd /TP /wd4316 /analyze- /FC /d2Zi+ /Gw C:\USERS\WOLFCL0CK\DOCUMENTS\GITHUB\SP\SOURCE-SDK-2013\SP\SRC\VGUI2\VGUI_CONTROLS\PERFORCEFILELISTFRAME.CPP
^C:\USERS\WOLFCL0CK\DOCUMENTS\GITHUB\SP\SOURCE-SDK-2013\SP\SRC\VGUI2\VGUI_CONTROLS\PROGRESSBAR.CPP
/c /I..\..\common /I..\..\public /I..\..\public\tier0 /I..\..\public\tier1 /Igenerated_proto /I"..\..\thirdparty\protobuf-2.3.0\src" /I..\..\thirdparty /I..\..\thirdparty\cef /Igenerated_proto /Z7 /nologo /W4 /WX /O2 /Ob2 /Oi /Ot /Oy- /D VPC /D RAD_TELEMETRY_DISABLED /D WIN32 /D _WIN32 /D NDEBUG /D _LIB /D _CRT_SECURE_NO_DEPRECATE /D _CRT_NONSTDC_NO_DEPRECATE /D _ALLOW_RUNTIME_LIBRARY_MISMATCH /D _ALLOW_ITERATOR_DEBUG_LEVEL_MISMATCH /D _ALLOW_MSC_VER_MISMATCH /D _USING_V110_SDK71_ /D _MBCS /D COMPILER_MSVC32 /D COMPILER_MSVC32 /D COMPILER_MSVC /D _DLL_EXT=.dll /D LIBNAME=vgui_controls /D BINK_VIDEO /D AVI_VIDEO /D WMV_VIDEO /D DEV_BUILD /D FRAME_POINTER_OMISSION_DISABLED /D _EXTERNAL_DLL_EXT=.dll /D VPCGAMECAPS=VALVE /D "PROJECTDIR=C:\Users\Wolfcl0ck\Documents\GitHub\sp\source-sdk-2013\sp\src\vgui2\vgui_controls" /D _DLL_EXT=.dll /D SOURCE1=1 /D VPCGAME=valve /GF /Gm- /MT /GS /Gy /arch:SSE /fp:fast /Zc:wchar_t /Zc:forScope /GR /openmp- /Fo".\RELEASE\.\/" /Fd".\RELEASE\.\/VC120.PDB" /Gd /TP /wd4316 /analyze- /FC /d2Zi+ /Gw C:\USERS\WOLFCL0CK\DOCUMENTS\GITHUB\SP\SOURCE-SDK-2013\SP\SRC\VGUI2\VGUI_CONTROLS\PROGRESSBAR.CPP
^C:\USERS\WOLFCL0CK\DOCUMENTS\GITHUB\SP\SOURCE-SDK-2013\SP\SRC\VGUI2\VGUI_CONTROLS\PROGRESSBOX.CPP
/c /I..\..\common /I..\..\public /I..\..\public\tier0 /I..\..\public\tier1 /Igenerated_proto /I"..\..\thirdparty\protobuf-2.3.0\src" /I..\..\thirdparty /I..\..\thirdparty\cef /Igenerated_proto /Z7 /nologo /W4 /WX /O2 /Ob2 /Oi /Ot /Oy- /D VPC /D RAD_TELEMETRY_DISABLED /D WIN32 /D _WIN32 /D NDEBUG /D _LIB /D _CRT_SECURE_NO_DEPRECATE /D _CRT_NONSTDC_NO_DEPRECATE /D _ALLOW_RUNTIME_LIBRARY_MISMATCH /D _ALLOW_ITERATOR_DEBUG_LEVEL_MISMATCH /D _ALLOW_MSC_VER_MISMATCH /D _USING_V110_SDK71_ /D _MBCS /D COMPILER_MSVC32 /D COMPILER_MSVC32 /D COMPILER_MSVC /D _DLL_EXT=.dll /D LIBNAME=vgui_controls /D BINK_VIDEO /D AVI_VIDEO /D WMV_VIDEO /D DEV_BUILD /D FRAME_POINTER_OMISSION_DISABLED /D _EXTERNAL_DLL_EXT=.dll /D VPCGAMECAPS=VALVE /D "PROJECTDIR=C:\Users\Wolfcl0ck\Documents\GitHub\sp\source-sdk-2013\sp\src\vgui2\vgui_controls" /D _DLL_EXT=.dll /D SOURCE1=1 /D VPCGAME=valve /GF /Gm- /MT /GS /Gy /arch:SSE /fp:fast /Zc:wchar_t /Zc:forScope /GR /openmp- /Fo".\RELEASE\.\/" /Fd".\RELEASE\.\/VC120.PDB" /Gd /TP /wd4316 /analyze- /FC /d2Zi+ /Gw C:\USERS\WOLFCL0CK\DOCUMENTS\GITHUB\SP\SOURCE-SDK-2013\SP\SRC\VGUI2\VGUI_CONTROLS\PROGRESSBOX.CPP
^C:\USERS\WOLFCL0CK\DOCUMENTS\GITHUB\SP\SOURCE-SDK-2013\SP\SRC\VGUI2\VGUI_CONTROLS\PROPERTYDIALOG.CPP
/c /I..\..\common /I..\..\public /I..\..\public\tier0 /I..\..\public\tier1 /Igenerated_proto /I"..\..\thirdparty\protobuf-2.3.0\src" /I..\..\thirdparty /I..\..\thirdparty\cef /Igenerated_proto /Z7 /nologo /W4 /WX /O2 /Ob2 /Oi /Ot /Oy- /D VPC /D RAD_TELEMETRY_DISABLED /D WIN32 /D _WIN32 /D NDEBUG /D _LIB /D _CRT_SECURE_NO_DEPRECATE /D _CRT_NONSTDC_NO_DEPRECATE /D _ALLOW_RUNTIME_LIBRARY_MISMATCH /D _ALLOW_ITERATOR_DEBUG_LEVEL_MISMATCH /D _ALLOW_MSC_VER_MISMATCH /D _USING_V110_SDK71_ /D _MBCS /D COMPILER_MSVC32 /D COMPILER_MSVC32 /D COMPILER_MSVC /D _DLL_EXT=.dll /D LIBNAME=vgui_controls /D BINK_VIDEO /D AVI_VIDEO /D WMV_VIDEO /D DEV_BUILD /D FRAME_POINTER_OMISSION_DISABLED /D _EXTERNAL_DLL_EXT=.dll /D VPCGAMECAPS=VALVE /D "PROJECTDIR=C:\Users\Wolfcl0ck\Documents\GitHub\sp\source-sdk-2013\sp\src\vgui2\vgui_controls" /D _DLL_EXT=.dll /D SOURCE1=1 /D VPCGAME=valve /GF /Gm- /MT /GS /Gy /arch:SSE /fp:fast /Zc:wchar_t /Zc:forScope /GR /openmp- /Fo".\RELEASE\.\/" /Fd".\RELEASE\.\/VC120.PDB" /Gd /TP /wd4316 /analyze- /FC /d2Zi+ /Gw C:\USERS\WOLFCL0CK\DOCUMENTS\GITHUB\SP\SOURCE-SDK-2013\SP\SRC\VGUI2\VGUI_CONTROLS\PROPERTYDIALOG.CPP
^C:\USERS\WOLFCL0CK\DOCUMENTS\GITHUB\SP\SOURCE-SDK-2013\SP\SRC\VGUI2\VGUI_CONTROLS\PROPERTYPAGE.CPP
/c /I..\..\common /I..\..\public /I..\..\public\tier0 /I..\..\public\tier1 /Igenerated_proto /I"..\..\thirdparty\protobuf-2.3.0\src" /I..\..\thirdparty /I..\..\thirdparty\cef /Igenerated_proto /Z7 /nologo /W4 /WX /O2 /Ob2 /Oi /Ot /Oy- /D VPC /D RAD_TELEMETRY_DISABLED /D WIN32 /D _WIN32 /D NDEBUG /D _LIB /D _CRT_SECURE_NO_DEPRECATE /D _CRT_NONSTDC_NO_DEPRECATE /D _ALLOW_RUNTIME_LIBRARY_MISMATCH /D _ALLOW_ITERATOR_DEBUG_LEVEL_MISMATCH /D _ALLOW_MSC_VER_MISMATCH /D _USING_V110_SDK71_ /D _MBCS /D COMPILER_MSVC32 /D COMPILER_MSVC32 /D COMPILER_MSVC /D _DLL_EXT=.dll /D LIBNAME=vgui_controls /D BINK_VIDEO /D AVI_VIDEO /D WMV_VIDEO /D DEV_BUILD /D FRAME_POINTER_OMISSION_DISABLED /D _EXTERNAL_DLL_EXT=.dll /D VPCGAMECAPS=VALVE /D "PROJECTDIR=C:\Users\Wolfcl0ck\Documents\GitHub\sp\source-sdk-2013\sp\src\vgui2\vgui_controls" /D _DLL_EXT=.dll /D SOURCE1=1 /D VPCGAME=valve /GF /Gm- /MT /GS /Gy /arch:SSE /fp:fast /Zc:wchar_t /Zc:forScope /GR /openmp- /Fo".\RELEASE\.\/" /Fd".\RELEASE\.\/VC120.PDB" /Gd /TP /wd4316 /analyze- /FC /d2Zi+ /Gw C:\USERS\WOLFCL0CK\DOCUMENTS\GITHUB\SP\SOURCE-SDK-2013\SP\SRC\VGUI2\VGUI_CONTROLS\PROPERTYPAGE.CPP
^C:\USERS\WOLFCL0CK\DOCUMENTS\GITHUB\SP\SOURCE-SDK-2013\SP\SRC\VGUI2\VGUI_CONTROLS\PROPERTYSHEET.CPP
/c /I..\..\common /I..\..\public /I..\..\public\tier0 /I..\..\public\tier1 /Igenerated_proto /I"..\..\thirdparty\protobuf-2.3.0\src" /I..\..\thirdparty /I..\..\thirdparty\cef /Igenerated_proto /Z7 /nologo /W4 /WX /O2 /Ob2 /Oi /Ot /Oy- /D VPC /D RAD_TELEMETRY_DISABLED /D WIN32 /D _WIN32 /D NDEBUG /D _LIB /D _CRT_SECURE_NO_DEPRECATE /D _CRT_NONSTDC_NO_DEPRECATE /D _ALLOW_RUNTIME_LIBRARY_MISMATCH /D _ALLOW_ITERATOR_DEBUG_LEVEL_MISMATCH /D _ALLOW_MSC_VER_MISMATCH /D _USING_V110_SDK71_ /D _MBCS /D COMPILER_MSVC32 /D COMPILER_MSVC32 /D COMPILER_MSVC /D _DLL_EXT=.dll /D LIBNAME=vgui_controls /D BINK_VIDEO /D AVI_VIDEO /D WMV_VIDEO /D DEV_BUILD /D FRAME_POINTER_OMISSION_DISABLED /D _EXTERNAL_DLL_EXT=.dll /D VPCGAMECAPS=VALVE /D "PROJECTDIR=C:\Users\Wolfcl0ck\Documents\GitHub\sp\source-sdk-2013\sp\src\vgui2\vgui_controls" /D _DLL_EXT=.dll /D SOURCE1=1 /D VPCGAME=valve /GF /Gm- /MT /GS /Gy /arch:SSE /fp:fast /Zc:wchar_t /Zc:forScope /GR /openmp- /Fo".\RELEASE\.\/" /Fd".\RELEASE\.\/VC120.PDB" /Gd /TP /wd4316 /analyze- /FC /d2Zi+ /Gw C:\USERS\WOLFCL0CK\DOCUMENTS\GITHUB\SP\SOURCE-SDK-2013\SP\SRC\VGUI2\VGUI_CONTROLS\PROPERTYSHEET.CPP
^C:\USERS\WOLFCL0CK\DOCUMENTS\GITHUB\SP\SOURCE-SDK-2013\SP\SRC\VGUI2\VGUI_CONTROLS\QUERYBOX.CPP
/c /I..\..\common /I..\..\public /I..\..\public\tier0 /I..\..\public\tier1 /Igenerated_proto /I"..\..\thirdparty\protobuf-2.3.0\src" /I..\..\thirdparty /I..\..\thirdparty\cef /Igenerated_proto /Z7 /nologo /W4 /WX /O2 /Ob2 /Oi /Ot /Oy- /D VPC /D RAD_TELEMETRY_DISABLED /D WIN32 /D _WIN32 /D NDEBUG /D _LIB /D _CRT_SECURE_NO_DEPRECATE /D _CRT_NONSTDC_NO_DEPRECATE /D _ALLOW_RUNTIME_LIBRARY_MISMATCH /D _ALLOW_ITERATOR_DEBUG_LEVEL_MISMATCH /D _ALLOW_MSC_VER_MISMATCH /D _USING_V110_SDK71_ /D _MBCS /D COMPILER_MSVC32 /D COMPILER_MSVC32 /D COMPILER_MSVC /D _DLL_EXT=.dll /D LIBNAME=vgui_controls /D BINK_VIDEO /D AVI_VIDEO /D WMV_VIDEO /D DEV_BUILD /D FRAME_POINTER_OMISSION_DISABLED /D _EXTERNAL_DLL_EXT=.dll /D VPCGAMECAPS=VALVE /D "PROJECTDIR=C:\Users\Wolfcl0ck\Documents\GitHub\sp\source-sdk-2013\sp\src\vgui2\vgui_controls" /D _DLL_EXT=.dll /D SOURCE1=1 /D VPCGAME=valve /GF /Gm- /MT /GS /Gy /arch:SSE /fp:fast /Zc:wchar_t /Zc:forScope /GR /openmp- /Fo".\RELEASE\.\/" /Fd".\RELEASE\.\/VC120.PDB" /Gd /TP /wd4316 /analyze- /FC /d2Zi+ /Gw C:\USERS\WOLFCL0CK\DOCUMENTS\GITHUB\SP\SOURCE-SDK-2013\SP\SRC\VGUI2\VGUI_CONTROLS\QUERYBOX.CPP
^C:\USERS\WOLFCL0CK\DOCUMENTS\GITHUB\SP\SOURCE-SDK-2013\SP\SRC\VGUI2\VGUI_CONTROLS\RADIOBUTTON.CPP
/c /I..\..\common /I..\..\public /I..\..\public\tier0 /I..\..\public\tier1 /Igenerated_proto /I"..\..\thirdparty\protobuf-2.3.0\src" /I..\..\thirdparty /I..\..\thirdparty\cef /Igenerated_proto /Z7 /nologo /W4 /WX /O2 /Ob2 /Oi /Ot /Oy- /D VPC /D RAD_TELEMETRY_DISABLED /D WIN32 /D _WIN32 /D NDEBUG /D _LIB /D _CRT_SECURE_NO_DEPRECATE /D _CRT_NONSTDC_NO_DEPRECATE /D _ALLOW_RUNTIME_LIBRARY_MISMATCH /D _ALLOW_ITERATOR_DEBUG_LEVEL_MISMATCH /D _ALLOW_MSC_VER_MISMATCH /D _USING_V110_SDK71_ /D _MBCS /D COMPILER_MSVC32 /D COMPILER_MSVC32 /D COMPILER_MSVC /D _DLL_EXT=.dll /D LIBNAME=vgui_controls /D BINK_VIDEO /D AVI_VIDEO /D WMV_VIDEO /D DEV_BUILD /D FRAME_POINTER_OMISSION_DISABLED /D _EXTERNAL_DLL_EXT=.dll /D VPCGAMECAPS=VALVE /D "PROJECTDIR=C:\Users\Wolfcl0ck\Documents\GitHub\sp\source-sdk-2013\sp\src\vgui2\vgui_controls" /D _DLL_EXT=.dll /D SOURCE1=1 /D VPCGAME=valve /GF /Gm- /MT /GS /Gy /arch:SSE /fp:fast /Zc:wchar_t /Zc:forScope /GR /openmp- /Fo".\RELEASE\.\/" /Fd".\RELEASE\.\/VC120.PDB" /Gd /TP /wd4316 /analyze- /FC /d2Zi+ /Gw C:\USERS\WOLFCL0CK\DOCUMENTS\GITHUB\SP\SOURCE-SDK-2013\SP\SRC\VGUI2\VGUI_CONTROLS\RADIOBUTTON.CPP
^C:\USERS\WOLFCL0CK\DOCUMENTS\GITHUB\SP\SOURCE-SDK-2013\SP\SRC\VGUI2\VGUI_CONTROLS\RICHTEXT.CPP
/c /I..\..\common /I..\..\public /I..\..\public\tier0 /I..\..\public\tier1 /Igenerated_proto /I"..\..\thirdparty\protobuf-2.3.0\src" /I..\..\thirdparty /I..\..\thirdparty\cef /Igenerated_proto /Z7 /nologo /W4 /WX /O2 /Ob2 /Oi /Ot /Oy- /D VPC /D RAD_TELEMETRY_DISABLED /D WIN32 /D _WIN32 /D NDEBUG /D _LIB /D _CRT_SECURE_NO_DEPRECATE /D _CRT_NONSTDC_NO_DEPRECATE /D _ALLOW_RUNTIME_LIBRARY_MISMATCH /D _ALLOW_ITERATOR_DEBUG_LEVEL_MISMATCH /D _ALLOW_MSC_VER_MISMATCH /D _USING_V110_SDK71_ /D _MBCS /D COMPILER_MSVC32 /D COMPILER_MSVC32 /D COMPILER_MSVC /D _DLL_EXT=.dll /D LIBNAME=vgui_controls /D BINK_VIDEO /D AVI_VIDEO /D WMV_VIDEO /D DEV_BUILD /D FRAME_POINTER_OMISSION_DISABLED /D _EXTERNAL_DLL_EXT=.dll /D VPCGAMECAPS=VALVE /D "PROJECTDIR=C:\Users\Wolfcl0ck\Documents\GitHub\sp\source-sdk-2013\sp\src\vgui2\vgui_controls" /D _DLL_EXT=.dll /D SOURCE1=1 /D VPCGAME=valve /GF /Gm- /MT /GS /Gy /arch:SSE /fp:fast /Zc:wchar_t /Zc:forScope /GR /openmp- /Fo".\RELEASE\.\/" /Fd".\RELEASE\.\/VC120.PDB" /Gd /TP /wd4316 /analyze- /FC /d2Zi+ /Gw C:\USERS\WOLFCL0CK\DOCUMENTS\GITHUB\SP\SOURCE-SDK-2013\SP\SRC\VGUI2\VGUI_CONTROLS\RICHTEXT.CPP
^C:\USERS\WOLFCL0CK\DOCUMENTS\GITHUB\SP\SOURCE-SDK-2013\SP\SRC\VGUI2\VGUI_CONTROLS\ROTATINGPROGRESSBAR.CPP
/c /I..\..\common /I..\..\public /I..\..\public\tier0 /I..\..\public\tier1 /Igenerated_proto /I"..\..\thirdparty\protobuf-2.3.0\src" /I..\..\thirdparty /I..\..\thirdparty\cef /Igenerated_proto /Z7 /nologo /W4 /WX /O2 /Ob2 /Oi /Ot /Oy- /D VPC /D RAD_TELEMETRY_DISABLED /D WIN32 /D _WIN32 /D NDEBUG /D _LIB /D _CRT_SECURE_NO_DEPRECATE /D _CRT_NONSTDC_NO_DEPRECATE /D _ALLOW_RUNTIME_LIBRARY_MISMATCH /D _ALLOW_ITERATOR_DEBUG_LEVEL_MISMATCH /D _ALLOW_MSC_VER_MISMATCH /D _USING_V110_SDK71_ /D _MBCS /D COMPILER_MSVC32 /D COMPILER_MSVC32 /D COMPILER_MSVC /D _DLL_EXT=.dll /D LIBNAME=vgui_controls /D BINK_VIDEO /D AVI_VIDEO /D WMV_VIDEO /D DEV_BUILD /D FRAME_POINTER_OMISSION_DISABLED /D _EXTERNAL_DLL_EXT=.dll /D VPCGAMECAPS=VALVE /D "PROJECTDIR=C:\Users\Wolfcl0ck\Documents\GitHub\sp\source-sdk-2013\sp\src\vgui2\vgui_controls" /D _DLL_EXT=.dll /D SOURCE1=1 /D VPCGAME=valve /GF /Gm- /MT /GS /Gy /arch:SSE /fp:fast /Zc:wchar_t /Zc:forScope /GR /openmp- /Fo".\RELEASE\.\/" /Fd".\RELEASE\.\/VC120.PDB" /Gd /TP /wd4316 /analyze- /FC /d2Zi+ /Gw C:\USERS\WOLFCL0CK\DOCUMENTS\GITHUB\SP\SOURCE-SDK-2013\SP\SRC\VGUI2\VGUI_CONTROLS\ROTATINGPROGRESSBAR.CPP
^C:\USERS\WOLFCL0CK\DOCUMENTS\GITHUB\SP\SOURCE-SDK-2013\SP\SRC\VGUI2\VGUI_CONTROLS\SAVEDOCUMENTQUERY.CPP
/c /I..\..\common /I..\..\public /I..\..\public\tier0 /I..\..\public\tier1 /Igenerated_proto /I"..\..\thirdparty\protobuf-2.3.0\src" /I..\..\thirdparty /I..\..\thirdparty\cef /Igenerated_proto /Z7 /nologo /W4 /WX /O2 /Ob2 /Oi /Ot /Oy- /D VPC /D RAD_TELEMETRY_DISABLED /D WIN32 /D _WIN32 /D NDEBUG /D _LIB /D _CRT_SECURE_NO_DEPRECATE /D _CRT_NONSTDC_NO_DEPRECATE /D _ALLOW_RUNTIME_LIBRARY_MISMATCH /D _ALLOW_ITERATOR_DEBUG_LEVEL_MISMATCH /D _ALLOW_MSC_VER_MISMATCH /D _USING_V110_SDK71_ /D _MBCS /D COMPILER_MSVC32 /D COMPILER_MSVC32 /D COMPILER_MSVC /D _DLL_EXT=.dll /D LIBNAME=vgui_controls /D BINK_VIDEO /D AVI_VIDEO /D WMV_VIDEO /D DEV_BUILD /D FRAME_POINTER_OMISSION_DISABLED /D _EXTERNAL_DLL_EXT=.dll /D VPCGAMECAPS=VALVE /D "PROJECTDIR=C:\Users\Wolfcl0ck\Documents\GitHub\sp\source-sdk-2013\sp\src\vgui2\vgui_controls" /D _DLL_EXT=.dll /D SOURCE1=1 /D VPCGAME=valve /GF /Gm- /MT /GS /Gy /arch:SSE /fp:fast /Zc:wchar_t /Zc:forScope /GR /openmp- /Fo".\RELEASE\.\/" /Fd".\RELEASE\.\/VC120.PDB" /Gd /TP /wd4316 /analyze- /FC /d2Zi+ /Gw C:\USERS\WOLFCL0CK\DOCUMENTS\GITHUB\SP\SOURCE-SDK-2013\SP\SRC\VGUI2\VGUI_CONTROLS\SAVEDOCUMENTQUERY.CPP
^C:\USERS\WOLFCL0CK\DOCUMENTS\GITHUB\SP\SOURCE-SDK-2013\SP\SRC\VGUI2\VGUI_CONTROLS\SCALABLEIMAGEPANEL.CPP
/c /I..\..\common /I..\..\public /I..\..\public\tier0 /I..\..\public\tier1 /Igenerated_proto /I"..\..\thirdparty\protobuf-2.3.0\src" /I..\..\thirdparty /I..\..\thirdparty\cef /Igenerated_proto /Z7 /nologo /W4 /WX /O2 /Ob2 /Oi /Ot /Oy- /D VPC /D RAD_TELEMETRY_DISABLED /D WIN32 /D _WIN32 /D NDEBUG /D _LIB /D _CRT_SECURE_NO_DEPRECATE /D _CRT_NONSTDC_NO_DEPRECATE /D _ALLOW_RUNTIME_LIBRARY_MISMATCH /D _ALLOW_ITERATOR_DEBUG_LEVEL_MISMATCH /D _ALLOW_MSC_VER_MISMATCH /D _USING_V110_SDK71_ /D _MBCS /D COMPILER_MSVC32 /D COMPILER_MSVC32 /D COMPILER_MSVC /D _DLL_EXT=.dll /D LIBNAME=vgui_controls /D BINK_VIDEO /D AVI_VIDEO /D WMV_VIDEO /D DEV_BUILD /D FRAME_POINTER_OMISSION_DISABLED /D _EXTERNAL_DLL_EXT=.dll /D VPCGAMECAPS=VALVE /D "PROJECTDIR=C:\Users\Wolfcl0ck\Documents\GitHub\sp\source-sdk-2013\sp\src\vgui2\vgui_controls" /D _DLL_EXT=.dll /D SOURCE1=1 /D VPCGAME=valve /GF /Gm- /MT /GS /Gy /arch:SSE /fp:fast /Zc:wchar_t /Zc:forScope /GR /openmp- /Fo".\RELEASE\.\/" /Fd".\RELEASE\.\/VC120.PDB" /Gd /TP /wd4316 /analyze- /FC /d2Zi+ /Gw C:\USERS\WOLFCL0CK\DOCUMENTS\GITHUB\SP\SOURCE-SDK-2013\SP\SRC\VGUI2\VGUI_CONTROLS\SCALABLEIMAGEPANEL.CPP
^C:\USERS\WOLFCL0CK\DOCUMENTS\GITHUB\SP\SOURCE-SDK-2013\SP\SRC\VGUI2\VGUI_CONTROLS\SCROLLABLEEDITABLEPANEL.CPP
/c /I..\..\common /I..\..\public /I..\..\public\tier0 /I..\..\public\tier1 /Igenerated_proto /I"..\..\thirdparty\protobuf-2.3.0\src" /I..\..\thirdparty /I..\..\thirdparty\cef /Igenerated_proto /Z7 /nologo /W4 /WX /O2 /Ob2 /Oi /Ot /Oy- /D VPC /D RAD_TELEMETRY_DISABLED /D WIN32 /D _WIN32 /D NDEBUG /D _LIB /D _CRT_SECURE_NO_DEPRECATE /D _CRT_NONSTDC_NO_DEPRECATE /D _ALLOW_RUNTIME_LIBRARY_MISMATCH /D _ALLOW_ITERATOR_DEBUG_LEVEL_MISMATCH /D _ALLOW_MSC_VER_MISMATCH /D _USING_V110_SDK71_ /D _MBCS /D COMPILER_MSVC32 /D COMPILER_MSVC32 /D COMPILER_MSVC /D _DLL_EXT=.dll /D LIBNAME=vgui_controls /D BINK_VIDEO /D AVI_VIDEO /D WMV_VIDEO /D DEV_BUILD /D FRAME_POINTER_OMISSION_DISABLED /D _EXTERNAL_DLL_EXT=.dll /D VPCGAMECAPS=VALVE /D "PROJECTDIR=C:\Users\Wolfcl0ck\Documents\GitHub\sp\source-sdk-2013\sp\src\vgui2\vgui_controls" /D _DLL_EXT=.dll /D SOURCE1=1 /D VPCGAME=valve /GF /Gm- /MT /GS /Gy /arch:SSE /fp:fast /Zc:wchar_t /Zc:forScope /GR /openmp- /Fo".\RELEASE\.\/" /Fd".\RELEASE\.\/VC120.PDB" /Gd /TP /wd4316 /analyze- /FC /d2Zi+ /Gw C:\USERS\WOLFCL0CK\DOCUMENTS\GITHUB\SP\SOURCE-SDK-2013\SP\SRC\VGUI2\VGUI_CONTROLS\SCROLLABLEEDITABLEPANEL.CPP
^C:\USERS\WOLFCL0CK\DOCUMENTS\GITHUB\SP\SOURCE-SDK-2013\SP\SRC\VGUI2\VGUI_CONTROLS\SCROLLBAR.CPP
/c /I..\..\common /I..\..\public /I..\..\public\tier0 /I..\..\public\tier1 /Igenerated_proto /I"..\..\thirdparty\protobuf-2.3.0\src" /I..\..\thirdparty /I..\..\thirdparty\cef /Igenerated_proto /Z7 /nologo /W4 /WX /O2 /Ob2 /Oi /Ot /Oy- /D VPC /D RAD_TELEMETRY_DISABLED /D WIN32 /D _WIN32 /D NDEBUG /D _LIB /D _CRT_SECURE_NO_DEPRECATE /D _CRT_NONSTDC_NO_DEPRECATE /D _ALLOW_RUNTIME_LIBRARY_MISMATCH /D _ALLOW_ITERATOR_DEBUG_LEVEL_MISMATCH /D _ALLOW_MSC_VER_MISMATCH /D _USING_V110_SDK71_ /D _MBCS /D COMPILER_MSVC32 /D COMPILER_MSVC32 /D COMPILER_MSVC /D _DLL_EXT=.dll /D LIBNAME=vgui_controls /D BINK_VIDEO /D AVI_VIDEO /D WMV_VIDEO /D DEV_BUILD /D FRAME_POINTER_OMISSION_DISABLED /D _EXTERNAL_DLL_EXT=.dll /D VPCGAMECAPS=VALVE /D "PROJECTDIR=C:\Users\Wolfcl0ck\Documents\GitHub\sp\source-sdk-2013\sp\src\vgui2\vgui_controls" /D _DLL_EXT=.dll /D SOURCE1=1 /D VPCGAME=valve /GF /Gm- /MT /GS /Gy /arch:SSE /fp:fast /Zc:wchar_t /Zc:forScope /GR /openmp- /Fo".\RELEASE\.\/" /Fd".\RELEASE\.\/VC120.PDB" /Gd /TP /wd4316 /analyze- /FC /d2Zi+ /Gw C:\USERS\WOLFCL0CK\DOCUMENTS\GITHUB\SP\SOURCE-SDK-2013\SP\SRC\VGUI2\VGUI_CONTROLS\SCROLLBAR.CPP
^C:\USERS\WOLFCL0CK\DOCUMENTS\GITHUB\SP\SOURCE-SDK-2013\SP\SRC\VGUI2\VGUI_CONTROLS\SCROLLBARSLIDER.CPP
/c /I..\..\common /I..\..\public /I..\..\public\tier0 /I..\..\public\tier1 /Igenerated_proto /I"..\..\thirdparty\protobuf-2.3.0\src" /I..\..\thirdparty /I..\..\thirdparty\cef /Igenerated_proto /Z7 /nologo /W4 /WX /O2 /Ob2 /Oi /Ot /Oy- /D VPC /D RAD_TELEMETRY_DISABLED /D WIN32 /D _WIN32 /D NDEBUG /D _LIB /D _CRT_SECURE_NO_DEPRECATE /D _CRT_NONSTDC_NO_DEPRECATE /D _ALLOW_RUNTIME_LIBRARY_MISMATCH /D _ALLOW_ITERATOR_DEBUG_LEVEL_MISMATCH /D _ALLOW_MSC_VER_MISMATCH /D _USING_V110_SDK71_ /D _MBCS /D COMPILER_MSVC32 /D COMPILER_MSVC32 /D COMPILER_MSVC /D _DLL_EXT=.dll /D LIBNAME=vgui_controls /D BINK_VIDEO /D AVI_VIDEO /D WMV_VIDEO /D DEV_BUILD /D FRAME_POINTER_OMISSION_DISABLED /D _EXTERNAL_DLL_EXT=.dll /D VPCGAMECAPS=VALVE /D "PROJECTDIR=C:\Users\Wolfcl0ck\Documents\GitHub\sp\source-sdk-2013\sp\src\vgui2\vgui_controls" /D _DLL_EXT=.dll /D SOURCE1=1 /D VPCGAME=valve /GF /Gm- /MT /GS /Gy /arch:SSE /fp:fast /Zc:wchar_t /Zc:forScope /GR /openmp- /Fo".\RELEASE\.\/" /Fd".\RELEASE\.\/VC120.PDB" /Gd /TP /wd4316 /analyze- /FC /d2Zi+ /Gw C:\USERS\WOLFCL0CK\DOCUMENTS\GITHUB\SP\SOURCE-SDK-2013\SP\SRC\VGUI2\VGUI_CONTROLS\SCROLLBARSLIDER.CPP
^C:\USERS\WOLFCL0CK\DOCUMENTS\GITHUB\SP\SOURCE-SDK-2013\SP\SRC\VGUI2\VGUI_CONTROLS\SECTIONEDLISTPANEL.CPP
/c /I..\..\common /I..\..\public /I..\..\public\tier0 /I..\..\public\tier1 /Igenerated_proto /I"..\..\thirdparty\protobuf-2.3.0\src" /I..\..\thirdparty /I..\..\thirdparty\cef /Igenerated_proto /Z7 /nologo /W4 /WX /O2 /Ob2 /Oi /Ot /Oy- /D VPC /D RAD_TELEMETRY_DISABLED /D WIN32 /D _WIN32 /D NDEBUG /D _LIB /D _CRT_SECURE_NO_DEPRECATE /D _CRT_NONSTDC_NO_DEPRECATE /D _ALLOW_RUNTIME_LIBRARY_MISMATCH /D _ALLOW_ITERATOR_DEBUG_LEVEL_MISMATCH /D _ALLOW_MSC_VER_MISMATCH /D _USING_V110_SDK71_ /D _MBCS /D COMPILER_MSVC32 /D COMPILER_MSVC32 /D COMPILER_MSVC /D _DLL_EXT=.dll /D LIBNAME=vgui_controls /D BINK_VIDEO /D AVI_VIDEO /D WMV_VIDEO /D DEV_BUILD /D FRAME_POINTER_OMISSION_DISABLED /D _EXTERNAL_DLL_EXT=.dll /D VPCGAMECAPS=VALVE /D "PROJECTDIR=C:\Users\Wolfcl0ck\Documents\GitHub\sp\source-sdk-2013\sp\src\vgui2\vgui_controls" /D _DLL_EXT=.dll /D SOURCE1=1 /D VPCGAME=valve /GF /Gm- /MT /GS /Gy /arch:SSE /fp:fast /Zc:wchar_t /Zc:forScope /GR /openmp- /Fo".\RELEASE\.\/" /Fd".\RELEASE\.\/VC120.PDB" /Gd /TP /wd4316 /analyze- /FC /d2Zi+ /Gw C:\USERS\WOLFCL0CK\DOCUMENTS\GITHUB\SP\SOURCE-SDK-2013\SP\SRC\VGUI2\VGUI_CONTROLS\SECTIONEDLISTPANEL.CPP
^C:\USERS\WOLFCL0CK\DOCUMENTS\GITHUB\SP\SOURCE-SDK-2013\SP\SRC\VGUI2\VGUI_CONTROLS\SLIDER.CPP
/c /I..\..\common /I..\..\public /I..\..\public\tier0 /I..\..\public\tier1 /Igenerated_proto /I"..\..\thirdparty\protobuf-2.3.0\src" /I..\..\thirdparty /I..\..\thirdparty\cef /Igenerated_proto /Z7 /nologo /W4 /WX /O2 /Ob2 /Oi /Ot /Oy- /D VPC /D RAD_TELEMETRY_DISABLED /D WIN32 /D _WIN32 /D NDEBUG /D _LIB /D _CRT_SECURE_NO_DEPRECATE /D _CRT_NONSTDC_NO_DEPRECATE /D _ALLOW_RUNTIME_LIBRARY_MISMATCH /D _ALLOW_ITERATOR_DEBUG_LEVEL_MISMATCH /D _ALLOW_MSC_VER_MISMATCH /D _USING_V110_SDK71_ /D _MBCS /D COMPILER_MSVC32 /D COMPILER_MSVC32 /D COMPILER_MSVC /D _DLL_EXT=.dll /D LIBNAME=vgui_controls /D BINK_VIDEO /D AVI_VIDEO /D WMV_VIDEO /D DEV_BUILD /D FRAME_POINTER_OMISSION_DISABLED /D _EXTERNAL_DLL_EXT=.dll /D VPCGAMECAPS=VALVE /D "PROJECTDIR=C:\Users\Wolfcl0ck\Documents\GitHub\sp\source-sdk-2013\sp\src\vgui2\vgui_controls" /D _DLL_EXT=.dll /D SOURCE1=1 /D VPCGAME=valve /GF /Gm- /MT /GS /Gy /arch:SSE /fp:fast /Zc:wchar_t /Zc:forScope /GR /openmp- /Fo".\RELEASE\.\/" /Fd".\RELEASE\.\/VC120.PDB" /Gd /TP /wd4316 /analyze- /FC /d2Zi+ /Gw C:\USERS\WOLFCL0CK\DOCUMENTS\GITHUB\SP\SOURCE-SDK-2013\SP\SRC\VGUI2\VGUI_CONTROLS\SLIDER.CPP
^C:\USERS\WOLFCL0CK\DOCUMENTS\GITHUB\SP\SOURCE-SDK-2013\SP\SRC\VGUI2\VGUI_CONTROLS\SPLITTER.CPP
/c /I..\..\common /I..\..\public /I..\..\public\tier0 /I..\..\public\tier1 /Igenerated_proto /I"..\..\thirdparty\protobuf-2.3.0\src" /I..\..\thirdparty /I..\..\thirdparty\cef /Igenerated_proto /Z7 /nologo /W4 /WX /O2 /Ob2 /Oi /Ot /Oy- /D VPC /D RAD_TELEMETRY_DISABLED /D WIN32 /D _WIN32 /D NDEBUG /D _LIB /D _CRT_SECURE_NO_DEPRECATE /D _CRT_NONSTDC_NO_DEPRECATE /D _ALLOW_RUNTIME_LIBRARY_MISMATCH /D _ALLOW_ITERATOR_DEBUG_LEVEL_MISMATCH /D _ALLOW_MSC_VER_MISMATCH /D _USING_V110_SDK71_ /D _MBCS /D COMPILER_MSVC32 /D COMPILER_MSVC32 /D COMPILER_MSVC /D _DLL_EXT=.dll /D LIBNAME=vgui_controls /D BINK_VIDEO /D AVI_VIDEO /D WMV_VIDEO /D DEV_BUILD /D FRAME_POINTER_OMISSION_DISABLED /D _EXTERNAL_DLL_EXT=.dll /D VPCGAMECAPS=VALVE /D "PROJECTDIR=C:\Users\Wolfcl0ck\Documents\GitHub\sp\source-sdk-2013\sp\src\vgui2\vgui_controls" /D _DLL_EXT=.dll /D SOURCE1=1 /D VPCGAME=valve /GF /Gm- /MT /GS /Gy /arch:SSE /fp:fast /Zc:wchar_t /Zc:forScope /GR /openmp- /Fo".\RELEASE\.\/" /Fd".\RELEASE\.\/VC120.PDB" /Gd /TP /wd4316 /analyze- /FC /d2Zi+ /Gw C:\USERS\WOLFCL0CK\DOCUMENTS\GITHUB\SP\SOURCE-SDK-2013\SP\SRC\VGUI2\VGUI_CONTROLS\SPLITTER.CPP
^C:\USERS\WOLFCL0CK\DOCUMENTS\GITHUB\SP\SOURCE-SDK-2013\SP\SRC\VGUI2\VGUI_CONTROLS\SUBRECTIMAGE.CPP
/c /I..\..\common /I..\..\public /I..\..\public\tier0 /I..\..\public\tier1 /Igenerated_proto /I"..\..\thirdparty\protobuf-2.3.0\src" /I..\..\thirdparty /I..\..\thirdparty\cef /Igenerated_proto /Z7 /nologo /W4 /WX /O2 /Ob2 /Oi /Ot /Oy- /D VPC /D RAD_TELEMETRY_DISABLED /D WIN32 /D _WIN32 /D NDEBUG /D _LIB /D _CRT_SECURE_NO_DEPRECATE /D _CRT_NONSTDC_NO_DEPRECATE /D _ALLOW_RUNTIME_LIBRARY_MISMATCH /D _ALLOW_ITERATOR_DEBUG_LEVEL_MISMATCH /D _ALLOW_MSC_VER_MISMATCH /D _USING_V110_SDK71_ /D _MBCS /D COMPILER_MSVC32 /D COMPILER_MSVC32 /D COMPILER_MSVC /D _DLL_EXT=.dll /D LIBNAME=vgui_controls /D BINK_VIDEO /D AVI_VIDEO /D WMV_VIDEO /D DEV_BUILD /D FRAME_POINTER_OMISSION_DISABLED /D _EXTERNAL_DLL_EXT=.dll /D VPCGAMECAPS=VALVE /D "PROJECTDIR=C:\Users\Wolfcl0ck\Documents\GitHub\sp\source-sdk-2013\sp\src\vgui2\vgui_controls" /D _DLL_EXT=.dll /D SOURCE1=1 /D VPCGAME=valve /GF /Gm- /MT /GS /Gy /arch:SSE /fp:fast /Zc:wchar_t /Zc:forScope /GR /openmp- /Fo".\RELEASE\.\/" /Fd".\RELEASE\.\/VC120.PDB" /Gd /TP /wd4316 /analyze- /FC /d2Zi+ /Gw C:\USERS\WOLFCL0CK\DOCUMENTS\GITHUB\SP\SOURCE-SDK-2013\SP\SRC\VGUI2\VGUI_CONTROLS\SUBRECTIMAGE.CPP
^C:\USERS\WOLFCL0CK\DOCUMENTS\GITHUB\SP\SOURCE-SDK-2013\SP\SRC\VGUI2\VGUI_CONTROLS\TEXTENTRY.CPP
/c /I..\..\common /I..\..\public /I..\..\public\tier0 /I..\..\public\tier1 /Igenerated_proto /I"..\..\thirdparty\protobuf-2.3.0\src" /I..\..\thirdparty /I..\..\thirdparty\cef /Igenerated_proto /Z7 /nologo /W4 /WX /O2 /Ob2 /Oi /Ot /Oy- /D VPC /D RAD_TELEMETRY_DISABLED /D WIN32 /D _WIN32 /D NDEBUG /D _LIB /D _CRT_SECURE_NO_DEPRECATE /D _CRT_NONSTDC_NO_DEPRECATE /D _ALLOW_RUNTIME_LIBRARY_MISMATCH /D _ALLOW_ITERATOR_DEBUG_LEVEL_MISMATCH /D _ALLOW_MSC_VER_MISMATCH /D _USING_V110_SDK71_ /D _MBCS /D COMPILER_MSVC32 /D COMPILER_MSVC32 /D COMPILER_MSVC /D _DLL_EXT=.dll /D LIBNAME=vgui_controls /D BINK_VIDEO /D AVI_VIDEO /D WMV_VIDEO /D DEV_BUILD /D FRAME_POINTER_OMISSION_DISABLED /D _EXTERNAL_DLL_EXT=.dll /D VPCGAMECAPS=VALVE /D "PROJECTDIR=C:\Users\Wolfcl0ck\Documents\GitHub\sp\source-sdk-2013\sp\src\vgui2\vgui_controls" /D _DLL_EXT=.dll /D SOURCE1=1 /D VPCGAME=valve /GF /Gm- /MT /GS /Gy /arch:SSE /fp:fast /Zc:wchar_t /Zc:forScope /GR /openmp- /Fo".\RELEASE\.\/" /Fd".\RELEASE\.\/VC120.PDB" /Gd /TP /wd4316 /analyze- /FC /d2Zi+ /Gw C:\USERS\WOLFCL0CK\DOCUMENTS\GITHUB\SP\SOURCE-SDK-2013\SP\SRC\VGUI2\VGUI_CONTROLS\TEXTENTRY.CPP
^C:\USERS\WOLFCL0CK\DOCUMENTS\GITHUB\SP\SOURCE-SDK-2013\SP\SRC\VGUI2\VGUI_CONTROLS\TEXTIMAGE.CPP
/c /I..\..\common /I..\..\public /I..\..\public\tier0 /I..\..\public\tier1 /Igenerated_proto /I"..\..\thirdparty\protobuf-2.3.0\src" /I..\..\thirdparty /I..\..\thirdparty\cef /Igenerated_proto /Z7 /nologo /W4 /WX /O2 /Ob2 /Oi /Ot /Oy- /D VPC /D RAD_TELEMETRY_DISABLED /D WIN32 /D _WIN32 /D NDEBUG /D _LIB /D _CRT_SECURE_NO_DEPRECATE /D _CRT_NONSTDC_NO_DEPRECATE /D _ALLOW_RUNTIME_LIBRARY_MISMATCH /D _ALLOW_ITERATOR_DEBUG_LEVEL_MISMATCH /D _ALLOW_MSC_VER_MISMATCH /D _USING_V110_SDK71_ /D _MBCS /D COMPILER_MSVC32 /D COMPILER_MSVC32 /D COMPILER_MSVC /D _DLL_EXT=.dll /D LIBNAME=vgui_controls /D BINK_VIDEO /D AVI_VIDEO /D WMV_VIDEO /D DEV_BUILD /D FRAME_POINTER_OMISSION_DISABLED /D _EXTERNAL_DLL_EXT=.dll /D VPCGAMECAPS=VALVE /D "PROJECTDIR=C:\Users\Wolfcl0ck\Documents\GitHub\sp\source-sdk-2013\sp\src\vgui2\vgui_controls" /D _DLL_EXT=.dll /D SOURCE1=1 /D VPCGAME=valve /GF /Gm- /MT /GS /Gy /arch:SSE /fp:fast /Zc:wchar_t /Zc:forScope /GR /openmp- /Fo".\RELEASE\.\/" /Fd".\RELEASE\.\/VC120.PDB" /Gd /TP /wd4316 /analyze- /FC /d2Zi+ /Gw C:\USERS\WOLFCL0CK\DOCUMENTS\GITHUB\SP\SOURCE-SDK-2013\SP\SRC\VGUI2\VGUI_CONTROLS\TEXTIMAGE.CPP
^C:\USERS\WOLFCL0CK\DOCUMENTS\GITHUB\SP\SOURCE-SDK-2013\SP\SRC\VGUI2\VGUI_CONTROLS\TOGGLEBUTTON.CPP
/c /I..\..\common /I..\..\public /I..\..\public\tier0 /I..\..\public\tier1 /Igenerated_proto /I"..\..\thirdparty\protobuf-2.3.0\src" /I..\..\thirdparty /I..\..\thirdparty\cef /Igenerated_proto /Z7 /nologo /W4 /WX /O2 /Ob2 /Oi /Ot /Oy- /D VPC /D RAD_TELEMETRY_DISABLED /D WIN32 /D _WIN32 /D NDEBUG /D _LIB /D _CRT_SECURE_NO_DEPRECATE /D _CRT_NONSTDC_NO_DEPRECATE /D _ALLOW_RUNTIME_LIBRARY_MISMATCH /D _ALLOW_ITERATOR_DEBUG_LEVEL_MISMATCH /D _ALLOW_MSC_VER_MISMATCH /D _USING_V110_SDK71_ /D _MBCS /D COMPILER_MSVC32 /D COMPILER_MSVC32 /D COMPILER_MSVC /D _DLL_EXT=.dll /D LIBNAME=vgui_controls /D BINK_VIDEO /D AVI_VIDEO /D WMV_VIDEO /D DEV_BUILD /D FRAME_POINTER_OMISSION_DISABLED /D _EXTERNAL_DLL_EXT=.dll /D VPCGAMECAPS=VALVE /D "PROJECTDIR=C:\Users\Wolfcl0ck\Documents\GitHub\sp\source-sdk-2013\sp\src\vgui2\vgui_controls" /D _DLL_EXT=.dll /D SOURCE1=1 /D VPCGAME=valve /GF /Gm- /MT /GS /Gy /arch:SSE /fp:fast /Zc:wchar_t /Zc:forScope /GR /openmp- /Fo".\RELEASE\.\/" /Fd".\RELEASE\.\/VC120.PDB" /Gd /TP /wd4316 /analyze- /FC /d2Zi+ /Gw C:\USERS\WOLFCL0CK\DOCUMENTS\GITHUB\SP\SOURCE-SDK-2013\SP\SRC\VGUI2\VGUI_CONTROLS\TOGGLEBUTTON.CPP
^C:\USERS\WOLFCL0CK\DOCUMENTS\GITHUB\SP\SOURCE-SDK-2013\SP\SRC\VGUI2\VGUI_CONTROLS\TOOLTIP.CPP
/c /I..\..\common /I..\..\public /I..\..\public\tier0 /I..\..\public\tier1 /Igenerated_proto /I"..\..\thirdparty\protobuf-2.3.0\src" /I..\..\thirdparty /I..\..\thirdparty\cef /Igenerated_proto /Z7 /nologo /W4 /WX /O2 /Ob2 /Oi /Ot /Oy- /D VPC /D RAD_TELEMETRY_DISABLED /D WIN32 /D _WIN32 /D NDEBUG /D _LIB /D _CRT_SECURE_NO_DEPRECATE /D _CRT_NONSTDC_NO_DEPRECATE /D _ALLOW_RUNTIME_LIBRARY_MISMATCH /D _ALLOW_ITERATOR_DEBUG_LEVEL_MISMATCH /D _ALLOW_MSC_VER_MISMATCH /D _USING_V110_SDK71_ /D _MBCS /D COMPILER_MSVC32 /D COMPILER_MSVC32 /D COMPILER_MSVC /D _DLL_EXT=.dll /D LIBNAME=vgui_controls /D BINK_VIDEO /D AVI_VIDEO /D WMV_VIDEO /D DEV_BUILD /D FRAME_POINTER_OMISSION_DISABLED /D _EXTERNAL_DLL_EXT=.dll /D VPCGAMECAPS=VALVE /D "PROJECTDIR=C:\Users\Wolfcl0ck\Documents\GitHub\sp\source-sdk-2013\sp\src\vgui2\vgui_controls" /D _DLL_EXT=.dll /D SOURCE1=1 /D VPCGAME=valve /GF /Gm- /MT /GS /Gy /arch:SSE /fp:fast /Zc:wchar_t /Zc:forScope /GR /openmp- /Fo".\RELEASE\.\/" /Fd".\RELEASE\.\/VC120.PDB" /Gd /TP /wd4316 /analyze- /FC /d2Zi+ /Gw C:\USERS\WOLFCL0CK\DOCUMENTS\GITHUB\SP\SOURCE-SDK-2013\SP\SRC\VGUI2\VGUI_CONTROLS\TOOLTIP.CPP
^C:\USERS\WOLFCL0CK\DOCUMENTS\GITHUB\SP\SOURCE-SDK-2013\SP\SRC\VGUI2\VGUI_CONTROLS\TOOLWINDOW.CPP
/c /I..\..\common /I..\..\public /I..\..\public\tier0 /I..\..\public\tier1 /Igenerated_proto /I"..\..\thirdparty\protobuf-2.3.0\src" /I..\..\thirdparty /I..\..\thirdparty\cef /Igenerated_proto /Z7 /nologo /W4 /WX /O2 /Ob2 /Oi /Ot /Oy- /D VPC /D RAD_TELEMETRY_DISABLED /D WIN32 /D _WIN32 /D NDEBUG /D _LIB /D _CRT_SECURE_NO_DEPRECATE /D _CRT_NONSTDC_NO_DEPRECATE /D _ALLOW_RUNTIME_LIBRARY_MISMATCH /D _ALLOW_ITERATOR_DEBUG_LEVEL_MISMATCH /D _ALLOW_MSC_VER_MISMATCH /D _USING_V110_SDK71_ /D _MBCS /D COMPILER_MSVC32 /D COMPILER_MSVC32 /D COMPILER_MSVC /D _DLL_EXT=.dll /D LIBNAME=vgui_controls /D BINK_VIDEO /D AVI_VIDEO /D WMV_VIDEO /D DEV_BUILD /D FRAME_POINTER_OMISSION_DISABLED /D _EXTERNAL_DLL_EXT=.dll /D VPCGAMECAPS=VALVE /D "PROJECTDIR=C:\Users\Wolfcl0ck\Documents\GitHub\sp\source-sdk-2013\sp\src\vgui2\vgui_controls" /D _DLL_EXT=.dll /D SOURCE1=1 /D VPCGAME=valve /GF /Gm- /MT /GS /Gy /arch:SSE /fp:fast /Zc:wchar_t /Zc:forScope /GR /openmp- /Fo".\RELEASE\.\/" /Fd".\RELEASE\.\/VC120.PDB" /Gd /TP /wd4316 /analyze- /FC /d2Zi+ /Gw C:\USERS\WOLFCL0CK\DOCUMENTS\GITHUB\SP\SOURCE-SDK-2013\SP\SRC\VGUI2\VGUI_CONTROLS\TOOLWINDOW.CPP
^C:\USERS\WOLFCL0CK\DOCUMENTS\GITHUB\SP\SOURCE-SDK-2013\SP\SRC\VGUI2\VGUI_CONTROLS\TREEVIEW.CPP
/c /I..\..\common /I..\..\public /I..\..\public\tier0 /I..\..\public\tier1 /Igenerated_proto /I"..\..\thirdparty\protobuf-2.3.0\src" /I..\..\thirdparty /I..\..\thirdparty\cef /Igenerated_proto /Z7 /nologo /W4 /WX /O2 /Ob2 /Oi /Ot /Oy- /D VPC /D RAD_TELEMETRY_DISABLED /D WIN32 /D _WIN32 /D NDEBUG /D _LIB /D _CRT_SECURE_NO_DEPRECATE /D _CRT_NONSTDC_NO_DEPRECATE /D _ALLOW_RUNTIME_LIBRARY_MISMATCH /D _ALLOW_ITERATOR_DEBUG_LEVEL_MISMATCH /D _ALLOW_MSC_VER_MISMATCH /D _USING_V110_SDK71_ /D _MBCS /D COMPILER_MSVC32 /D COMPILER_MSVC32 /D COMPILER_MSVC /D _DLL_EXT=.dll /D LIBNAME=vgui_controls /D BINK_VIDEO /D AVI_VIDEO /D WMV_VIDEO /D DEV_BUILD /D FRAME_POINTER_OMISSION_DISABLED /D _EXTERNAL_DLL_EXT=.dll /D VPCGAMECAPS=VALVE /D "PROJECTDIR=C:\Users\Wolfcl0ck\Documents\GitHub\sp\source-sdk-2013\sp\src\vgui2\vgui_controls" /D _DLL_EXT=.dll /D SOURCE1=1 /D VPCGAME=valve /GF /Gm- /MT /GS /Gy /arch:SSE /fp:fast /Zc:wchar_t /Zc:forScope /GR /openmp- /Fo".\RELEASE\.\/" /Fd".\RELEASE\.\/VC120.PDB" /Gd /TP /wd4316 /analyze- /FC /d2Zi+ /Gw C:\USERS\WOLFCL0CK\DOCUMENTS\GITHUB\SP\SOURCE-SDK-2013\SP\SRC\VGUI2\VGUI_CONTROLS\TREEVIEW.CPP
^C:\USERS\WOLFCL0CK\DOCUMENTS\GITHUB\SP\SOURCE-SDK-2013\SP\SRC\VGUI2\VGUI_CONTROLS\TREEVIEWLISTCONTROL.CPP
/c /I..\..\common /I..\..\public /I..\..\public\tier0 /I..\..\public\tier1 /Igenerated_proto /I"..\..\thirdparty\protobuf-2.3.0\src" /I..\..\thirdparty /I..\..\thirdparty\cef /Igenerated_proto /Z7 /nologo /W4 /WX /O2 /Ob2 /Oi /Ot /Oy- /D VPC /D RAD_TELEMETRY_DISABLED /D WIN32 /D _WIN32 /D NDEBUG /D _LIB /D _CRT_SECURE_NO_DEPRECATE /D _CRT_NONSTDC_NO_DEPRECATE /D _ALLOW_RUNTIME_LIBRARY_MISMATCH /D _ALLOW_ITERATOR_DEBUG_LEVEL_MISMATCH /D _ALLOW_MSC_VER_MISMATCH /D _USING_V110_SDK71_ /D _MBCS /D COMPILER_MSVC32 /D COMPILER_MSVC32 /D COMPILER_MSVC /D _DLL_EXT=.dll /D LIBNAME=vgui_controls /D BINK_VIDEO /D AVI_VIDEO /D WMV_VIDEO /D DEV_BUILD /D FRAME_POINTER_OMISSION_DISABLED /D _EXTERNAL_DLL_EXT=.dll /D VPCGAMECAPS=VALVE /D "PROJECTDIR=C:\Users\Wolfcl0ck\Documents\GitHub\sp\source-sdk-2013\sp\src\vgui2\vgui_controls" /D _DLL_EXT=.dll /D SOURCE1=1 /D VPCGAME=valve /GF /Gm- /MT /GS /Gy /arch:SSE /fp:fast /Zc:wchar_t /Zc:forScope /GR /openmp- /Fo".\RELEASE\.\/" /Fd".\RELEASE\.\/VC120.PDB" /Gd /TP /wd4316 /analyze- /FC /d2Zi+ /Gw C:\USERS\WOLFCL0CK\DOCUMENTS\GITHUB\SP\SOURCE-SDK-2013\SP\SRC\VGUI2\VGUI_CONTROLS\TREEVIEWLISTCONTROL.CPP
^C:\USERS\WOLFCL0CK\DOCUMENTS\GITHUB\SP\SOURCE-SDK-2013\SP\SRC\VGUI2\VGUI_CONTROLS\URLLABEL.CPP
/c /I..\..\common /I..\..\public /I..\..\public\tier0 /I..\..\public\tier1 /Igenerated_proto /I"..\..\thirdparty\protobuf-2.3.0\src" /I..\..\thirdparty /I..\..\thirdparty\cef /Igenerated_proto /Z7 /nologo /W4 /WX /O2 /Ob2 /Oi /Ot /Oy- /D VPC /D RAD_TELEMETRY_DISABLED /D WIN32 /D _WIN32 /D NDEBUG /D _LIB /D _CRT_SECURE_NO_DEPRECATE /D _CRT_NONSTDC_NO_DEPRECATE /D _ALLOW_RUNTIME_LIBRARY_MISMATCH /D _ALLOW_ITERATOR_DEBUG_LEVEL_MISMATCH /D _ALLOW_MSC_VER_MISMATCH /D _USING_V110_SDK71_ /D _MBCS /D COMPILER_MSVC32 /D COMPILER_MSVC32 /D COMPILER_MSVC /D _DLL_EXT=.dll /D LIBNAME=vgui_controls /D BINK_VIDEO /D AVI_VIDEO /D WMV_VIDEO /D DEV_BUILD /D FRAME_POINTER_OMISSION_DISABLED /D _EXTERNAL_DLL_EXT=.dll /D VPCGAMECAPS=VALVE /D "PROJECTDIR=C:\Users\Wolfcl0ck\Documents\GitHub\sp\source-sdk-2013\sp\src\vgui2\vgui_controls" /D _DLL_EXT=.dll /D SOURCE1=1 /D VPCGAME=valve /GF /Gm- /MT /GS /Gy /arch:SSE /fp:fast /Zc:wchar_t /Zc:forScope /GR /openmp- /Fo".\RELEASE\.\/" /Fd".\RELEASE\.\/VC120.PDB" /Gd /TP /wd4316 /analyze- /FC /d2Zi+ /Gw C:\USERS\WOLFCL0CK\DOCUMENTS\GITHUB\SP\SOURCE-SDK-2013\SP\SRC\VGUI2\VGUI_CONTROLS\URLLABEL.CPP
^C:\USERS\WOLFCL0CK\DOCUMENTS\GITHUB\SP\SOURCE-SDK-2013\SP\SRC\VGUI2\SRC\VGUI_KEY_TRANSLATION.CPP
/c /I..\..\common /I..\..\public /I..\..\public\tier0 /I..\..\public\tier1 /Igenerated_proto /I"..\..\thirdparty\protobuf-2.3.0\src" /I..\..\thirdparty /I..\..\thirdparty\cef /Igenerated_proto /Z7 /nologo /W4 /WX /O2 /Ob2 /Oi /Ot /Oy- /D VPC /D RAD_TELEMETRY_DISABLED /D WIN32 /D _WIN32 /D NDEBUG /D _LIB /D _CRT_SECURE_NO_DEPRECATE /D _CRT_NONSTDC_NO_DEPRECATE /D _ALLOW_RUNTIME_LIBRARY_MISMATCH /D _ALLOW_ITERATOR_DEBUG_LEVEL_MISMATCH /D _ALLOW_MSC_VER_MISMATCH /D _USING_V110_SDK71_ /D _MBCS /D COMPILER_MSVC32 /D COMPILER_MSVC32 /D COMPILER_MSVC /D _DLL_EXT=.dll /D LIBNAME=vgui_controls /D BINK_VIDEO /D AVI_VIDEO /D WMV_VIDEO /D DEV_BUILD /D FRAME_POINTER_OMISSION_DISABLED /D _EXTERNAL_DLL_EXT=.dll /D VPCGAMECAPS=VALVE /D "PROJECTDIR=C:\Users\Wolfcl0ck\Documents\GitHub\sp\source-sdk-2013\sp\src\vgui2\vgui_controls" /D _DLL_EXT=.dll /D SOURCE1=1 /D VPCGAME=valve /GF /Gm- /MT /GS /Gy /arch:SSE /fp:fast /Zc:wchar_t /Zc:forScope /GR /openmp- /Fo".\RELEASE\.\/" /Fd".\RELEASE\.\/VC120.PDB" /Gd /TP /wd4316 /analyze- /FC /d2Zi+ /Gw C:\USERS\WOLFCL0CK\DOCUMENTS\GITHUB\SP\SOURCE-SDK-2013\SP\SRC\VGUI2\SRC\VGUI_KEY_TRANSLATION.CPP
^C:\USERS\WOLFCL0CK\DOCUMENTS\GITHUB\SP\SOURCE-SDK-2013\SP\SRC\VGUI2\VGUI_CONTROLS\WIZARDPANEL.CPP
/c /I..\..\common /I..\..\public /I..\..\public\tier0 /I..\..\public\tier1 /Igenerated_proto /I"..\..\thirdparty\protobuf-2.3.0\src" /I..\..\thirdparty /I..\..\thirdparty\cef /Igenerated_proto /Z7 /nologo /W4 /WX /O2 /Ob2 /Oi /Ot /Oy- /D VPC /D RAD_TELEMETRY_DISABLED /D WIN32 /D _WIN32 /D NDEBUG /D _LIB /D _CRT_SECURE_NO_DEPRECATE /D _CRT_NONSTDC_NO_DEPRECATE /D _ALLOW_RUNTIME_LIBRARY_MISMATCH /D _ALLOW_ITERATOR_DEBUG_LEVEL_MISMATCH /D _ALLOW_MSC_VER_MISMATCH /D _USING_V110_SDK71_ /D _MBCS /D COMPILER_MSVC32 /D COMPILER_MSVC32 /D COMPILER_MSVC /D _DLL_EXT=.dll /D LIBNAME=vgui_controls /D BINK_VIDEO /D AVI_VIDEO /D WMV_VIDEO /D DEV_BUILD /D FRAME_POINTER_OMISSION_DISABLED /D _EXTERNAL_DLL_EXT=.dll /D VPCGAMECAPS=VALVE /D "PROJECTDIR=C:\Users\Wolfcl0ck\Documents\GitHub\sp\source-sdk-2013\sp\src\vgui2\vgui_controls" /D _DLL_EXT=.dll /D SOURCE1=1 /D VPCGAME=valve /GF /Gm- /MT /GS /Gy /arch:SSE /fp:fast /Zc:wchar_t /Zc:forScope /GR /openmp- /Fo".\RELEASE\.\/" /Fd".\RELEASE\.\/VC120.PDB" /Gd /TP /wd4316 /analyze- /FC /d2Zi+ /Gw C:\USERS\WOLFCL0CK\DOCUMENTS\GITHUB\SP\SOURCE-SDK-2013\SP\SRC\VGUI2\VGUI_CONTROLS\WIZARDPANEL.CPP
^C:\USERS\WOLFCL0CK\DOCUMENTS\GITHUB\SP\SOURCE-SDK-2013\SP\SRC\VGUI2\VGUI_CONTROLS\WIZARDSUBPANEL.CPP
/c /I..\..\common /I..\..\public /I..\..\public\tier0 /I..\..\public\tier1 /Igenerated_proto /I"..\..\thirdparty\protobuf-2.3.0\src" /I..\..\thirdparty /I..\..\thirdparty\cef /Igenerated_proto /Z7 /nologo /W4 /WX /O2 /Ob2 /Oi /Ot /Oy- /D VPC /D RAD_TELEMETRY_DISABLED /D WIN32 /D _WIN32 /D NDEBUG /D _LIB /D _CRT_SECURE_NO_DEPRECATE /D _CRT_NONSTDC_NO_DEPRECATE /D _ALLOW_RUNTIME_LIBRARY_MISMATCH /D _ALLOW_ITERATOR_DEBUG_LEVEL_MISMATCH /D _ALLOW_MSC_VER_MISMATCH /D _USING_V110_SDK71_ /D _MBCS /D COMPILER_MSVC32 /D COMPILER_MSVC32 /D COMPILER_MSVC /D _DLL_EXT=.dll /D LIBNAME=vgui_controls /D BINK_VIDEO /D AVI_VIDEO /D WMV_VIDEO /D DEV_BUILD /D FRAME_POINTER_OMISSION_DISABLED /D _EXTERNAL_DLL_EXT=.dll /D VPCGAMECAPS=VALVE /D "PROJECTDIR=C:\Users\Wolfcl0ck\Documents\GitHub\sp\source-sdk-2013\sp\src\vgui2\vgui_controls" /D _DLL_EXT=.dll /D SOURCE1=1 /D VPCGAME=valve /GF /Gm- /MT /GS /Gy /arch:SSE /fp:fast /Zc:wchar_t /Zc:forScope /GR /openmp- /Fo".\RELEASE\.\/" /Fd".\RELEASE\.\/VC120.PDB" /Gd /TP /wd4316 /analyze- /FC /d2Zi+ /Gw C:\USERS\WOLFCL0CK\DOCUMENTS\GITHUB\SP\SOURCE-SDK-2013\SP\SRC\VGUI2\VGUI_CONTROLS\WIZARDSUBPANEL.CPP
