"VertexLitGeneric"
{
	// Original shader: VertexLitTexture
	"$basetexture" "models/Alyx/beltstrap"
	"$bumpmap" "models/alyx/beltstrap_normal"
	"$halflambert" 1
	"$phong" "1"
	"$phongexponent" 4
	"$phongboost"	"2"
	"$phongfresnelranges"	"[0.00 0.1 0.5]"
	"$phongtint" "[.6 .7 .45]"
}
