^C:\USERS\WOLFCL0CK\DOCUMENTS\GITHUB\SP\SOURCE-SDK-2013\SP\SRC\MATHLIB\RELEASE\3DNOW.OBJ|C:\USERS\WOLFCL0CK\DOCUMENTS\GITHUB\SP\SOURCE-SDK-2013\SP\SRC\MATHLIB\RELEASE\ALMOSTEQUAL.OBJ|C:\USERS\WOLFCL0CK\DOCUMENTS\GITHUB\SP\SOURCE-SDK-2013\SP\SRC\MATHLIB\RELEASE\ANORMS.OBJ|C:\USERS\WOLFCL0CK\DOCUMENTS\GITHUB\SP\SOURCE-SDK-2013\SP\SRC\MATHLIB\RELEASE\BUMPVECTS.OBJ|C:\USERS\WOLFCL0CK\DOCUMENTS\GITHUB\SP\SOURCE-SDK-2013\SP\SRC\MATHLIB\RELEASE\COLOR_CONVERSION.OBJ|C:\USERS\WOLFCL0CK\DOCUMENTS\GITHUB\SP\SOURCE-SDK-2013\SP\SRC\MATHLIB\RELEASE\HALTON.OBJ|C:\USERS\WOLFCL0CK\DOCUMENTS\GITHUB\SP\SOURCE-SDK-2013\SP\SRC\MATHLIB\RELEASE\ICEKEY.OBJ|C:\USERS\WOLFCL0CK\DOCUMENTS\GITHUB\SP\SOURCE-SDK-2013\SP\SRC\MATHLIB\RELEASE\IMAGEQUANT.OBJ|C:\USERS\WOLFCL0CK\DOCUMENTS\GITHUB\SP\SOURCE-SDK-2013\SP\SRC\MATHLIB\RELEASE\LIGHTDESC.OBJ|C:\USERS\WOLFCL0CK\DOCUMENTS\GITHUB\SP\SOURCE-SDK-2013\SP\SRC\MATHLIB\RELEASE\MATHLIB_BASE.OBJ|C:\USERS\WOLFCL0CK\DOCUMENTS\GITHUB\SP\SOURCE-SDK-2013\SP\SRC\MATHLIB\RELEASE\POLYHEDRON.OBJ|C:\USERS\WOLFCL0CK\DOCUMENTS\GITHUB\SP\SOURCE-SDK-2013\SP\SRC\MATHLIB\RELEASE\POWSSE.OBJ|C:\USERS\WOLFCL0CK\DOCUMENTS\GITHUB\SP\SOURCE-SDK-2013\SP\SRC\MATHLIB\RELEASE\QUANTIZE.OBJ|C:\USERS\WOLFCL0CK\DOCUMENTS\GITHUB\SP\SOURCE-SDK-2013\SP\SRC\MATHLIB\RELEASE\RANDSSE.OBJ|C:\USERS\WOLFCL0CK\DOCUMENTS\GITHUB\SP\SOURCE-SDK-2013\SP\SRC\MATHLIB\RELEASE\SIMDVECTORMATRIX.OBJ|C:\USERS\WOLFCL0CK\DOCUMENTS\GITHUB\SP\SOURCE-SDK-2013\SP\SRC\MATHLIB\RELEASE\SPARSE_CONVOLUTION_NOISE.OBJ|C:\USERS\WOLFCL0CK\DOCUMENTS\GITHUB\SP\SOURCE-SDK-2013\SP\SRC\MATHLIB\RELEASE\SPHERICAL.OBJ|C:\USERS\WOLFCL0CK\DOCUMENTS\GITHUB\SP\SOURCE-SDK-2013\SP\SRC\MATHLIB\RELEASE\SSE.OBJ|C:\USERS\WOLFCL0CK\DOCUMENTS\GITHUB\SP\SOURCE-SDK-2013\SP\SRC\MATHLIB\RELEASE\SSECONST.OBJ|C:\USERS\WOLFCL0CK\DOCUMENTS\GITHUB\SP\SOURCE-SDK-2013\SP\SRC\MATHLIB\RELEASE\SSENOISE.OBJ|C:\USERS\WOLFCL0CK\DOCUMENTS\GITHUB\SP\SOURCE-SDK-2013\SP\SRC\MATHLIB\RELEASE\VECTOR.OBJ|C:\USERS\WOLFCL0CK\DOCUMENTS\GITHUB\SP\SOURCE-SDK-2013\SP\SRC\MATHLIB\RELEASE\VMATRIX.OBJ
C:\WINDOWS\SYSTEM32\TZRES.DLL
C:\USERS\WOLFCL0CK\DOCUMENTS\GITHUB\SP\SOURCE-SDK-2013\SP\SRC\MATHLIB\RELEASE\3DNOW.OBJ
C:\USERS\WOLFCL0CK\DOCUMENTS\GITHUB\SP\SOURCE-SDK-2013\SP\SRC\MATHLIB\RELEASE\ALMOSTEQUAL.OBJ
C:\USERS\WOLFCL0CK\DOCUMENTS\GITHUB\SP\SOURCE-SDK-2013\SP\SRC\MATHLIB\RELEASE\ANORMS.OBJ
C:\USERS\WOLFCL0CK\DOCUMENTS\GITHUB\SP\SOURCE-SDK-2013\SP\SRC\MATHLIB\RELEASE\BUMPVECTS.OBJ
C:\USERS\WOLFCL0CK\DOCUMENTS\GITHUB\SP\SOURCE-SDK-2013\SP\SRC\MATHLIB\RELEASE\COLOR_CONVERSION.OBJ
C:\USERS\WOLFCL0CK\DOCUMENTS\GITHUB\SP\SOURCE-SDK-2013\SP\SRC\MATHLIB\RELEASE\HALTON.OBJ
C:\USERS\WOLFCL0CK\DOCUMENTS\GITHUB\SP\SOURCE-SDK-2013\SP\SRC\MATHLIB\RELEASE\ICEKEY.OBJ
C:\USERS\WOLFCL0CK\DOCUMENTS\GITHUB\SP\SOURCE-SDK-2013\SP\SRC\MATHLIB\RELEASE\IMAGEQUANT.OBJ
C:\USERS\WOLFCL0CK\DOCUMENTS\GITHUB\SP\SOURCE-SDK-2013\SP\SRC\MATHLIB\RELEASE\LIGHTDESC.OBJ
C:\USERS\WOLFCL0CK\DOCUMENTS\GITHUB\SP\SOURCE-SDK-2013\SP\SRC\MATHLIB\RELEASE\MATHLIB_BASE.OBJ
C:\USERS\WOLFCL0CK\DOCUMENTS\GITHUB\SP\SOURCE-SDK-2013\SP\SRC\MATHLIB\RELEASE\POLYHEDRON.OBJ
C:\USERS\WOLFCL0CK\DOCUMENTS\GITHUB\SP\SOURCE-SDK-2013\SP\SRC\MATHLIB\RELEASE\POWSSE.OBJ
C:\USERS\WOLFCL0CK\DOCUMENTS\GITHUB\SP\SOURCE-SDK-2013\SP\SRC\MATHLIB\RELEASE\QUANTIZE.OBJ
C:\USERS\WOLFCL0CK\DOCUMENTS\GITHUB\SP\SOURCE-SDK-2013\SP\SRC\MATHLIB\RELEASE\RANDSSE.OBJ
C:\USERS\WOLFCL0CK\DOCUMENTS\GITHUB\SP\SOURCE-SDK-2013\SP\SRC\MATHLIB\RELEASE\SIMDVECTORMATRIX.OBJ
C:\USERS\WOLFCL0CK\DOCUMENTS\GITHUB\SP\SOURCE-SDK-2013\SP\SRC\MATHLIB\RELEASE\SPARSE_CONVOLUTION_NOISE.OBJ
C:\USERS\WOLFCL0CK\DOCUMENTS\GITHUB\SP\SOURCE-SDK-2013\SP\SRC\MATHLIB\RELEASE\SPHERICAL.OBJ
C:\USERS\WOLFCL0CK\DOCUMENTS\GITHUB\SP\SOURCE-SDK-2013\SP\SRC\MATHLIB\RELEASE\SSE.OBJ
C:\USERS\WOLFCL0CK\DOCUMENTS\GITHUB\SP\SOURCE-SDK-2013\SP\SRC\MATHLIB\RELEASE\SSECONST.OBJ
C:\USERS\WOLFCL0CK\DOCUMENTS\GITHUB\SP\SOURCE-SDK-2013\SP\SRC\MATHLIB\RELEASE\SSENOISE.OBJ
C:\USERS\WOLFCL0CK\DOCUMENTS\GITHUB\SP\SOURCE-SDK-2013\SP\SRC\MATHLIB\RELEASE\VECTOR.OBJ
C:\USERS\WOLFCL0CK\DOCUMENTS\GITHUB\SP\SOURCE-SDK-2013\SP\SRC\MATHLIB\RELEASE\VMATRIX.OBJ
C:\WINDOWS\GLOBALIZATION\SORTING\SORTDEFAULT.NLS
