^C:\USERS\WOLFCL0CK\DOCUMENTS\GITHUB\SP\SOURCE-SDK-2013\SP\SRC\UTILS\COMMON\CMDLIB.CPP
C:\USERS\WOLFCL0CK\DOCUMENTS\GITHUB\SP\SOURCE-SDK-2013\SP\SRC\UTILS\CAPTIONCOMPILER\RELEASE\VC120.PDB
^C:\USERS\WOLFCL0CK\DOCUMENTS\GITHUB\SP\SOURCE-SDK-2013\SP\SRC\PUBLIC\FILESYSTEM_HELPERS.CPP
C:\USERS\WOLFCL0CK\DOCUMENTS\GITHUB\SP\SOURCE-SDK-2013\SP\SRC\UTILS\CAPTIONCOMPILER\RELEASE\VC120.PDB
^C:\USERS\WOLFCL0CK\DOCUMENTS\GITHUB\SP\SOURCE-SDK-2013\SP\SRC\PUBLIC\FILESYSTEM_INIT.CPP
C:\USERS\WOLFCL0CK\DOCUMENTS\GITHUB\SP\SOURCE-SDK-2013\SP\SRC\UTILS\CAPTIONCOMPILER\RELEASE\VC120.PDB
^C:\USERS\WOLFCL0CK\DOCUMENTS\GITHUB\SP\SOURCE-SDK-2013\SP\SRC\UTILS\COMMON\PACIFIER.CPP
C:\USERS\WOLFCL0CK\DOCUMENTS\GITHUB\SP\SOURCE-SDK-2013\SP\SRC\UTILS\CAPTIONCOMPILER\RELEASE\VC120.PDB
^C:\USERS\WOLFCL0CK\DOCUMENTS\GITHUB\SP\SOURCE-SDK-2013\SP\SRC\UTILS\COMMON\SCRIPLIB.CPP
C:\USERS\WOLFCL0CK\DOCUMENTS\GITHUB\SP\SOURCE-SDK-2013\SP\SRC\UTILS\CAPTIONCOMPILER\RELEASE\VC120.PDB
^C:\USERS\WOLFCL0CK\DOCUMENTS\GITHUB\SP\SOURCE-SDK-2013\SP\SRC\PUBLIC\STRINGREGISTRY.CPP
C:\USERS\WOLFCL0CK\DOCUMENTS\GITHUB\SP\SOURCE-SDK-2013\SP\SRC\UTILS\CAPTIONCOMPILER\RELEASE\VC120.PDB
^C:\USERS\WOLFCL0CK\DOCUMENTS\GITHUB\SP\SOURCE-SDK-2013\SP\SRC\UTILS\CAPTIONCOMPILER\CAPTIONCOMPILER.CPP
C:\USERS\WOLFCL0CK\DOCUMENTS\GITHUB\SP\SOURCE-SDK-2013\SP\SRC\UTILS\CAPTIONCOMPILER\RELEASE\VC120.PDB
^C:\USERS\WOLFCL0CK\DOCUMENTS\GITHUB\SP\SOURCE-SDK-2013\SP\SRC\COMMON\COMPILEDCAPTIONSWAP.CPP
C:\USERS\WOLFCL0CK\DOCUMENTS\GITHUB\SP\SOURCE-SDK-2013\SP\SRC\UTILS\CAPTIONCOMPILER\RELEASE\VC120.PDB
^C:\USERS\WOLFCL0CK\DOCUMENTS\GITHUB\SP\SOURCE-SDK-2013\SP\SRC\UTILS\COMMON\FILESYSTEM_TOOLS.CPP
C:\USERS\WOLFCL0CK\DOCUMENTS\GITHUB\SP\SOURCE-SDK-2013\SP\SRC\UTILS\CAPTIONCOMPILER\RELEASE\VC120.PDB
^C:\USERS\WOLFCL0CK\DOCUMENTS\GITHUB\SP\SOURCE-SDK-2013\SP\SRC\PUBLIC\TIER0\MEMOVERRIDE.CPP
C:\USERS\WOLFCL0CK\DOCUMENTS\GITHUB\SP\SOURCE-SDK-2013\SP\SRC\UTILS\CAPTIONCOMPILER\RELEASE\VC120.PDB
