^C:\USERS\WOLFCL0CK\DOCUMENTS\GITHUB\SP\SOURCE-SDK-2013\SP\SRC\LIB\PUBLIC\MATHLIB.LIB|C:\USERS\WOLFCL0CK\DOCUMENTS\GITHUB\SP\SOURCE-SDK-2013\SP\SRC\LIB\PUBLIC\SHADERLIB.LIB|C:\USERS\WOLFCL0CK\DOCUMENTS\GITHUB\SP\SOURCE-SDK-2013\SP\SRC\LIB\PUBLIC\TIER0.LIB|C:\USERS\WOLFCL0CK\DOCUMENTS\GITHUB\SP\SOURCE-SDK-2013\SP\SRC\LIB\PUBLIC\TIER1.LIB|C:\USERS\WOLFCL0CK\DOCUMENTS\GITHUB\SP\SOURCE-SDK-2013\SP\SRC\LIB\PUBLIC\VSTDLIB.LIB|C:\USERS\WOLFCL0CK\DOCUMENTS\GITHUB\SP\SOURCE-SDK-2013\SP\SRC\MATERIALSYSTEM\STDSHADERS\RELEASE_DX9_MOD_EPISODIC\BASEVSSHADER.OBJ|C:\USERS\WOLFCL0CK\DOCUMENTS\GITHUB\SP\SOURCE-SDK-2013\SP\SRC\MATERIALSYSTEM\STDSHADERS\RELEASE_DX9_MOD_EPISODIC\BLOOM.OBJ|C:\USERS\WOLFCL0CK\DOCUMENTS\GITHUB\SP\SOURCE-SDK-2013\SP\SRC\MATERIALSYSTEM\STDSHADERS\RELEASE_DX9_MOD_EPISODIC\EXAMPLE_MODEL_DX9.OBJ|C:\USERS\WOLFCL0CK\DOCUMENTS\GITHUB\SP\SOURCE-SDK-2013\SP\SRC\MATERIALSYSTEM\STDSHADERS\RELEASE_DX9_MOD_EPISODIC\EXAMPLE_MODEL_DX9_HELPER.OBJ|C:\USERS\WOLFCL0CK\DOCUMENTS\GITHUB\SP\SOURCE-SDK-2013\SP\SRC\MATERIALSYSTEM\STDSHADERS\RELEASE_DX9_MOD_EPISODIC\MEMOVERRIDE.OBJ|C:\USERS\WOLFCL0CK\DOCUMENTS\GITHUB\SP\SOURCE-SDK-2013\SP\SRC\MATERIALSYSTEM\STDSHADERS\RELEASE_DX9_MOD_EPISODIC\POINTEROVERRIDE.OBJ|C:\USERS\WOLFCL0CK\DOCUMENTS\GITHUB\SP\SOURCE-SDK-2013\SP\SRC\MATERIALSYSTEM\STDSHADERS\RELEASE_DX9_MOD_EPISODIC\SCREENSPACE_GENERAL.OBJ
C:\USERS\WOLFCL0CK\DOCUMENTS\GITHUB\SP\SOURCE-SDK-2013\SP\SRC\MATERIALSYSTEM\STDSHADERS\RELEASE_DX9_MOD_EPISODIC\GAME_SHADER_DX9.DLL
C:\USERS\WOLFCL0CK\DOCUMENTS\GITHUB\SP\SOURCE-SDK-2013\SP\SRC\MATERIALSYSTEM\STDSHADERS\RELEASE_DX9_MOD_EPISODIC\GAME_SHADER_DX9.PDB
