^C:\Users\Wolfcl0ck\Documents\GitHub\sp\source-sdk-2013\sp\src\materialsystem\stdshaders\game_shader_dx9_episodic.vcxproj
C:\Users\Wolfcl0ck\Documents\GitHub\sp\source-sdk-2013\sp\src\materialsystem\stdshaders\Release_dx9_mod_episodic\game_shader_dx9.lib
C:\Users\Wolfcl0ck\Documents\GitHub\sp\source-sdk-2013\sp\src\materialsystem\stdshaders\Release_dx9_mod_episodic\game_shader_dx9.exp
^C:\Users\Wolfcl0ck\Documents\GitHub\sp\source-sdk-2013\sp\src\materialsystem\stdshaders\game_shader_dx9_episodic.vcxproj
C:\Users\Wolfcl0ck\Documents\GitHub\sp\source-sdk-2013\sp\src\materialsystem\stdshaders\Release_dx9_mod_episodic\game_shader_dx9.lib
C:\Users\Wolfcl0ck\Documents\GitHub\sp\source-sdk-2013\sp\src\materialsystem\stdshaders\Release_dx9_mod_episodic\game_shader_dx9.exp
