^C:\USERS\WOLFCL0CK\DOCUMENTS\GITHUB\SP\SOURCE-SDK-2013\SP\SRC\PUBLIC\TIER0\POINTEROVERRIDE.ASM
"C:\Program Files (x86)\Microsoft Visual Studio 12.0\VC\bin\ml.exe" /c /Cp /Zi /Fo".\Release\.\\pointeroverride.obj" "C:\Users\Wolfcl0ck\Documents\GitHub\sp\source-sdk-2013\sp\src\public\tier0\pointeroverride.asm"
^C:\USERS\WOLFCL0CK\DOCUMENTS\GITHUB\SP\SOURCE-SDK-2013\SP\SRC\UTILS\MOTIONMAPPER\MOTIONMAPPER.VPC
if exist "..\..\devtools\bin\vpc.exe" "..\..\devtools\bin\vpc.exe" -crc2 "motionmapper.vcxproj"if ERRORLEVEL 1 exit /b 1echo crc_complete > C:\Users\Wolfcl0ck\Documents\GitHub\sp\source-sdk-2013\sp\src\utils\motionmapper\motionmapper.vpc.sentinel
