^C:\Users\Wolfcl0ck\Documents\GitHub\sp\source-sdk-2013\sp\src\utils\motionmapper\motionmapper.vcxproj
C:\Users\Wolfcl0ck\Documents\GitHub\sp\source-sdk-2013\sp\src\utils\motionmapper\Release\motionmapper.lib
C:\Users\Wolfcl0ck\Documents\GitHub\sp\source-sdk-2013\sp\src\utils\motionmapper\Release\motionmapper.exp
^C:\Users\Wolfcl0ck\Documents\GitHub\sp\source-sdk-2013\sp\src\utils\motionmapper\motionmapper.vcxproj
C:\Users\Wolfcl0ck\Documents\GitHub\sp\source-sdk-2013\sp\src\utils\motionmapper\Release\motionmapper.lib
C:\Users\Wolfcl0ck\Documents\GitHub\sp\source-sdk-2013\sp\src\utils\motionmapper\Release\motionmapper.exp
^C:\Users\Wolfcl0ck\Documents\GitHub\sp\source-sdk-2013\sp\src\utils\motionmapper\motionmapper.vcxproj
C:\Users\Wolfcl0ck\Documents\GitHub\sp\source-sdk-2013\sp\src\utils\motionmapper\Release\motionmapper.lib
C:\Users\Wolfcl0ck\Documents\GitHub\sp\source-sdk-2013\sp\src\utils\motionmapper\Release\motionmapper.exp
