^C:\USERS\WOLFCL0CK\DOCUMENTS\GITHUB\SP\SOURCE-SDK-2013\SP\SRC\LIB\PUBLIC\MATHLIB.LIB|C:\USERS\WOLFCL0CK\DOCUMENTS\GITHUB\SP\SOURCE-SDK-2013\SP\SRC\LIB\PUBLIC\SHADERLIB.LIB|C:\USERS\WOLFCL0CK\DOCUMENTS\GITHUB\SP\SOURCE-SDK-2013\SP\SRC\LIB\PUBLIC\TIER0.LIB|C:\USERS\WOLFCL0CK\DOCUMENTS\GITHUB\SP\SOURCE-SDK-2013\SP\SRC\LIB\PUBLIC\TIER1.LIB|C:\USERS\WOLFCL0CK\DOCUMENTS\GITHUB\SP\SOURCE-SDK-2013\SP\SRC\LIB\PUBLIC\VSTDLIB.LIB|C:\USERS\WOLFCL0CK\DOCUMENTS\GITHUB\SP\SOURCE-SDK-2013\SP\SRC\MATERIALSYSTEM\STDSHADERS\RELEASE_DX9_MOD_HL2\BASEVSSHADER.OBJ|C:\USERS\WOLFCL0CK\DOCUMENTS\GITHUB\SP\SOURCE-SDK-2013\SP\SRC\MATERIALSYSTEM\STDSHADERS\RELEASE_DX9_MOD_HL2\BLOOM.OBJ|C:\USERS\WOLFCL0CK\DOCUMENTS\GITHUB\SP\SOURCE-SDK-2013\SP\SRC\MATERIALSYSTEM\STDSHADERS\RELEASE_DX9_MOD_HL2\EXAMPLE_MODEL_DX9.OBJ|C:\USERS\WOLFCL0CK\DOCUMENTS\GITHUB\SP\SOURCE-SDK-2013\SP\SRC\MATERIALSYSTEM\STDSHADERS\RELEASE_DX9_MOD_HL2\EXAMPLE_MODEL_DX9_HELPER.OBJ|C:\USERS\WOLFCL0CK\DOCUMENTS\GITHUB\SP\SOURCE-SDK-2013\SP\SRC\MATERIALSYSTEM\STDSHADERS\RELEASE_DX9_MOD_HL2\MEMOVERRIDE.OBJ|C:\USERS\WOLFCL0CK\DOCUMENTS\GITHUB\SP\SOURCE-SDK-2013\SP\SRC\MATERIALSYSTEM\STDSHADERS\RELEASE_DX9_MOD_HL2\POINTEROVERRIDE.OBJ|C:\USERS\WOLFCL0CK\DOCUMENTS\GITHUB\SP\SOURCE-SDK-2013\SP\SRC\MATERIALSYSTEM\STDSHADERS\RELEASE_DX9_MOD_HL2\SCREENSPACE_GENERAL.OBJ
C:\USERS\WOLFCL0CK\DOCUMENTS\GITHUB\SP\SOURCE-SDK-2013\SP\SRC\MATERIALSYSTEM\STDSHADERS\RELEASE_DX9_MOD_HL2\GAME_SHADER_DX9.DLL
C:\USERS\WOLFCL0CK\DOCUMENTS\GITHUB\SP\SOURCE-SDK-2013\SP\SRC\MATERIALSYSTEM\STDSHADERS\RELEASE_DX9_MOD_HL2\GAME_SHADER_DX9.PDB
